<div>    <div align="center" style="width:1300px; font-size:16px"><b></b></div>
	<table cellpadding="0" width="1280" cellspacing="0" border="1" class="rpt_table" rules="all">
		<thead>
             	<th width='38'>SL</th>
                <th width='85'>Emp Code</th>
                <th width='80'>ID Card</th>
                <th width='168'>Emp Name</th>
                <th width='120'>Designation</th>
                <th width='120'>Join Date</th>
                
                <th width='36'>Total Days</th>
                <th width='53'>Present</th>
                <th width='51'>Absent</th>
                <th width='38'>Late</th>
                <th width='30'>E.Out</th>
                <th width='45'>Leave</th>
                <th width='32'>MR</th>
                
                <th width='30'>WOD</th>
                <th width='30'>HD</th>
                <th width='32'>PL</th>
                <th width='30'>PW</th>
                <th width='32'>PH</th>
                <th width='50'>Total Present</th>
                <th width='57'>Payable Days</th>
                <th width='50'>Monthly OT</th>
                <th>Job Card</th>
    	</thead>
        <!--</table>
        <table  cellpadding="0" width="1230" cellspacing="0" border="1" class="rpt_table" id="table_body" >	--> 

						
            <tr bgcolor="#FFFFFF">
            	<td height='50'>1</td>
                <td height='50'>0052453</td>
                <td>0011153</td>
                <td>Md. Kamrul Haque  </td>
                <td align='left'>Assistant Officer</td>
                <td>08-02-2014</td>
                
                <td>13</td>
                 <td>
                 	<a href='#' onclick="openmypage('popup_report.php?action=emp_job_card_report&emp_code=0052453&emp_name=Md. Kamrul Haque                      &date_part_from=2014-04-01&date_part_to=2014-04-30&status=P','Partial Attendance'); return false">5</a>
                </td>
                <td>
                	<a href='#' onclick="openmypage('popup_report.php?action=emp_job_card_report&emp_code=0052453&emp_name=Md. Kamrul Haque                      &date_part_from=2014-04-01&date_part_to=2014-04-30&status=A','Partial Attendance'); return false">1</a>
                </td>
                <td bgcolor="#EE3900">&nbsp;
                	<a href='#' onclick="openmypage('popup_report.php?action=emp_job_card_report&emp_code=0052453&emp_name=Md. Kamrul Haque                      &date_part_from=2014-04-01&date_part_to=2014-04-30&status=D','Partial Attendance'); return false">5</a>
                </td>
                <td bgcolor="">&nbsp;
                	<a href='#' onclick="openmypage('popup_report.php?action=emp_job_card_report_e_out&emp_code=0052453&emp_name=Md. Kamrul Haque                      &date_part_from=2014-04-01&date_part_to=2014-04-30&status=EO','Partial Attendance'); return false">0</a>
                </td>
                <td>
                	<a href='#' onclick="openmypage('popup_report.php?action=emp_job_card_report&emp_code=0052453&emp_name=Md. Kamrul Haque                      &date_part_from=2014-04-01&date_part_to=2014-04-30&status=CL','Partial Attendance'); return false">0                    </a>
                </td>
                <td>
                    <a href='#' onclick="openmypage('popup_report.php?action=emp_job_card_report&emp_code=0052453&emp_name=Md. Kamrul Haque                      &date_part_from=2014-04-01&date_part_to=2014-04-30&status=MR','Partial Attendance'); return false">0                    </a>
                </td>						
                <td>
                    <a href='#' onclick="openmypage('popup_report.php?action=emp_job_card_report&emp_code=0052453&emp_name=Md. Kamrul Haque                      &date_part_from=2014-04-01&date_part_to=2014-04-30&status=W','Partial Attendance'); return false">2                    </a>
                </td>
                <td>
                    <a href='#' onclick="openmypage('popup_report.php?action=emp_job_card_report&emp_code=0052453&emp_name=Md. Kamrul Haque                      &date_part_from=2014-04-01&date_part_to=2014-04-30&status=H','Partial Attendance'); return false">0                    </a>
                </td>
                <td>0</td>
                <td>0</td>
                <td>0</td>
                <td>10</td>
                <td>12</td>
                <td>0.00</td>
                <td>
                    <input type="button" value="View" style="width:30px" class="formbutton" onclick="openmypage('popup_report.php?action=emp_job_card_report&emp_code=0052453&emp_name=Md. Kamrul Haque                      &date_part_from=2014-04-01&date_part_to=2014-04-30&status=JC','Partial Attendance'); return false"/>
                </td>
            </tr>
								
            <tr bgcolor="#E9F3FF">
            	<td height='50'>2</td>
                <td height='50'>0051916</td>
                <td>0010107</td>
                <td>Md. Bakibillah  </td>
                <td align='left'>Assistant Officer</td>
                <td>05-03-2012</td>
                
                <td>30</td>
                 <td>
                 	<a href='#' onclick="openmypage('popup_report.php?action=emp_job_card_report&emp_code=0051916&emp_name=Md. Bakibillah                      &date_part_from=2014-04-01&date_part_to=2014-04-30&status=P','Partial Attendance'); return false">24</a>
                </td>
                <td>
                	<a href='#' onclick="openmypage('popup_report.php?action=emp_job_card_report&emp_code=0051916&emp_name=Md. Bakibillah                      &date_part_from=2014-04-01&date_part_to=2014-04-30&status=A','Partial Attendance'); return false">0</a>
                </td>
                <td bgcolor="">&nbsp;
                	<a href='#' onclick="openmypage('popup_report.php?action=emp_job_card_report&emp_code=0051916&emp_name=Md. Bakibillah                      &date_part_from=2014-04-01&date_part_to=2014-04-30&status=D','Partial Attendance'); return false">1</a>
                </td>
                <td bgcolor="">&nbsp;
                	<a href='#' onclick="openmypage('popup_report.php?action=emp_job_card_report_e_out&emp_code=0051916&emp_name=Md. Bakibillah                      &date_part_from=2014-04-01&date_part_to=2014-04-30&status=EO','Partial Attendance'); return false">0</a>
                </td>
                <td>
                	<a href='#' onclick="openmypage('popup_report.php?action=emp_job_card_report&emp_code=0051916&emp_name=Md. Bakibillah                      &date_part_from=2014-04-01&date_part_to=2014-04-30&status=CL','Partial Attendance'); return false">0                    </a>
                </td>
                <td>
                    <a href='#' onclick="openmypage('popup_report.php?action=emp_job_card_report&emp_code=0051916&emp_name=Md. Bakibillah                      &date_part_from=2014-04-01&date_part_to=2014-04-30&status=MR','Partial Attendance'); return false">0                    </a>
                </td>						
                <td>
                    <a href='#' onclick="openmypage('popup_report.php?action=emp_job_card_report&emp_code=0051916&emp_name=Md. Bakibillah                      &date_part_from=2014-04-01&date_part_to=2014-04-30&status=W','Partial Attendance'); return false">4                    </a>
                </td>
                <td>
                    <a href='#' onclick="openmypage('popup_report.php?action=emp_job_card_report&emp_code=0051916&emp_name=Md. Bakibillah                      &date_part_from=2014-04-01&date_part_to=2014-04-30&status=H','Partial Attendance'); return false">1                    </a>
                </td>
                <td>0</td>
                <td>0</td>
                <td>0</td>
                <td>25</td>
                <td>30</td>
                <td>0.00</td>
                <td>
                    <input type="button" value="View" style="width:30px" class="formbutton" onclick="openmypage('popup_report.php?action=emp_job_card_report&emp_code=0051916&emp_name=Md. Bakibillah                      &date_part_from=2014-04-01&date_part_to=2014-04-30&status=JC','Partial Attendance'); return false"/>
                </td>
            </tr>
								
            <tr bgcolor="#FFFFFF">
            	<td height='50'>3</td>
                <td height='50'>0051918</td>
                <td>0010779</td>
                <td>Md. Shahin Reja  </td>
                <td align='left'>Assistant Officer</td>
                <td>11-05-2013</td>
                
                <td>30</td>
                 <td>
                 	<a href='#' onclick="openmypage('popup_report.php?action=emp_job_card_report&emp_code=0051918&emp_name=Md. Shahin Reja                      &date_part_from=2014-04-01&date_part_to=2014-04-30&status=P','Partial Attendance'); return false">23</a>
                </td>
                <td>
                	<a href='#' onclick="openmypage('popup_report.php?action=emp_job_card_report&emp_code=0051918&emp_name=Md. Shahin Reja                      &date_part_from=2014-04-01&date_part_to=2014-04-30&status=A','Partial Attendance'); return false">0</a>
                </td>
                <td bgcolor="">&nbsp;
                	<a href='#' onclick="openmypage('popup_report.php?action=emp_job_card_report&emp_code=0051918&emp_name=Md. Shahin Reja                      &date_part_from=2014-04-01&date_part_to=2014-04-30&status=D','Partial Attendance'); return false">0</a>
                </td>
                <td bgcolor="">&nbsp;
                	<a href='#' onclick="openmypage('popup_report.php?action=emp_job_card_report_e_out&emp_code=0051918&emp_name=Md. Shahin Reja                      &date_part_from=2014-04-01&date_part_to=2014-04-30&status=EO','Partial Attendance'); return false">0</a>
                </td>
                <td>
                	<a href='#' onclick="openmypage('popup_report.php?action=emp_job_card_report&emp_code=0051918&emp_name=Md. Shahin Reja                      &date_part_from=2014-04-01&date_part_to=2014-04-30&status=CL','Partial Attendance'); return false">2                    </a>
                </td>
                <td>
                    <a href='#' onclick="openmypage('popup_report.php?action=emp_job_card_report&emp_code=0051918&emp_name=Md. Shahin Reja                      &date_part_from=2014-04-01&date_part_to=2014-04-30&status=MR','Partial Attendance'); return false">0                    </a>
                </td>						
                <td>
                    <a href='#' onclick="openmypage('popup_report.php?action=emp_job_card_report&emp_code=0051918&emp_name=Md. Shahin Reja                      &date_part_from=2014-04-01&date_part_to=2014-04-30&status=W','Partial Attendance'); return false">4                    </a>
                </td>
                <td>
                    <a href='#' onclick="openmypage('popup_report.php?action=emp_job_card_report&emp_code=0051918&emp_name=Md. Shahin Reja                      &date_part_from=2014-04-01&date_part_to=2014-04-30&status=H','Partial Attendance'); return false">1                    </a>
                </td>
                <td>0</td>
                <td>0</td>
                <td>0</td>
                <td>23</td>
                <td>30</td>
                <td>0.00</td>
                <td>
                    <input type="button" value="View" style="width:30px" class="formbutton" onclick="openmypage('popup_report.php?action=emp_job_card_report&emp_code=0051918&emp_name=Md. Shahin Reja                      &date_part_from=2014-04-01&date_part_to=2014-04-30&status=JC','Partial Attendance'); return false"/>
                </td>
            </tr>
								
            <tr bgcolor="#E9F3FF">
            	<td height='50'>4</td>
                <td height='50'>0052455</td>
                <td>0011154</td>
                <td>Md.Farhad Hossain  </td>
                <td align='left'>Assistant Officer</td>
                <td>06-02-2014</td>
                
                <td>30</td>
                 <td>
                 	<a href='#' onclick="openmypage('popup_report.php?action=emp_job_card_report&emp_code=0052455&emp_name=Md.Farhad Hossain                      &date_part_from=2014-04-01&date_part_to=2014-04-30&status=P','Partial Attendance'); return false">23</a>
                </td>
                <td>
                	<a href='#' onclick="openmypage('popup_report.php?action=emp_job_card_report&emp_code=0052455&emp_name=Md.Farhad Hossain                      &date_part_from=2014-04-01&date_part_to=2014-04-30&status=A','Partial Attendance'); return false">1</a>
                </td>
                <td bgcolor="">&nbsp;
                	<a href='#' onclick="openmypage('popup_report.php?action=emp_job_card_report&emp_code=0052455&emp_name=Md.Farhad Hossain                      &date_part_from=2014-04-01&date_part_to=2014-04-30&status=D','Partial Attendance'); return false">1</a>
                </td>
                <td bgcolor="">&nbsp;
                	<a href='#' onclick="openmypage('popup_report.php?action=emp_job_card_report_e_out&emp_code=0052455&emp_name=Md.Farhad Hossain                      &date_part_from=2014-04-01&date_part_to=2014-04-30&status=EO','Partial Attendance'); return false">1</a>
                </td>
                <td>
                	<a href='#' onclick="openmypage('popup_report.php?action=emp_job_card_report&emp_code=0052455&emp_name=Md.Farhad Hossain                      &date_part_from=2014-04-01&date_part_to=2014-04-30&status=CL','Partial Attendance'); return false">0                    </a>
                </td>
                <td>
                    <a href='#' onclick="openmypage('popup_report.php?action=emp_job_card_report&emp_code=0052455&emp_name=Md.Farhad Hossain                      &date_part_from=2014-04-01&date_part_to=2014-04-30&status=MR','Partial Attendance'); return false">0                    </a>
                </td>						
                <td>
                    <a href='#' onclick="openmypage('popup_report.php?action=emp_job_card_report&emp_code=0052455&emp_name=Md.Farhad Hossain                      &date_part_from=2014-04-01&date_part_to=2014-04-30&status=W','Partial Attendance'); return false">4                    </a>
                </td>
                <td>
                    <a href='#' onclick="openmypage('popup_report.php?action=emp_job_card_report&emp_code=0052455&emp_name=Md.Farhad Hossain                      &date_part_from=2014-04-01&date_part_to=2014-04-30&status=H','Partial Attendance'); return false">1                    </a>
                </td>
                <td>0</td>
                <td>0</td>
                <td>0</td>
                <td>24</td>
                <td>29</td>
                <td>0.00</td>
                <td>
                    <input type="button" value="View" style="width:30px" class="formbutton" onclick="openmypage('popup_report.php?action=emp_job_card_report&emp_code=0052455&emp_name=Md.Farhad Hossain                      &date_part_from=2014-04-01&date_part_to=2014-04-30&status=JC','Partial Attendance'); return false"/>
                </td>
            </tr>
								
            <tr bgcolor="#FFFFFF">
            	<td height='50'>5</td>
                <td height='50'>0010955</td>
                <td>0010955</td>
                <td>Md.Suny Talokder    </td>
                <td align='left'>Assistant Officer</td>
                <td>10-11-2013</td>
                
                <td>30</td>
                 <td>
                 	<a href='#' onclick="openmypage('popup_report.php?action=emp_job_card_report&emp_code=0010955&emp_name=Md.Suny Talokder                        &date_part_from=2014-04-01&date_part_to=2014-04-30&status=P','Partial Attendance'); return false">25</a>
                </td>
                <td>
                	<a href='#' onclick="openmypage('popup_report.php?action=emp_job_card_report&emp_code=0010955&emp_name=Md.Suny Talokder                        &date_part_from=2014-04-01&date_part_to=2014-04-30&status=A','Partial Attendance'); return false">0</a>
                </td>
                <td bgcolor="">&nbsp;
                	<a href='#' onclick="openmypage('popup_report.php?action=emp_job_card_report&emp_code=0010955&emp_name=Md.Suny Talokder                        &date_part_from=2014-04-01&date_part_to=2014-04-30&status=D','Partial Attendance'); return false">0</a>
                </td>
                <td bgcolor="">&nbsp;
                	<a href='#' onclick="openmypage('popup_report.php?action=emp_job_card_report_e_out&emp_code=0010955&emp_name=Md.Suny Talokder                        &date_part_from=2014-04-01&date_part_to=2014-04-30&status=EO','Partial Attendance'); return false">0</a>
                </td>
                <td>
                	<a href='#' onclick="openmypage('popup_report.php?action=emp_job_card_report&emp_code=0010955&emp_name=Md.Suny Talokder                        &date_part_from=2014-04-01&date_part_to=2014-04-30&status=CL','Partial Attendance'); return false">0                    </a>
                </td>
                <td>
                    <a href='#' onclick="openmypage('popup_report.php?action=emp_job_card_report&emp_code=0010955&emp_name=Md.Suny Talokder                        &date_part_from=2014-04-01&date_part_to=2014-04-30&status=MR','Partial Attendance'); return false">0                    </a>
                </td>						
                <td>
                    <a href='#' onclick="openmypage('popup_report.php?action=emp_job_card_report&emp_code=0010955&emp_name=Md.Suny Talokder                        &date_part_from=2014-04-01&date_part_to=2014-04-30&status=W','Partial Attendance'); return false">4                    </a>
                </td>
                <td>
                    <a href='#' onclick="openmypage('popup_report.php?action=emp_job_card_report&emp_code=0010955&emp_name=Md.Suny Talokder                        &date_part_from=2014-04-01&date_part_to=2014-04-30&status=H','Partial Attendance'); return false">1                    </a>
                </td>
                <td>0</td>
                <td>0</td>
                <td>0</td>
                <td>25</td>
                <td>30</td>
                <td>0.00</td>
                <td>
                    <input type="button" value="View" style="width:30px" class="formbutton" onclick="openmypage('popup_report.php?action=emp_job_card_report&emp_code=0010955&emp_name=Md.Suny Talokder                        &date_part_from=2014-04-01&date_part_to=2014-04-30&status=JC','Partial Attendance'); return false"/>
                </td>
            </tr>
								
            <tr bgcolor="#E9F3FF">
            	<td height='50'>6</td>
                <td height='50'>003523</td>
                <td>003523</td>
                <td>Shamal Parves    </td>
                <td align='left'>Assistant Officer</td>
                <td>03-02-2009</td>
                
                <td>30</td>
                 <td>
                 	<a href='#' onclick="openmypage('popup_report.php?action=emp_job_card_report&emp_code=003523&emp_name=Shamal Parves                        &date_part_from=2014-04-01&date_part_to=2014-04-30&status=P','Partial Attendance'); return false">21</a>
                </td>
                <td>
                	<a href='#' onclick="openmypage('popup_report.php?action=emp_job_card_report&emp_code=003523&emp_name=Shamal Parves                        &date_part_from=2014-04-01&date_part_to=2014-04-30&status=A','Partial Attendance'); return false">0</a>
                </td>
                <td bgcolor="">&nbsp;
                	<a href='#' onclick="openmypage('popup_report.php?action=emp_job_card_report&emp_code=003523&emp_name=Shamal Parves                        &date_part_from=2014-04-01&date_part_to=2014-04-30&status=D','Partial Attendance'); return false">1</a>
                </td>
                <td bgcolor="">&nbsp;
                	<a href='#' onclick="openmypage('popup_report.php?action=emp_job_card_report_e_out&emp_code=003523&emp_name=Shamal Parves                        &date_part_from=2014-04-01&date_part_to=2014-04-30&status=EO','Partial Attendance'); return false">13</a>
                </td>
                <td>
                	<a href='#' onclick="openmypage('popup_report.php?action=emp_job_card_report&emp_code=003523&emp_name=Shamal Parves                        &date_part_from=2014-04-01&date_part_to=2014-04-30&status=CL','Partial Attendance'); return false">3                    </a>
                </td>
                <td>
                    <a href='#' onclick="openmypage('popup_report.php?action=emp_job_card_report&emp_code=003523&emp_name=Shamal Parves                        &date_part_from=2014-04-01&date_part_to=2014-04-30&status=MR','Partial Attendance'); return false">0                    </a>
                </td>						
                <td>
                    <a href='#' onclick="openmypage('popup_report.php?action=emp_job_card_report&emp_code=003523&emp_name=Shamal Parves                        &date_part_from=2014-04-01&date_part_to=2014-04-30&status=W','Partial Attendance'); return false">4                    </a>
                </td>
                <td>
                    <a href='#' onclick="openmypage('popup_report.php?action=emp_job_card_report&emp_code=003523&emp_name=Shamal Parves                        &date_part_from=2014-04-01&date_part_to=2014-04-30&status=H','Partial Attendance'); return false">1                    </a>
                </td>
                <td>0</td>
                <td>0</td>
                <td>0</td>
                <td>22</td>
                <td>30</td>
                <td>0.00</td>
                <td>
                    <input type="button" value="View" style="width:30px" class="formbutton" onclick="openmypage('popup_report.php?action=emp_job_card_report&emp_code=003523&emp_name=Shamal Parves                        &date_part_from=2014-04-01&date_part_to=2014-04-30&status=JC','Partial Attendance'); return false"/>
                </td>
            </tr>
								
            <tr bgcolor="#FFFFFF">
            	<td height='50'>7</td>
                <td height='50'>007425</td>
                <td>007425</td>
                <td>Md.Fazlul Haque    </td>
                <td align='left'>Officer</td>
                <td>14-06-2007</td>
                
                <td>30</td>
                 <td>
                 	<a href='#' onclick="openmypage('popup_report.php?action=emp_job_card_report&emp_code=007425&emp_name=Md.Fazlul Haque                        &date_part_from=2014-04-01&date_part_to=2014-04-30&status=P','Partial Attendance'); return false">21</a>
                </td>
                <td>
                	<a href='#' onclick="openmypage('popup_report.php?action=emp_job_card_report&emp_code=007425&emp_name=Md.Fazlul Haque                        &date_part_from=2014-04-01&date_part_to=2014-04-30&status=A','Partial Attendance'); return false">2</a>
                </td>
                <td bgcolor="">&nbsp;
                	<a href='#' onclick="openmypage('popup_report.php?action=emp_job_card_report&emp_code=007425&emp_name=Md.Fazlul Haque                        &date_part_from=2014-04-01&date_part_to=2014-04-30&status=D','Partial Attendance'); return false">1</a>
                </td>
                <td bgcolor="">&nbsp;
                	<a href='#' onclick="openmypage('popup_report.php?action=emp_job_card_report_e_out&emp_code=007425&emp_name=Md.Fazlul Haque                        &date_part_from=2014-04-01&date_part_to=2014-04-30&status=EO','Partial Attendance'); return false">2</a>
                </td>
                <td>
                	<a href='#' onclick="openmypage('popup_report.php?action=emp_job_card_report&emp_code=007425&emp_name=Md.Fazlul Haque                        &date_part_from=2014-04-01&date_part_to=2014-04-30&status=CL','Partial Attendance'); return false">1                    </a>
                </td>
                <td>
                    <a href='#' onclick="openmypage('popup_report.php?action=emp_job_card_report&emp_code=007425&emp_name=Md.Fazlul Haque                        &date_part_from=2014-04-01&date_part_to=2014-04-30&status=MR','Partial Attendance'); return false">0                    </a>
                </td>						
                <td>
                    <a href='#' onclick="openmypage('popup_report.php?action=emp_job_card_report&emp_code=007425&emp_name=Md.Fazlul Haque                        &date_part_from=2014-04-01&date_part_to=2014-04-30&status=W','Partial Attendance'); return false">4                    </a>
                </td>
                <td>
                    <a href='#' onclick="openmypage('popup_report.php?action=emp_job_card_report&emp_code=007425&emp_name=Md.Fazlul Haque                        &date_part_from=2014-04-01&date_part_to=2014-04-30&status=H','Partial Attendance'); return false">1                    </a>
                </td>
                <td>0</td>
                <td>0</td>
                <td>0</td>
                <td>22</td>
                <td>28</td>
                <td>0.00</td>
                <td>
                    <input type="button" value="View" style="width:30px" class="formbutton" onclick="openmypage('popup_report.php?action=emp_job_card_report&emp_code=007425&emp_name=Md.Fazlul Haque                        &date_part_from=2014-04-01&date_part_to=2014-04-30&status=JC','Partial Attendance'); return false"/>
                </td>
            </tr>
								
            <tr bgcolor="#E9F3FF">
            	<td height='50'>8</td>
                <td height='50'>001488</td>
                <td>001488</td>
                <td>Sajal Kanty Datta    </td>
                <td align='left'>Officer</td>
                <td>09-02-2010</td>
                
                <td>30</td>
                 <td>
                 	<a href='#' onclick="openmypage('popup_report.php?action=emp_job_card_report&emp_code=001488&emp_name=Sajal Kanty Datta                        &date_part_from=2014-04-01&date_part_to=2014-04-30&status=P','Partial Attendance'); return false">23</a>
                </td>
                <td>
                	<a href='#' onclick="openmypage('popup_report.php?action=emp_job_card_report&emp_code=001488&emp_name=Sajal Kanty Datta                        &date_part_from=2014-04-01&date_part_to=2014-04-30&status=A','Partial Attendance'); return false">0</a>
                </td>
                <td bgcolor="">&nbsp;
                	<a href='#' onclick="openmypage('popup_report.php?action=emp_job_card_report&emp_code=001488&emp_name=Sajal Kanty Datta                        &date_part_from=2014-04-01&date_part_to=2014-04-30&status=D','Partial Attendance'); return false">1</a>
                </td>
                <td bgcolor="">&nbsp;
                	<a href='#' onclick="openmypage('popup_report.php?action=emp_job_card_report_e_out&emp_code=001488&emp_name=Sajal Kanty Datta                        &date_part_from=2014-04-01&date_part_to=2014-04-30&status=EO','Partial Attendance'); return false">1</a>
                </td>
                <td>
                	<a href='#' onclick="openmypage('popup_report.php?action=emp_job_card_report&emp_code=001488&emp_name=Sajal Kanty Datta                        &date_part_from=2014-04-01&date_part_to=2014-04-30&status=CL','Partial Attendance'); return false">1                    </a>
                </td>
                <td>
                    <a href='#' onclick="openmypage('popup_report.php?action=emp_job_card_report&emp_code=001488&emp_name=Sajal Kanty Datta                        &date_part_from=2014-04-01&date_part_to=2014-04-30&status=MR','Partial Attendance'); return false">0                    </a>
                </td>						
                <td>
                    <a href='#' onclick="openmypage('popup_report.php?action=emp_job_card_report&emp_code=001488&emp_name=Sajal Kanty Datta                        &date_part_from=2014-04-01&date_part_to=2014-04-30&status=W','Partial Attendance'); return false">4                    </a>
                </td>
                <td>
                    <a href='#' onclick="openmypage('popup_report.php?action=emp_job_card_report&emp_code=001488&emp_name=Sajal Kanty Datta                        &date_part_from=2014-04-01&date_part_to=2014-04-30&status=H','Partial Attendance'); return false">1                    </a>
                </td>
                <td>0</td>
                <td>0</td>
                <td>0</td>
                <td>24</td>
                <td>30</td>
                <td>0.00</td>
                <td>
                    <input type="button" value="View" style="width:30px" class="formbutton" onclick="openmypage('popup_report.php?action=emp_job_card_report&emp_code=001488&emp_name=Sajal Kanty Datta                        &date_part_from=2014-04-01&date_part_to=2014-04-30&status=JC','Partial Attendance'); return false"/>
                </td>
            </tr>
								
            <tr bgcolor="#FFFFFF">
            	<td height='50'>9</td>
                <td height='50'>0052073</td>
                <td>0011152</td>
                <td>Md.Kabir Hossain  </td>
                <td align='left'>Officer</td>
                <td>06-02-2014</td>
                
                <td>30</td>
                 <td>
                 	<a href='#' onclick="openmypage('popup_report.php?action=emp_job_card_report&emp_code=0052073&emp_name=Md.Kabir Hossain                      &date_part_from=2014-04-01&date_part_to=2014-04-30&status=P','Partial Attendance'); return false">23</a>
                </td>
                <td>
                	<a href='#' onclick="openmypage('popup_report.php?action=emp_job_card_report&emp_code=0052073&emp_name=Md.Kabir Hossain                      &date_part_from=2014-04-01&date_part_to=2014-04-30&status=A','Partial Attendance'); return false">1</a>
                </td>
                <td bgcolor="">&nbsp;
                	<a href='#' onclick="openmypage('popup_report.php?action=emp_job_card_report&emp_code=0052073&emp_name=Md.Kabir Hossain                      &date_part_from=2014-04-01&date_part_to=2014-04-30&status=D','Partial Attendance'); return false">1</a>
                </td>
                <td bgcolor="">&nbsp;
                	<a href='#' onclick="openmypage('popup_report.php?action=emp_job_card_report_e_out&emp_code=0052073&emp_name=Md.Kabir Hossain                      &date_part_from=2014-04-01&date_part_to=2014-04-30&status=EO','Partial Attendance'); return false">4</a>
                </td>
                <td>
                	<a href='#' onclick="openmypage('popup_report.php?action=emp_job_card_report&emp_code=0052073&emp_name=Md.Kabir Hossain                      &date_part_from=2014-04-01&date_part_to=2014-04-30&status=CL','Partial Attendance'); return false">0                    </a>
                </td>
                <td>
                    <a href='#' onclick="openmypage('popup_report.php?action=emp_job_card_report&emp_code=0052073&emp_name=Md.Kabir Hossain                      &date_part_from=2014-04-01&date_part_to=2014-04-30&status=MR','Partial Attendance'); return false">0                    </a>
                </td>						
                <td>
                    <a href='#' onclick="openmypage('popup_report.php?action=emp_job_card_report&emp_code=0052073&emp_name=Md.Kabir Hossain                      &date_part_from=2014-04-01&date_part_to=2014-04-30&status=W','Partial Attendance'); return false">4                    </a>
                </td>
                <td>
                    <a href='#' onclick="openmypage('popup_report.php?action=emp_job_card_report&emp_code=0052073&emp_name=Md.Kabir Hossain                      &date_part_from=2014-04-01&date_part_to=2014-04-30&status=H','Partial Attendance'); return false">1                    </a>
                </td>
                <td>0</td>
                <td>0</td>
                <td>0</td>
                <td>24</td>
                <td>29</td>
                <td>0.00</td>
                <td>
                    <input type="button" value="View" style="width:30px" class="formbutton" onclick="openmypage('popup_report.php?action=emp_job_card_report&emp_code=0052073&emp_name=Md.Kabir Hossain                      &date_part_from=2014-04-01&date_part_to=2014-04-30&status=JC','Partial Attendance'); return false"/>
                </td>
            </tr>
								
            <tr bgcolor="#E9F3FF">
            	<td height='50'>10</td>
                <td height='50'>0010473</td>
                <td>0010473</td>
                <td>Md.Monirul Islam    </td>
                <td align='left'>Officer</td>
                <td>08-12-2012</td>
                
                <td>30</td>
                 <td>
                 	<a href='#' onclick="openmypage('popup_report.php?action=emp_job_card_report&emp_code=0010473&emp_name=Md.Monirul Islam                        &date_part_from=2014-04-01&date_part_to=2014-04-30&status=P','Partial Attendance'); return false">24</a>
                </td>
                <td>
                	<a href='#' onclick="openmypage('popup_report.php?action=emp_job_card_report&emp_code=0010473&emp_name=Md.Monirul Islam                        &date_part_from=2014-04-01&date_part_to=2014-04-30&status=A','Partial Attendance'); return false">0</a>
                </td>
                <td bgcolor="">&nbsp;
                	<a href='#' onclick="openmypage('popup_report.php?action=emp_job_card_report&emp_code=0010473&emp_name=Md.Monirul Islam                        &date_part_from=2014-04-01&date_part_to=2014-04-30&status=D','Partial Attendance'); return false">1</a>
                </td>
                <td bgcolor="">&nbsp;
                	<a href='#' onclick="openmypage('popup_report.php?action=emp_job_card_report_e_out&emp_code=0010473&emp_name=Md.Monirul Islam                        &date_part_from=2014-04-01&date_part_to=2014-04-30&status=EO','Partial Attendance'); return false">0</a>
                </td>
                <td>
                	<a href='#' onclick="openmypage('popup_report.php?action=emp_job_card_report&emp_code=0010473&emp_name=Md.Monirul Islam                        &date_part_from=2014-04-01&date_part_to=2014-04-30&status=CL','Partial Attendance'); return false">0                    </a>
                </td>
                <td>
                    <a href='#' onclick="openmypage('popup_report.php?action=emp_job_card_report&emp_code=0010473&emp_name=Md.Monirul Islam                        &date_part_from=2014-04-01&date_part_to=2014-04-30&status=MR','Partial Attendance'); return false">0                    </a>
                </td>						
                <td>
                    <a href='#' onclick="openmypage('popup_report.php?action=emp_job_card_report&emp_code=0010473&emp_name=Md.Monirul Islam                        &date_part_from=2014-04-01&date_part_to=2014-04-30&status=W','Partial Attendance'); return false">4                    </a>
                </td>
                <td>
                    <a href='#' onclick="openmypage('popup_report.php?action=emp_job_card_report&emp_code=0010473&emp_name=Md.Monirul Islam                        &date_part_from=2014-04-01&date_part_to=2014-04-30&status=H','Partial Attendance'); return false">1                    </a>
                </td>
                <td>0</td>
                <td>0</td>
                <td>0</td>
                <td>25</td>
                <td>30</td>
                <td>0.00</td>
                <td>
                    <input type="button" value="View" style="width:30px" class="formbutton" onclick="openmypage('popup_report.php?action=emp_job_card_report&emp_code=0010473&emp_name=Md.Monirul Islam                        &date_part_from=2014-04-01&date_part_to=2014-04-30&status=JC','Partial Attendance'); return false"/>
                </td>
            </tr>
								
            <tr bgcolor="#FFFFFF">
            	<td height='50'>11</td>
                <td height='50'>0053006</td>
                <td>0011180</td>
                <td>Md.Razib Sarder  </td>
                <td align='left'>Officer</td>
                <td>01-03-2014</td>
                
                <td>30</td>
                 <td>
                 	<a href='#' onclick="openmypage('popup_report.php?action=emp_job_card_report&emp_code=0053006&emp_name=Md.Razib Sarder                      &date_part_from=2014-04-01&date_part_to=2014-04-30&status=P','Partial Attendance'); return false">16</a>
                </td>
                <td>
                	<a href='#' onclick="openmypage('popup_report.php?action=emp_job_card_report&emp_code=0053006&emp_name=Md.Razib Sarder                      &date_part_from=2014-04-01&date_part_to=2014-04-30&status=A','Partial Attendance'); return false">0</a>
                </td>
                <td bgcolor="#EE3900">&nbsp;
                	<a href='#' onclick="openmypage('popup_report.php?action=emp_job_card_report&emp_code=0053006&emp_name=Md.Razib Sarder                      &date_part_from=2014-04-01&date_part_to=2014-04-30&status=D','Partial Attendance'); return false">9</a>
                </td>
                <td bgcolor="">&nbsp;
                	<a href='#' onclick="openmypage('popup_report.php?action=emp_job_card_report_e_out&emp_code=0053006&emp_name=Md.Razib Sarder                      &date_part_from=2014-04-01&date_part_to=2014-04-30&status=EO','Partial Attendance'); return false">1</a>
                </td>
                <td>
                	<a href='#' onclick="openmypage('popup_report.php?action=emp_job_card_report&emp_code=0053006&emp_name=Md.Razib Sarder                      &date_part_from=2014-04-01&date_part_to=2014-04-30&status=CL','Partial Attendance'); return false">0                    </a>
                </td>
                <td>
                    <a href='#' onclick="openmypage('popup_report.php?action=emp_job_card_report&emp_code=0053006&emp_name=Md.Razib Sarder                      &date_part_from=2014-04-01&date_part_to=2014-04-30&status=MR','Partial Attendance'); return false">0                    </a>
                </td>						
                <td>
                    <a href='#' onclick="openmypage('popup_report.php?action=emp_job_card_report&emp_code=0053006&emp_name=Md.Razib Sarder                      &date_part_from=2014-04-01&date_part_to=2014-04-30&status=W','Partial Attendance'); return false">4                    </a>
                </td>
                <td>
                    <a href='#' onclick="openmypage('popup_report.php?action=emp_job_card_report&emp_code=0053006&emp_name=Md.Razib Sarder                      &date_part_from=2014-04-01&date_part_to=2014-04-30&status=H','Partial Attendance'); return false">1                    </a>
                </td>
                <td>0</td>
                <td>0</td>
                <td>0</td>
                <td>25</td>
                <td>30</td>
                <td>0.00</td>
                <td>
                    <input type="button" value="View" style="width:30px" class="formbutton" onclick="openmypage('popup_report.php?action=emp_job_card_report&emp_code=0053006&emp_name=Md.Razib Sarder                      &date_part_from=2014-04-01&date_part_to=2014-04-30&status=JC','Partial Attendance'); return false"/>
                </td>
            </tr>
								
            <tr bgcolor="#E9F3FF">
            	<td height='50'>12</td>
                <td height='50'>0051921</td>
                <td>0010798</td>
                <td>Md. Shahin Hossain  </td>
                <td align='left'>Officer</td>
                <td>18-05-2013</td>
                
                <td>30</td>
                 <td>
                 	<a href='#' onclick="openmypage('popup_report.php?action=emp_job_card_report&emp_code=0051921&emp_name=Md. Shahin Hossain                      &date_part_from=2014-04-01&date_part_to=2014-04-30&status=P','Partial Attendance'); return false">25</a>
                </td>
                <td>
                	<a href='#' onclick="openmypage('popup_report.php?action=emp_job_card_report&emp_code=0051921&emp_name=Md. Shahin Hossain                      &date_part_from=2014-04-01&date_part_to=2014-04-30&status=A','Partial Attendance'); return false">0</a>
                </td>
                <td bgcolor="">&nbsp;
                	<a href='#' onclick="openmypage('popup_report.php?action=emp_job_card_report&emp_code=0051921&emp_name=Md. Shahin Hossain                      &date_part_from=2014-04-01&date_part_to=2014-04-30&status=D','Partial Attendance'); return false">0</a>
                </td>
                <td bgcolor="">&nbsp;
                	<a href='#' onclick="openmypage('popup_report.php?action=emp_job_card_report_e_out&emp_code=0051921&emp_name=Md. Shahin Hossain                      &date_part_from=2014-04-01&date_part_to=2014-04-30&status=EO','Partial Attendance'); return false">1</a>
                </td>
                <td>
                	<a href='#' onclick="openmypage('popup_report.php?action=emp_job_card_report&emp_code=0051921&emp_name=Md. Shahin Hossain                      &date_part_from=2014-04-01&date_part_to=2014-04-30&status=CL','Partial Attendance'); return false">0                    </a>
                </td>
                <td>
                    <a href='#' onclick="openmypage('popup_report.php?action=emp_job_card_report&emp_code=0051921&emp_name=Md. Shahin Hossain                      &date_part_from=2014-04-01&date_part_to=2014-04-30&status=MR','Partial Attendance'); return false">0                    </a>
                </td>						
                <td>
                    <a href='#' onclick="openmypage('popup_report.php?action=emp_job_card_report&emp_code=0051921&emp_name=Md. Shahin Hossain                      &date_part_from=2014-04-01&date_part_to=2014-04-30&status=W','Partial Attendance'); return false">4                    </a>
                </td>
                <td>
                    <a href='#' onclick="openmypage('popup_report.php?action=emp_job_card_report&emp_code=0051921&emp_name=Md. Shahin Hossain                      &date_part_from=2014-04-01&date_part_to=2014-04-30&status=H','Partial Attendance'); return false">1                    </a>
                </td>
                <td>0</td>
                <td>0</td>
                <td>0</td>
                <td>25</td>
                <td>30</td>
                <td>0.00</td>
                <td>
                    <input type="button" value="View" style="width:30px" class="formbutton" onclick="openmypage('popup_report.php?action=emp_job_card_report&emp_code=0051921&emp_name=Md. Shahin Hossain                      &date_part_from=2014-04-01&date_part_to=2014-04-30&status=JC','Partial Attendance'); return false"/>
                </td>
            </tr>
								
            <tr bgcolor="#FFFFFF">
            	<td height='50'>13</td>
                <td height='50'>0010200</td>
                <td>0010200</td>
                <td>Md.Shahadat Hossain    </td>
                <td align='left'>Officer</td>
                <td>01-04-2012</td>
                
                <td>30</td>
                 <td>
                 	<a href='#' onclick="openmypage('popup_report.php?action=emp_job_card_report&emp_code=0010200&emp_name=Md.Shahadat Hossain                        &date_part_from=2014-04-01&date_part_to=2014-04-30&status=P','Partial Attendance'); return false">24</a>
                </td>
                <td>
                	<a href='#' onclick="openmypage('popup_report.php?action=emp_job_card_report&emp_code=0010200&emp_name=Md.Shahadat Hossain                        &date_part_from=2014-04-01&date_part_to=2014-04-30&status=A','Partial Attendance'); return false">0</a>
                </td>
                <td bgcolor="">&nbsp;
                	<a href='#' onclick="openmypage('popup_report.php?action=emp_job_card_report&emp_code=0010200&emp_name=Md.Shahadat Hossain                        &date_part_from=2014-04-01&date_part_to=2014-04-30&status=D','Partial Attendance'); return false">1</a>
                </td>
                <td bgcolor="">&nbsp;
                	<a href='#' onclick="openmypage('popup_report.php?action=emp_job_card_report_e_out&emp_code=0010200&emp_name=Md.Shahadat Hossain                        &date_part_from=2014-04-01&date_part_to=2014-04-30&status=EO','Partial Attendance'); return false">5</a>
                </td>
                <td>
                	<a href='#' onclick="openmypage('popup_report.php?action=emp_job_card_report&emp_code=0010200&emp_name=Md.Shahadat Hossain                        &date_part_from=2014-04-01&date_part_to=2014-04-30&status=CL','Partial Attendance'); return false">0                    </a>
                </td>
                <td>
                    <a href='#' onclick="openmypage('popup_report.php?action=emp_job_card_report&emp_code=0010200&emp_name=Md.Shahadat Hossain                        &date_part_from=2014-04-01&date_part_to=2014-04-30&status=MR','Partial Attendance'); return false">0                    </a>
                </td>						
                <td>
                    <a href='#' onclick="openmypage('popup_report.php?action=emp_job_card_report&emp_code=0010200&emp_name=Md.Shahadat Hossain                        &date_part_from=2014-04-01&date_part_to=2014-04-30&status=W','Partial Attendance'); return false">4                    </a>
                </td>
                <td>
                    <a href='#' onclick="openmypage('popup_report.php?action=emp_job_card_report&emp_code=0010200&emp_name=Md.Shahadat Hossain                        &date_part_from=2014-04-01&date_part_to=2014-04-30&status=H','Partial Attendance'); return false">1                    </a>
                </td>
                <td>0</td>
                <td>0</td>
                <td>0</td>
                <td>25</td>
                <td>30</td>
                <td>0.00</td>
                <td>
                    <input type="button" value="View" style="width:30px" class="formbutton" onclick="openmypage('popup_report.php?action=emp_job_card_report&emp_code=0010200&emp_name=Md.Shahadat Hossain                        &date_part_from=2014-04-01&date_part_to=2014-04-30&status=JC','Partial Attendance'); return false"/>
                </td>
            </tr>
								
            <tr bgcolor="#E9F3FF">
            	<td height='50'>14</td>
                <td height='50'>0051953</td>
                <td>0010618</td>
                <td>Kazi Sazibul Islam  </td>
                <td align='left'>Officer</td>
                <td>16-02-2013</td>
                
                <td>30</td>
                 <td>
                 	<a href='#' onclick="openmypage('popup_report.php?action=emp_job_card_report&emp_code=0051953&emp_name=Kazi Sazibul Islam                      &date_part_from=2014-04-01&date_part_to=2014-04-30&status=P','Partial Attendance'); return false">23</a>
                </td>
                <td>
                	<a href='#' onclick="openmypage('popup_report.php?action=emp_job_card_report&emp_code=0051953&emp_name=Kazi Sazibul Islam                      &date_part_from=2014-04-01&date_part_to=2014-04-30&status=A','Partial Attendance'); return false">0</a>
                </td>
                <td bgcolor="">&nbsp;
                	<a href='#' onclick="openmypage('popup_report.php?action=emp_job_card_report&emp_code=0051953&emp_name=Kazi Sazibul Islam                      &date_part_from=2014-04-01&date_part_to=2014-04-30&status=D','Partial Attendance'); return false">2</a>
                </td>
                <td bgcolor="">&nbsp;
                	<a href='#' onclick="openmypage('popup_report.php?action=emp_job_card_report_e_out&emp_code=0051953&emp_name=Kazi Sazibul Islam                      &date_part_from=2014-04-01&date_part_to=2014-04-30&status=EO','Partial Attendance'); return false">1</a>
                </td>
                <td>
                	<a href='#' onclick="openmypage('popup_report.php?action=emp_job_card_report&emp_code=0051953&emp_name=Kazi Sazibul Islam                      &date_part_from=2014-04-01&date_part_to=2014-04-30&status=CL','Partial Attendance'); return false">0                    </a>
                </td>
                <td>
                    <a href='#' onclick="openmypage('popup_report.php?action=emp_job_card_report&emp_code=0051953&emp_name=Kazi Sazibul Islam                      &date_part_from=2014-04-01&date_part_to=2014-04-30&status=MR','Partial Attendance'); return false">0                    </a>
                </td>						
                <td>
                    <a href='#' onclick="openmypage('popup_report.php?action=emp_job_card_report&emp_code=0051953&emp_name=Kazi Sazibul Islam                      &date_part_from=2014-04-01&date_part_to=2014-04-30&status=W','Partial Attendance'); return false">4                    </a>
                </td>
                <td>
                    <a href='#' onclick="openmypage('popup_report.php?action=emp_job_card_report&emp_code=0051953&emp_name=Kazi Sazibul Islam                      &date_part_from=2014-04-01&date_part_to=2014-04-30&status=H','Partial Attendance'); return false">1                    </a>
                </td>
                <td>0</td>
                <td>0</td>
                <td>0</td>
                <td>25</td>
                <td>30</td>
                <td>0.00</td>
                <td>
                    <input type="button" value="View" style="width:30px" class="formbutton" onclick="openmypage('popup_report.php?action=emp_job_card_report&emp_code=0051953&emp_name=Kazi Sazibul Islam                      &date_part_from=2014-04-01&date_part_to=2014-04-30&status=JC','Partial Attendance'); return false"/>
                </td>
            </tr>
								
            <tr bgcolor="#FFFFFF">
            	<td height='50'>15</td>
                <td height='50'>001833</td>
                <td>001833</td>
                <td>Amdadul Haque    </td>
                <td align='left'>Officer</td>
                <td>16-01-2006</td>
                
                <td>30</td>
                 <td>
                 	<a href='#' onclick="openmypage('popup_report.php?action=emp_job_card_report&emp_code=001833&emp_name=Amdadul Haque                        &date_part_from=2014-04-01&date_part_to=2014-04-30&status=P','Partial Attendance'); return false">25</a>
                </td>
                <td>
                	<a href='#' onclick="openmypage('popup_report.php?action=emp_job_card_report&emp_code=001833&emp_name=Amdadul Haque                        &date_part_from=2014-04-01&date_part_to=2014-04-30&status=A','Partial Attendance'); return false">0</a>
                </td>
                <td bgcolor="">&nbsp;
                	<a href='#' onclick="openmypage('popup_report.php?action=emp_job_card_report&emp_code=001833&emp_name=Amdadul Haque                        &date_part_from=2014-04-01&date_part_to=2014-04-30&status=D','Partial Attendance'); return false">0</a>
                </td>
                <td bgcolor="">&nbsp;
                	<a href='#' onclick="openmypage('popup_report.php?action=emp_job_card_report_e_out&emp_code=001833&emp_name=Amdadul Haque                        &date_part_from=2014-04-01&date_part_to=2014-04-30&status=EO','Partial Attendance'); return false">0</a>
                </td>
                <td>
                	<a href='#' onclick="openmypage('popup_report.php?action=emp_job_card_report&emp_code=001833&emp_name=Amdadul Haque                        &date_part_from=2014-04-01&date_part_to=2014-04-30&status=CL','Partial Attendance'); return false">0                    </a>
                </td>
                <td>
                    <a href='#' onclick="openmypage('popup_report.php?action=emp_job_card_report&emp_code=001833&emp_name=Amdadul Haque                        &date_part_from=2014-04-01&date_part_to=2014-04-30&status=MR','Partial Attendance'); return false">0                    </a>
                </td>						
                <td>
                    <a href='#' onclick="openmypage('popup_report.php?action=emp_job_card_report&emp_code=001833&emp_name=Amdadul Haque                        &date_part_from=2014-04-01&date_part_to=2014-04-30&status=W','Partial Attendance'); return false">4                    </a>
                </td>
                <td>
                    <a href='#' onclick="openmypage('popup_report.php?action=emp_job_card_report&emp_code=001833&emp_name=Amdadul Haque                        &date_part_from=2014-04-01&date_part_to=2014-04-30&status=H','Partial Attendance'); return false">1                    </a>
                </td>
                <td>0</td>
                <td>0</td>
                <td>0</td>
                <td>25</td>
                <td>30</td>
                <td>0.00</td>
                <td>
                    <input type="button" value="View" style="width:30px" class="formbutton" onclick="openmypage('popup_report.php?action=emp_job_card_report&emp_code=001833&emp_name=Amdadul Haque                        &date_part_from=2014-04-01&date_part_to=2014-04-30&status=JC','Partial Attendance'); return false"/>
                </td>
            </tr>
								
            <tr bgcolor="#E9F3FF">
            	<td height='50'>16</td>
                <td height='50'>0053411</td>
                <td>0011192</td>
                <td>Md.Mamunur Rashid  </td>
                <td align='left'>Assistant</td>
                <td>06-09-2011</td>
                
                <td>30</td>
                 <td>
                 	<a href='#' onclick="openmypage('popup_report.php?action=emp_job_card_report&emp_code=0053411&emp_name=Md.Mamunur Rashid                      &date_part_from=2014-04-01&date_part_to=2014-04-30&status=P','Partial Attendance'); return false">24</a>
                </td>
                <td>
                	<a href='#' onclick="openmypage('popup_report.php?action=emp_job_card_report&emp_code=0053411&emp_name=Md.Mamunur Rashid                      &date_part_from=2014-04-01&date_part_to=2014-04-30&status=A','Partial Attendance'); return false">0</a>
                </td>
                <td bgcolor="">&nbsp;
                	<a href='#' onclick="openmypage('popup_report.php?action=emp_job_card_report&emp_code=0053411&emp_name=Md.Mamunur Rashid                      &date_part_from=2014-04-01&date_part_to=2014-04-30&status=D','Partial Attendance'); return false">0</a>
                </td>
                <td bgcolor="">&nbsp;
                	<a href='#' onclick="openmypage('popup_report.php?action=emp_job_card_report_e_out&emp_code=0053411&emp_name=Md.Mamunur Rashid                      &date_part_from=2014-04-01&date_part_to=2014-04-30&status=EO','Partial Attendance'); return false">0</a>
                </td>
                <td>
                	<a href='#' onclick="openmypage('popup_report.php?action=emp_job_card_report&emp_code=0053411&emp_name=Md.Mamunur Rashid                      &date_part_from=2014-04-01&date_part_to=2014-04-30&status=CL','Partial Attendance'); return false">1                    </a>
                </td>
                <td>
                    <a href='#' onclick="openmypage('popup_report.php?action=emp_job_card_report&emp_code=0053411&emp_name=Md.Mamunur Rashid                      &date_part_from=2014-04-01&date_part_to=2014-04-30&status=MR','Partial Attendance'); return false">0                    </a>
                </td>						
                <td>
                    <a href='#' onclick="openmypage('popup_report.php?action=emp_job_card_report&emp_code=0053411&emp_name=Md.Mamunur Rashid                      &date_part_from=2014-04-01&date_part_to=2014-04-30&status=W','Partial Attendance'); return false">4                    </a>
                </td>
                <td>
                    <a href='#' onclick="openmypage('popup_report.php?action=emp_job_card_report&emp_code=0053411&emp_name=Md.Mamunur Rashid                      &date_part_from=2014-04-01&date_part_to=2014-04-30&status=H','Partial Attendance'); return false">1                    </a>
                </td>
                <td>0</td>
                <td>0</td>
                <td>0</td>
                <td>24</td>
                <td>30</td>
                <td>0.00</td>
                <td>
                    <input type="button" value="View" style="width:30px" class="formbutton" onclick="openmypage('popup_report.php?action=emp_job_card_report&emp_code=0053411&emp_name=Md.Mamunur Rashid                      &date_part_from=2014-04-01&date_part_to=2014-04-30&status=JC','Partial Attendance'); return false"/>
                </td>
            </tr>
								
            <tr bgcolor="#FFFFFF">
            	<td height='50'>17</td>
                <td height='50'>0019804</td>
                <td>0011087</td>
                <td>Abdul Kader Munna  </td>
                <td align='left'>Assistant</td>
                <td>10-12-2013</td>
                
                <td>30</td>
                 <td>
                 	<a href='#' onclick="openmypage('popup_report.php?action=emp_job_card_report&emp_code=0019804&emp_name=Abdul Kader Munna                      &date_part_from=2014-04-01&date_part_to=2014-04-30&status=P','Partial Attendance'); return false">23</a>
                </td>
                <td>
                	<a href='#' onclick="openmypage('popup_report.php?action=emp_job_card_report&emp_code=0019804&emp_name=Abdul Kader Munna                      &date_part_from=2014-04-01&date_part_to=2014-04-30&status=A','Partial Attendance'); return false">0</a>
                </td>
                <td bgcolor="">&nbsp;
                	<a href='#' onclick="openmypage('popup_report.php?action=emp_job_card_report&emp_code=0019804&emp_name=Abdul Kader Munna                      &date_part_from=2014-04-01&date_part_to=2014-04-30&status=D','Partial Attendance'); return false">2</a>
                </td>
                <td bgcolor="">&nbsp;
                	<a href='#' onclick="openmypage('popup_report.php?action=emp_job_card_report_e_out&emp_code=0019804&emp_name=Abdul Kader Munna                      &date_part_from=2014-04-01&date_part_to=2014-04-30&status=EO','Partial Attendance'); return false">1</a>
                </td>
                <td>
                	<a href='#' onclick="openmypage('popup_report.php?action=emp_job_card_report&emp_code=0019804&emp_name=Abdul Kader Munna                      &date_part_from=2014-04-01&date_part_to=2014-04-30&status=CL','Partial Attendance'); return false">0                    </a>
                </td>
                <td>
                    <a href='#' onclick="openmypage('popup_report.php?action=emp_job_card_report&emp_code=0019804&emp_name=Abdul Kader Munna                      &date_part_from=2014-04-01&date_part_to=2014-04-30&status=MR','Partial Attendance'); return false">0                    </a>
                </td>						
                <td>
                    <a href='#' onclick="openmypage('popup_report.php?action=emp_job_card_report&emp_code=0019804&emp_name=Abdul Kader Munna                      &date_part_from=2014-04-01&date_part_to=2014-04-30&status=W','Partial Attendance'); return false">4                    </a>
                </td>
                <td>
                    <a href='#' onclick="openmypage('popup_report.php?action=emp_job_card_report&emp_code=0019804&emp_name=Abdul Kader Munna                      &date_part_from=2014-04-01&date_part_to=2014-04-30&status=H','Partial Attendance'); return false">1                    </a>
                </td>
                <td>0</td>
                <td>0</td>
                <td>0</td>
                <td>25</td>
                <td>30</td>
                <td>0.00</td>
                <td>
                    <input type="button" value="View" style="width:30px" class="formbutton" onclick="openmypage('popup_report.php?action=emp_job_card_report&emp_code=0019804&emp_name=Abdul Kader Munna                      &date_part_from=2014-04-01&date_part_to=2014-04-30&status=JC','Partial Attendance'); return false"/>
                </td>
            </tr>
				</table> 
	</div>