<div>	<style type="text/css" media="print">
    p{ page-break-after: always;}
    </style>	
    <!--<div style=" border:1px solid #7F7FFF; width:1300px;">-->
	<table width="1280" cellpadding="0" cellspacing="0" border="1" style="font-size:11px;font-family:Arial" class="rpt_table" rules="all">
        <tr>
            <td colspan="17" align="center" style="border:hidden"><font size="+1">
                </font><br />
                <br />
                <font size="+0"> Daily Punch Report On 12-01-2015</font><br />
            </td>
        </tr>
    </table>
       	<!--<div style="width:1700px;margin-top:15px;" class="page" align="center">-->
    <div style="width:1300px;">
    <table cellpadding="0" cellspacing="0" border="1" class="rpt_table" style="font-size:10px;" width="1280" rules="all" align="left">
        <thead>
            <tr>
                <th width="30"><b>SL</b></th>
                <th width="50"><b>Emp Code</b></th>
                <th width="80"><b>Punch Card</b></th>
                <th width="130"><b>Name</b></th>
                <th width="120"><b>Designation</b></th>
                <th width="100"><b>Department</b></th>
                <th width="100"><b>Section</b></th>
                <th width="100"><b>Sub Section</b></th>
                <th width="70"><b>Attnd. Date</b></th>
                <th width="50"><b>ID Card</b></th>
                <th width="60"><b>In Time</b></th>
                <th width="60"><b>Out Time</b></th>
                <th width="50"><b>Status</b></th>
                <th width="40"><b>Late Min</b></th>
                <th width="40"><b>OT</b></th>
                <th width="80"><b>Shift Name</b></th>
                <th><b>Remarks</b></th>
            </tr>
    	</thead>
    </table>
    </div>
        <div style="width:1300px; overflow-y:scroll;" id="scroll_body">
    <table cellpadding="0" cellspacing="0" border="1" class="rpt_table" style="font-size:10px;" width="1280" rules="all" id="table_body" align="left">
	        <tr bgcolor="#FFFFFF">
            <td width="30" align="center">1</td>
            <td width="50">0000181</td>
            <td width="80">0000128536</td>
            <td width="130">
				Mst. Nilufar  Yasmin<br />cell: 01935673700            </td>
            <td width="120">A.S.M. Operator</td>
            <td width="100">Sewing</td>						
            <td width="100">Sewing</td>
            <td width="100"></td>
            <td width="70">12-01-2015</td>
            <td width="50"><p>00135</p></td>
            <td width="60"><b>00:00</b></td>
            <td width="60"><b>00:00</b></td>
            <td width="50" align="center">A</td>
            <td width="40" align="center">0</td>
            <td width="40" align="center">0</td>
            <td width="80">General Shift Worker</td>
            <td></td>	
        </tr>
		        <tr bgcolor="#EEEEEE">
            <td width="30" align="center">2</td>
            <td width="50">0000004</td>
            <td width="80">0004310145</td>
            <td width="130">
				Mst. Khorsida  <br />cell:             </td>
            <td width="120">A.S.M. Operator</td>
            <td width="100">Sewing</td>						
            <td width="100">Sewing</td>
            <td width="100"></td>
            <td width="70">12-01-2015</td>
            <td width="50"><p>00404</p></td>
            <td width="60"><b>00:00</b></td>
            <td width="60"><b>00:00</b></td>
            <td width="50" align="center">A</td>
            <td width="40" align="center">0</td>
            <td width="40" align="center">0</td>
            <td width="80">General Shift Worker</td>
            <td></td>	
        </tr>
		        <tr bgcolor="#FFFFFF">
            <td width="30" align="center">3</td>
            <td width="50">0000005</td>
            <td width="80">0004322300</td>
            <td width="130">
				Mst. Kazal  Rekha<br />cell: 01951227218            </td>
            <td width="120">A.S.M. Operator</td>
            <td width="100">Sewing</td>						
            <td width="100">Sewing</td>
            <td width="100"></td>
            <td width="70">12-01-2015</td>
            <td width="50"><p>00405</p></td>
            <td width="60"><b>00:00</b></td>
            <td width="60"><b>00:00</b></td>
            <td width="50" align="center">A</td>
            <td width="40" align="center">0</td>
            <td width="40" align="center">0</td>
            <td width="80">General Shift Worker</td>
            <td></td>	
        </tr>
		        <tr bgcolor="#EEEEEE">
            <td width="30" align="center">4</td>
            <td width="50">0000088</td>
            <td width="80">0004296024</td>
            <td width="130">
				Moni Rani  Sorker<br />cell:             </td>
            <td width="120">A.S.M. Operator</td>
            <td width="100">Sewing</td>						
            <td width="100">Sewing</td>
            <td width="100"></td>
            <td width="70">12-01-2015</td>
            <td width="50"><p>00412</p></td>
            <td width="60"><b>00:00</b></td>
            <td width="60"><b>00:00</b></td>
            <td width="50" align="center">A</td>
            <td width="40" align="center">0</td>
            <td width="40" align="center">0</td>
            <td width="80">General Shift Worker</td>
            <td></td>	
        </tr>
		        <tr bgcolor="#FFFFFF">
            <td width="30" align="center">5</td>
            <td width="50">0000091</td>
            <td width="80">0004322294</td>
            <td width="130">
				Mst. Moyna  Khatun<br />cell:             </td>
            <td width="120">A.S.M. Operator</td>
            <td width="100">Sewing</td>						
            <td width="100">Sewing</td>
            <td width="100"></td>
            <td width="70">12-01-2015</td>
            <td width="50"><p>00413</p></td>
            <td width="60"><b>00:00</b></td>
            <td width="60"><b>00:00</b></td>
            <td width="50" align="center">A</td>
            <td width="40" align="center">0</td>
            <td width="40" align="center">0</td>
            <td width="80">General Shift Worker</td>
            <td></td>	
        </tr>
		        <tr bgcolor="#EEEEEE">
            <td width="30" align="center">6</td>
            <td width="50">0000098</td>
            <td width="80">0004296028</td>
            <td width="130">
				Nargis  Akter<br />cell:             </td>
            <td width="120">A.S.M. Operator</td>
            <td width="100">Sewing</td>						
            <td width="100">Sewing</td>
            <td width="100"></td>
            <td width="70">12-01-2015</td>
            <td width="50"><p>00421</p></td>
            <td width="60"><b>00:00</b></td>
            <td width="60"><b>00:00</b></td>
            <td width="50" align="center">A</td>
            <td width="40" align="center">0</td>
            <td width="40" align="center">0</td>
            <td width="80">General Shift Worker</td>
            <td></td>	
        </tr>
		        <tr bgcolor="#FFFFFF">
            <td width="30" align="center">7</td>
            <td width="50">0000179</td>
            <td width="80">0004296899</td>
            <td width="130">
				Mst.Tania Begum  <br />cell:             </td>
            <td width="120">A.S.M. Operator</td>
            <td width="100">Sewing</td>						
            <td width="100">Sewing</td>
            <td width="100"></td>
            <td width="70">12-01-2015</td>
            <td width="50"><p>00436</p></td>
            <td width="60"><b>00:00</b></td>
            <td width="60"><b>00:00</b></td>
            <td width="50" align="center">A</td>
            <td width="40" align="center">0</td>
            <td width="40" align="center">0</td>
            <td width="80">General Shift Worker</td>
            <td></td>	
        </tr>
		        <tr  bgcolor="#CCCCCC" style="font-weight:bold">
            <td  colspan="14">&nbsp;Grand Total</td>
            <td width='' align='right'> 0.00</td>
            <td>&nbsp;</td>
            <td>&nbsp;</td>							
            </tr> 
            </table> <tfoot>
        <tr>
            <td colspan="17" align="center"><table width="1260px">
		<tr height="130" style="font-size:24px; font-family:Arial; font-weight:bold">
		 </tr></table></td>
        </tr>
</tfoot>
<!--</div>-->
</div>

</div>
<p></p>
    
	<table width="1000" border="1" class="rpt_table" rules="all">
		  <tr bgcolor="#F0F0B8">
				<td colspan="17" align="center" height=50><b>Summary</b></td>
		  </tr>
		  <tr>				
				<td colspan="3" align="left" bgcolor="#E5E5E5" height="50" ><b>Present :</b> 0 </td>								  	
				<td colspan="3"  align="left" bgcolor="#FFFFFF"><b>Absent :</b><a href='#' onclick="openmypage('popup_punch_report.php?emp_code=0000181,0000004,0000005,0000088,0000091,0000098,0000179&date=2015-01-12','Absent Information'); return false">7</a> </td>				  			  	
				<td colspan="3"  align="left" bgcolor="#E5E5E5"><b>Leave :</b> <a href='#' onclick="openmypage('popup_punch_report.php?emp_code=&date=2015-01-12','Leave Information'); return false">0</a> </td>				  				   
				<td colspan="2"  align="left" bgcolor="#FFFFFF"><b>Movement :</b><a href='#' onclick="openmypage('popup_punch_report.php?emp_code=&date=2015-01-12','Movement Information'); return false">0 </a> </td>				  			    
				<td colspan="2"  align="left" bgcolor="#E5E5E5"><b>Late :</b><a href='#' onclick="openmypage('popup_punch_report.php?emp_code=&date=2015-01-12','Late Information'); return false">0 </a></td>
                <td colspan="2"  align="left" bgcolor="#E5E5E5"><b>Weekend :</b><a href='#' onclick="openmypage('popup_punch_report.php?emp_code=&date=2015-01-12','Weekend Information'); return false">0 </a></td>				  			    
				<td colspan="2"  align="left" bgcolor="#FFFFFF"><b>Total :</b> 7 </td>					
		  </tr>
	</table> 
    
               	   	
        

</div>