<div>	<style type="text/css" media="print">
    p{ page-break-after: always;}
    </style>	
    <!--<div style=" border:1px solid #7F7FFF; width:1300px;">-->
	<table width="1280" cellpadding="0" cellspacing="0" border="1" style="font-size:11px;font-family:Arial" class="rpt_table" rules="all">
        <tr>
            <td colspan="17" align="center" style="border:hidden"><font size="+1">
                Peak Apparels Ltd.</font><br />
                <br />
                <font size="+0"> Daily Punch Report On 17-02-2015</font><br />
            </td>
        </tr>
    </table>
       	<!--<div style="width:1700px;margin-top:15px;" class="page" align="center">-->
    <div style="width:1300px;">
    <table cellpadding="0" cellspacing="0" border="1" class="rpt_table" style="font-size:10px;" width="1280" rules="all" align="left">
        <thead>
            <tr>
                <th width="30"><b>SL</b></th>
                <th width="50"><b>Emp Code</b></th>
                <th width="80"><b>Punch Card</b></th>
                <th width="130"><b>Name</b></th>
                <th width="120"><b>Designation</b></th>
                <th width="100"><b>Department</b></th>
                <th width="100"><b>Section</b></th>
                <th width="100"><b>Sub Section</b></th>
                <th width="70"><b>Attnd. Date</b></th>
                <th width="50"><b>ID Card</b></th>
                <th width="60"><b>In Time</b></th>
                <th width="60"><b>Out Time</b></th>
                <th width="50"><b>Status</b></th>
                <th width="40"><b>Late Min</b></th>
                <th width="40"><b>OT</b></th>
                <th width="80"><b>Shift Name</b></th>
                <th><b>Remarks</b></th>
            </tr>
    	</thead>
    </table>
    </div>
        <div style="width:1300px; overflow-y:scroll;" id="scroll_body">
    <table cellpadding="0" cellspacing="0" border="1" class="rpt_table" style="font-size:10px;" width="1280" rules="all" id="table_body" align="left">
	        <tr bgcolor="#FFFFFF">
            <td width="30" align="center">1</td>
            <td width="50">0000263</td>
            <td width="80">0008164785</td>
            <td width="130">
				Md.Nura   Alahi<br />cell:             </td>
            <td width="120">Marker Man</td>
            <td width="100">Cutting</td>						
            <td width="100">Cutting</td>
            <td width="100"></td>
            <td width="70">17-02-2015</td>
            <td width="50"><p>00924</p></td>
            <td width="60"><b>8:25 am</b></td>
            <td width="60"><b>00:00</b></td>
            <td width="50" align="center">P</td>
            <td width="40" align="center">0</td>
            <td width="40" align="center">0</td>
            <td width="80">General Shift Staff</td>
            <td></td>	
        </tr>
		        <tr bgcolor="#EEEEEE">
            <td width="30" align="center">2</td>
            <td width="50">0000153</td>
            <td width="80">0004314525</td>
            <td width="130">
				Md.Hafizur   Rahman<br />cell:             </td>
            <td width="120">Cutter man</td>
            <td width="100">Cutting</td>						
            <td width="100">Cutting</td>
            <td width="100"></td>
            <td width="70">17-02-2015</td>
            <td width="50"><p>00925</p></td>
            <td width="60"><b>8:28 am</b></td>
            <td width="60"><b>00:00</b></td>
            <td width="50" align="center">P</td>
            <td width="40" align="center">0</td>
            <td width="40" align="center">0</td>
            <td width="80">General Shift Staff</td>
            <td></td>	
        </tr>
		        <tr bgcolor="#FFFFFF">
            <td width="30" align="center">3</td>
            <td width="50">0000059</td>
            <td width="80">0004310146</td>
            <td width="130">
				Md. Manik  Hossain<br />cell: 01937711699            </td>
            <td width="120">Officer (Admin)</td>
            <td width="100">Admin and HR</td>						
            <td width="100">Admin and HR</td>
            <td width="100"></td>
            <td width="70">17-02-2015</td>
            <td width="50"><p>02000</p></td>
            <td width="60"><b>8:31 am</b></td>
            <td width="60"><b>00:00</b></td>
            <td width="50" align="center">P</td>
            <td width="40" align="center">0</td>
            <td width="40" align="center">0</td>
            <td width="80">General Shift Staff</td>
            <td></td>	
        </tr>
		        <tr bgcolor="#EEEEEE">
            <td width="30" align="center">4</td>
            <td width="50">0000060</td>
            <td width="80">0004311585</td>
            <td width="130">
				Rasheda  Akter<br />cell:             </td>
            <td width="120">Welfare Officer</td>
            <td width="100">Admin and HR</td>						
            <td width="100">Admin and HR</td>
            <td width="100"></td>
            <td width="70">17-02-2015</td>
            <td width="50"><p>02001</p></td>
            <td width="60"><b>8:24 am</b></td>
            <td width="60"><b>00:00</b></td>
            <td width="50" align="center">P</td>
            <td width="40" align="center">0</td>
            <td width="40" align="center">0</td>
            <td width="80">General Shift Staff</td>
            <td></td>	
        </tr>
		        <tr bgcolor="#FFFFFF">
            <td width="30" align="center">5</td>
            <td width="50">0000001</td>
            <td width="80">0004322204</td>
            <td width="130">
				MD. APPLE  MAHMUD<br />cell: 01760802052            </td>
            <td width="120">IT Officer</td>
            <td width="100">Admin and HR</td>						
            <td width="100">IT(Information Technology)</td>
            <td width="100"></td>
            <td width="70">17-02-2015</td>
            <td width="50"><p>02003</p></td>
            <td width="60"><b>8:33 am</b></td>
            <td width="60"><b>00:00</b></td>
            <td width="50" align="center">P</td>
            <td width="40" align="center">0</td>
            <td width="40" align="center">0</td>
            <td width="80">General Shift Staff</td>
            <td></td>	
        </tr>
		        <tr bgcolor="#EEEEEE">
            <td width="30" align="center">6</td>
            <td width="50">0000062</td>
            <td width="80">0004322308</td>
            <td width="130">
				Md. Ariful   Islam<br />cell: 01716860389            </td>
            <td width="120">Merchandiser</td>
            <td width="100">Marketing and Merchandising</td>						
            <td width="100">Merchandising</td>
            <td width="100"></td>
            <td width="70">17-02-2015</td>
            <td width="50"><p>02006</p></td>
            <td width="60"><b>8:37 am</b></td>
            <td width="60"><b>00:00</b></td>
            <td width="50" align="center">P</td>
            <td width="40" align="center">0</td>
            <td width="40" align="center">0</td>
            <td width="80">General Shift Staff</td>
            <td></td>	
        </tr>
		        <tr bgcolor="#FFFFFF">
            <td width="30" align="center">7</td>
            <td width="50">0000105</td>
            <td width="80">0004298367</td>
            <td width="130">
				Md. Mokbul  Hossain<br />cell:             </td>
            <td width="120">Officer (Yarn Store)</td>
            <td width="100">Store</td>						
            <td width="100">Store</td>
            <td width="100"></td>
            <td width="70">17-02-2015</td>
            <td width="50"><p>02007</p></td>
            <td width="60"><b>8:26 am</b></td>
            <td width="60"><b>00:00</b></td>
            <td width="50" align="center">P</td>
            <td width="40" align="center">0</td>
            <td width="40" align="center">0</td>
            <td width="80">General Shift Staff</td>
            <td></td>	
        </tr>
		        <tr bgcolor="#EEEEEE">
            <td width="30" align="center">8</td>
            <td width="50">0000066</td>
            <td width="80">0004296898</td>
            <td width="130">
				Md. Motawakel  Billah<br />cell: 01718178409            </td>
            <td width="120">Planing Manager</td>
            <td width="100">Sewing</td>						
            <td width="100">Sewing</td>
            <td width="100"></td>
            <td width="70">17-02-2015</td>
            <td width="50"><p>02008</p></td>
            <td width="60"><b>8:23 am</b></td>
            <td width="60"><b>00:00</b></td>
            <td width="50" align="center">P</td>
            <td width="40" align="center">0</td>
            <td width="40" align="center">0</td>
            <td width="80">General Shift Staff</td>
            <td></td>	
        </tr>
		        <tr bgcolor="#FFFFFF">
            <td width="30" align="center">9</td>
            <td width="50">0000067</td>
            <td width="80">0004317360</td>
            <td width="130">
				Mst. Shefali   Akter<br />cell: 01859012133            </td>
            <td width="120">Supervisor</td>
            <td width="100">Quality</td>						
            <td width="100">Quality</td>
            <td width="100"></td>
            <td width="70">17-02-2015</td>
            <td width="50"><p>02009</p></td>
            <td width="60"><b>8:28 am</b></td>
            <td width="60"><b>00:00</b></td>
            <td width="50" align="center">P</td>
            <td width="40" align="center">0</td>
            <td width="40" align="center">0</td>
            <td width="80">General Shift Staff</td>
            <td></td>	
        </tr>
		        <tr bgcolor="#EEEEEE">
            <td width="30" align="center">10</td>
            <td width="50">0000058</td>
            <td width="80">0004311584</td>
            <td width="130">
				Sanjib Chandra Das<br />cell: 01710812487            </td>
            <td width="120">Incharge (Finishing)</td>
            <td width="100">Finishing</td>						
            <td width="100">Finishing</td>
            <td width="100"></td>
            <td width="70">17-02-2015</td>
            <td width="50"><p>02010</p></td>
            <td width="60"><b>8:22 am</b></td>
            <td width="60"><b>00:00</b></td>
            <td width="50" align="center">P</td>
            <td width="40" align="center">0</td>
            <td width="40" align="center">0</td>
            <td width="80">General Shift Staff</td>
            <td></td>	
        </tr>
		        <tr bgcolor="#FFFFFF">
            <td width="30" align="center">11</td>
            <td width="50">0000064</td>
            <td width="80">0004311776</td>
            <td width="130">
				Abu Nasher  Sobuj<br />cell: 01915415204            </td>
            <td width="120">Assistant General Manager</td>
            <td width="100">General </td>						
            <td width="100">General</td>
            <td width="100"></td>
            <td width="70">17-02-2015</td>
            <td width="50"><p>02011</p></td>
            <td width="60"><b>8:39 am</b></td>
            <td width="60"><b>00:00</b></td>
            <td width="50" align="center">P</td>
            <td width="40" align="center">0</td>
            <td width="40" align="center">0</td>
            <td width="80">General Shift Staff</td>
            <td></td>	
        </tr>
		        <tr bgcolor="#EEEEEE">
            <td width="30" align="center">12</td>
            <td width="50">0000065</td>
            <td width="80">0004322199</td>
            <td width="130">
				Md. Nurul  Islam<br />cell: 01710830769            </td>
            <td width="120">I.E Manager</td>
            <td width="100">Sewing</td>						
            <td width="100">Sewing</td>
            <td width="100"></td>
            <td width="70">17-02-2015</td>
            <td width="50"><p>02015</p></td>
            <td width="60"><b>8:11 am</b></td>
            <td width="60"><b>00:00</b></td>
            <td width="50" align="center">P</td>
            <td width="40" align="center">0</td>
            <td width="40" align="center">0</td>
            <td width="80">General Shift Staff</td>
            <td></td>	
        </tr>
		        <tr bgcolor="#FFFFFF">
            <td width="30" align="center">13</td>
            <td width="50">0000075</td>
            <td width="80">0004298386</td>
            <td width="130">
				Md. Shahab  Uddin<br />cell:             </td>
            <td width="120">Purchase Incharge</td>
            <td width="100">Admin and HR</td>						
            <td width="100">Purchase</td>
            <td width="100"></td>
            <td width="70">17-02-2015</td>
            <td width="50"><p>02016</p></td>
            <td width="60"><b>8:01 am</b></td>
            <td width="60"><b>00:00</b></td>
            <td width="50" align="center">P</td>
            <td width="40" align="center">0</td>
            <td width="40" align="center">0</td>
            <td width="80">General Shift Staff</td>
            <td></td>	
        </tr>
		        <tr bgcolor="#EEEEEE">
            <td width="30" align="center">14</td>
            <td width="50">0000357</td>
            <td width="80">0005221917</td>
            <td width="130">
				Md. Sumon Mia  <br />cell:             </td>
            <td width="120">QC (Dyeing)</td>
            <td width="100">Dyeing</td>						
            <td width="100">Dyeing</td>
            <td width="100"></td>
            <td width="70">17-02-2015</td>
            <td width="50"><p>02018</p></td>
            <td width="60"><b>8:10 am</b></td>
            <td width="60"><b>00:00</b></td>
            <td width="50" align="center">P</td>
            <td width="40" align="center">0</td>
            <td width="40" align="center">0</td>
            <td width="80">General Shift Staff</td>
            <td></td>	
        </tr>
		        <tr bgcolor="#FFFFFF">
            <td width="30" align="center">15</td>
            <td width="50">0000126</td>
            <td width="80">0004298807</td>
            <td width="130">
				Md. Anisur  Rahman<br />cell:             </td>
            <td width="120">Officer (Acc. Store)</td>
            <td width="100">Store</td>						
            <td width="100">Store</td>
            <td width="100"></td>
            <td width="70">17-02-2015</td>
            <td width="50"><p>02022</p></td>
            <td width="60"><b>8:29 am</b></td>
            <td width="60"><b>00:00</b></td>
            <td width="50" align="center">P</td>
            <td width="40" align="center">0</td>
            <td width="40" align="center">0</td>
            <td width="80">General Shift Staff</td>
            <td></td>	
        </tr>
		        <tr bgcolor="#EEEEEE">
            <td width="30" align="center">16</td>
            <td width="50">0000112</td>
            <td width="80">0004322261</td>
            <td width="130">
				Md. Shaheen  Miah<br />cell:             </td>
            <td width="120">Manager Knitting</td>
            <td width="100">Knitting</td>						
            <td width="100">Knitting</td>
            <td width="100"></td>
            <td width="70">17-02-2015</td>
            <td width="50"><p>02023</p></td>
            <td width="60"><b>9:01 am</b></td>
            <td width="60"><b>00:00</b></td>
            <td width="50" align="center">D</td>
            <td width="40" align="center">31</td>
            <td width="40" align="center">0</td>
            <td width="80">General Shift Staff</td>
            <td></td>	
        </tr>
		        <tr bgcolor="#FFFFFF">
            <td width="30" align="center">17</td>
            <td width="50">0000261</td>
            <td width="80">0015137168</td>
            <td width="130">
				Md.Rofiqul   Islam<br />cell:             </td>
            <td width="120">Feeder Man</td>
            <td width="100">Knitting</td>						
            <td width="100">Knitting</td>
            <td width="100"></td>
            <td width="70">17-02-2015</td>
            <td width="50"><p>02024</p></td>
            <td width="60"><b>7:43 am</b></td>
            <td width="60"><b>00:00</b></td>
            <td width="50" align="center">P</td>
            <td width="40" align="center">0</td>
            <td width="40" align="center">0</td>
            <td width="80">General Shift Staff</td>
            <td></td>	
        </tr>
		        <tr bgcolor="#EEEEEE">
            <td width="30" align="center">18</td>
            <td width="50">0000073</td>
            <td width="80">0005223491</td>
            <td width="130">
				Md. Abdul  Matin<br />cell: 01758975924            </td>
            <td width="120">Welder Man</td>
            <td width="100">Admin and HR</td>						
            <td width="100">Maintenance-Mechanical</td>
            <td width="100"></td>
            <td width="70">17-02-2015</td>
            <td width="50"><p>02026</p></td>
            <td width="60"><b>7:33 am</b></td>
            <td width="60"><b>00:00</b></td>
            <td width="50" align="center">P</td>
            <td width="40" align="center">0</td>
            <td width="40" align="center">0</td>
            <td width="80">General Shift Staff</td>
            <td></td>	
        </tr>
		        <tr bgcolor="#FFFFFF">
            <td width="30" align="center">19</td>
            <td width="50">0000183</td>
            <td width="80">0004318732</td>
            <td width="130">
				Md. Uzzol  Hossain<br />cell:             </td>
            <td width="120">Welder Man</td>
            <td width="100">Admin and HR</td>						
            <td width="100">Maintenance-Mechanical</td>
            <td width="100"></td>
            <td width="70">17-02-2015</td>
            <td width="50"><p>02027</p></td>
            <td width="60"><b>8:13 am</b></td>
            <td width="60"><b>00:00</b></td>
            <td width="50" align="center">P</td>
            <td width="40" align="center">0</td>
            <td width="40" align="center">0</td>
            <td width="80">General Shift Staff</td>
            <td></td>	
        </tr>
		        <tr bgcolor="#EEEEEE">
            <td width="30" align="center">20</td>
            <td width="50">0000077</td>
            <td width="80">0004306038</td>
            <td width="130">
				Dr. Mohammad Mazharul Islam<br />cell:             </td>
            <td width="120">Medical Officer</td>
            <td width="100">Admin and HR</td>						
            <td width="100">Medical</td>
            <td width="100"></td>
            <td width="70">17-02-2015</td>
            <td width="50"><p>02033</p></td>
            <td width="60"><b>00:00</b></td>
            <td width="60"><b>00:00</b></td>
            <td width="50" align="center">A</td>
            <td width="40" align="center">0</td>
            <td width="40" align="center">0</td>
            <td width="80">General Shift Staff</td>
            <td></td>	
        </tr>
		        <tr bgcolor="#FFFFFF">
            <td width="30" align="center">21</td>
            <td width="50">0000076</td>
            <td width="80">0004296030</td>
            <td width="130">
				Mst. Sharmin  Khatun<br />cell: 01745468752            </td>
            <td width="120">Nurse</td>
            <td width="100">Admin and HR</td>						
            <td width="100">Medical</td>
            <td width="100"></td>
            <td width="70">17-02-2015</td>
            <td width="50"><p>02034</p></td>
            <td width="60"><b>8:33 am</b></td>
            <td width="60"><b>00:00</b></td>
            <td width="50" align="center">P</td>
            <td width="40" align="center">0</td>
            <td width="40" align="center">0</td>
            <td width="80">General Shift Staff</td>
            <td></td>	
        </tr>
		        <tr bgcolor="#EEEEEE">
            <td width="30" align="center">22</td>
            <td width="50">0000184</td>
            <td width="80">0000272386</td>
            <td width="130">
				AL Mamun Sarker  <br />cell:             </td>
            <td width="120">Sr. Merchandiser</td>
            <td width="100">Marketing and Merchandising</td>						
            <td width="100">Merchandising</td>
            <td width="100"></td>
            <td width="70">17-02-2015</td>
            <td width="50"><p>02036</p></td>
            <td width="60"><b>8:47 am</b></td>
            <td width="60"><b>00:00</b></td>
            <td width="50" align="center">D</td>
            <td width="40" align="center">17</td>
            <td width="40" align="center">0</td>
            <td width="80">General Shift Staff</td>
            <td></td>	
        </tr>
		        <tr bgcolor="#FFFFFF">
            <td width="30" align="center">23</td>
            <td width="50">0000094</td>
            <td width="80">0004306041</td>
            <td width="130">
				Md. Raju Sheikh  Mon<br />cell:             </td>
            <td width="120">Peon </td>
            <td width="100">Admin and HR</td>						
            <td width="100">Admin and HR</td>
            <td width="100"></td>
            <td width="70">17-02-2015</td>
            <td width="50"><p>02037</p></td>
            <td width="60"><b>8:11 am</b></td>
            <td width="60"><b>00:00</b></td>
            <td width="50" align="center">P</td>
            <td width="40" align="center">0</td>
            <td width="40" align="center">0</td>
            <td width="80">General Shift Worker</td>
            <td></td>	
        </tr>
		        <tr bgcolor="#EEEEEE">
            <td width="30" align="center">24</td>
            <td width="50">0000084</td>
            <td width="80">0004296025</td>
            <td width="130">
				Md. Khaled  Hasan<br />cell:             </td>
            <td width="120">Store Assistant</td>
            <td width="100">Store</td>						
            <td width="100">Store</td>
            <td width="100"></td>
            <td width="70">17-02-2015</td>
            <td width="50"><p>02038</p></td>
            <td width="60"><b>8:23 am</b></td>
            <td width="60"><b>00:00</b></td>
            <td width="50" align="center">P</td>
            <td width="40" align="center">0</td>
            <td width="40" align="center">0</td>
            <td width="80">General Shift Staff</td>
            <td></td>	
        </tr>
		        <tr bgcolor="#FFFFFF">
            <td width="30" align="center">25</td>
            <td width="50">0000089</td>
            <td width="80">0009014505</td>
            <td width="130">
				Md. Firoz  Alam<br />cell:             </td>
            <td width="120">Officer (Admin)</td>
            <td width="100">Admin and HR</td>						
            <td width="100">Admin and HR</td>
            <td width="100"></td>
            <td width="70">17-02-2015</td>
            <td width="50"><p>02039</p></td>
            <td width="60"><b>8:24 am</b></td>
            <td width="60"><b>00:00</b></td>
            <td width="50" align="center">P</td>
            <td width="40" align="center">0</td>
            <td width="40" align="center">0</td>
            <td width="80">General Shift Staff</td>
            <td></td>	
        </tr>
		        <tr bgcolor="#EEEEEE">
            <td width="30" align="center">26</td>
            <td width="50">0000119</td>
            <td width="80">0004311608</td>
            <td width="130">
				Ruhul  Amin<br />cell:             </td>
            <td width="120">Supervisor</td>
            <td width="100">Sewing</td>						
            <td width="100">Sewing</td>
            <td width="100"></td>
            <td width="70">17-02-2015</td>
            <td width="50"><p>02043</p></td>
            <td width="60"><b>8:15 am</b></td>
            <td width="60"><b>00:00</b></td>
            <td width="50" align="center">P</td>
            <td width="40" align="center">0</td>
            <td width="40" align="center">0</td>
            <td width="80">General Shift Staff</td>
            <td></td>	
        </tr>
		        <tr bgcolor="#FFFFFF">
            <td width="30" align="center">27</td>
            <td width="50">0000130</td>
            <td width="80">0000099616</td>
            <td width="130">
				Md. Sohel Rana  <br />cell:             </td>
            <td width="120">Supervisor</td>
            <td width="100">Sewing</td>						
            <td width="100">Sewing</td>
            <td width="100"></td>
            <td width="70">17-02-2015</td>
            <td width="50"><p>02045</p></td>
            <td width="60"><b>8:11 am</b></td>
            <td width="60"><b>00:00</b></td>
            <td width="50" align="center">P</td>
            <td width="40" align="center">0</td>
            <td width="40" align="center">0</td>
            <td width="80">General Shift Staff</td>
            <td></td>	
        </tr>
		        <tr bgcolor="#EEEEEE">
            <td width="30" align="center">28</td>
            <td width="50">0000127</td>
            <td width="80">0004298809</td>
            <td width="130">
				Md. Abdul  Jalil<br />cell:             </td>
            <td width="120">Quality Controler</td>
            <td width="100">Quality</td>						
            <td width="100">Quality</td>
            <td width="100"></td>
            <td width="70">17-02-2015</td>
            <td width="50"><p>02048</p></td>
            <td width="60"><b>8:15 am</b></td>
            <td width="60"><b>00:00</b></td>
            <td width="50" align="center">P</td>
            <td width="40" align="center">0</td>
            <td width="40" align="center">0</td>
            <td width="80">General Shift Staff</td>
            <td></td>	
        </tr>
		        <tr bgcolor="#FFFFFF">
            <td width="30" align="center">29</td>
            <td width="50">0000134</td>
            <td width="80">0004306070</td>
            <td width="130">
				Md. Salman  <br />cell:             </td>
            <td width="120">QC (Dyeing)</td>
            <td width="100">Dyeing</td>						
            <td width="100">Dyeing</td>
            <td width="100"></td>
            <td width="70">17-02-2015</td>
            <td width="50"><p>02049</p></td>
            <td width="60"><b>8:22 am</b></td>
            <td width="60"><b>00:00</b></td>
            <td width="50" align="center">P</td>
            <td width="40" align="center">0</td>
            <td width="40" align="center">0</td>
            <td width="80">General Shift Staff</td>
            <td></td>	
        </tr>
		        <tr bgcolor="#EEEEEE">
            <td width="30" align="center">30</td>
            <td width="50">0000156</td>
            <td width="80">0004298368</td>
            <td width="130">
				Md.Mainul Hasan  <br />cell:             </td>
            <td width="120">Store Officer (Knitting)</td>
            <td width="100">Knitting</td>						
            <td width="100">Knitting</td>
            <td width="100"></td>
            <td width="70">17-02-2015</td>
            <td width="50"><p>02051</p></td>
            <td width="60"><b>7:42 am</b></td>
            <td width="60"><b>00:00</b></td>
            <td width="50" align="center">P</td>
            <td width="40" align="center">0</td>
            <td width="40" align="center">0</td>
            <td width="80">General Shift Staff</td>
            <td></td>	
        </tr>
		        <tr bgcolor="#FFFFFF">
            <td width="30" align="center">31</td>
            <td width="50">0000157</td>
            <td width="80">0004322303</td>
            <td width="130">
				Md.Golam   Rabbani<br />cell:             </td>
            <td width="120">Asst. Officer (Yarn Store)</td>
            <td width="100">Store</td>						
            <td width="100">Store</td>
            <td width="100"></td>
            <td width="70">17-02-2015</td>
            <td width="50"><p>02052</p></td>
            <td width="60"><b>8:26 am</b></td>
            <td width="60"><b>00:00</b></td>
            <td width="50" align="center">P</td>
            <td width="40" align="center">0</td>
            <td width="40" align="center">0</td>
            <td width="80">General Shift Staff</td>
            <td></td>	
        </tr>
		        <tr bgcolor="#EEEEEE">
            <td width="30" align="center">32</td>
            <td width="50">0000199</td>
            <td width="80">0004322259</td>
            <td width="130">
				Md. Ruhul   Amin<br />cell:             </td>
            <td width="120">Marketing Officer</td>
            <td width="100">Knitting</td>						
            <td width="100">Knitting</td>
            <td width="100"></td>
            <td width="70">17-02-2015</td>
            <td width="50"><p>02053</p></td>
            <td width="60"><b>8:18 am</b></td>
            <td width="60"><b>00:00</b></td>
            <td width="50" align="center">P</td>
            <td width="40" align="center">0</td>
            <td width="40" align="center">0</td>
            <td width="80">General Shift Staff</td>
            <td></td>	
        </tr>
		        <tr bgcolor="#FFFFFF">
            <td width="30" align="center">33</td>
            <td width="50">0000159</td>
            <td width="80">0004308495</td>
            <td width="130">
				Md.Rubel  Mia<br />cell:             </td>
            <td width="120">Mechanic</td>
            <td width="100">Admin and HR</td>						
            <td width="100">Maintenance-Mechanical</td>
            <td width="100"></td>
            <td width="70">17-02-2015</td>
            <td width="50"><p>02055</p></td>
            <td width="60"><b>00:00</b></td>
            <td width="60"><b>00:00</b></td>
            <td width="50" align="center">A</td>
            <td width="40" align="center">0</td>
            <td width="40" align="center">0</td>
            <td width="80">General Shift Staff</td>
            <td></td>	
        </tr>
		        <tr bgcolor="#EEEEEE">
            <td width="30" align="center">34</td>
            <td width="50">0000200</td>
            <td width="80">0004322201</td>
            <td width="130">
				Md. Saidul Islam  Sobuj<br />cell:             </td>
            <td width="120">Floor Incharge </td>
            <td width="100">Sewing</td>						
            <td width="100">Sewing</td>
            <td width="100"></td>
            <td width="70">17-02-2015</td>
            <td width="50"><p>02056</p></td>
            <td width="60"><b>8:15 am</b></td>
            <td width="60"><b>00:00</b></td>
            <td width="50" align="center">P</td>
            <td width="40" align="center">0</td>
            <td width="40" align="center">0</td>
            <td width="80">General Shift Staff</td>
            <td></td>	
        </tr>
		        <tr bgcolor="#FFFFFF">
            <td width="30" align="center">35</td>
            <td width="50">0000139</td>
            <td width="80">0000271701</td>
            <td width="130">
				Md.Ronju  Mia<br />cell:             </td>
            <td width="120">Supervisor</td>
            <td width="100">Sewing</td>						
            <td width="100">Sewing</td>
            <td width="100"></td>
            <td width="70">17-02-2015</td>
            <td width="50"><p>02057</p></td>
            <td width="60"><b>7:46 am</b></td>
            <td width="60"><b>00:00</b></td>
            <td width="50" align="center">P</td>
            <td width="40" align="center">0</td>
            <td width="40" align="center">0</td>
            <td width="80">General Shift Staff</td>
            <td></td>	
        </tr>
		        <tr bgcolor="#EEEEEE">
            <td width="30" align="center">36</td>
            <td width="50">0000138</td>
            <td width="80">0000124854</td>
            <td width="130">
				Md.Abdus Salam <br />cell:             </td>
            <td width="120">Supervisor</td>
            <td width="100">Cutting</td>						
            <td width="100">Cutting</td>
            <td width="100"></td>
            <td width="70">17-02-2015</td>
            <td width="50"><p>02058</p></td>
            <td width="60"><b>8:22 am</b></td>
            <td width="60"><b>00:00</b></td>
            <td width="50" align="center">P</td>
            <td width="40" align="center">0</td>
            <td width="40" align="center">0</td>
            <td width="80">General Shift Staff</td>
            <td></td>	
        </tr>
		        <tr bgcolor="#FFFFFF">
            <td width="30" align="center">37</td>
            <td width="50">0000160</td>
            <td width="80">0004318678</td>
            <td width="130">
				Md.Khaja Maien  Uddin<br />cell:             </td>
            <td width="120">QC (Dyeing)</td>
            <td width="100">Dyeing</td>						
            <td width="100">Dyeing</td>
            <td width="100"></td>
            <td width="70">17-02-2015</td>
            <td width="50"><p>02059</p></td>
            <td width="60"><b>8:27 am</b></td>
            <td width="60"><b>00:00</b></td>
            <td width="50" align="center">P</td>
            <td width="40" align="center">0</td>
            <td width="40" align="center">0</td>
            <td width="80">General Shift Staff</td>
            <td></td>	
        </tr>
		        <tr bgcolor="#EEEEEE">
            <td width="30" align="center">38</td>
            <td width="50">0000161</td>
            <td width="80">0004296026</td>
            <td width="130">
				Md.Mahamudul Hasan  Khan<br />cell:             </td>
            <td width="120">Assistant Merchandiser</td>
            <td width="100">Marketing and Merchandising</td>						
            <td width="100">Merchandising</td>
            <td width="100"></td>
            <td width="70">17-02-2015</td>
            <td width="50"><p>02060</p></td>
            <td width="60"><b>00:00</b></td>
            <td width="60"><b>00:00</b></td>
            <td width="50" align="center">A</td>
            <td width="40" align="center">0</td>
            <td width="40" align="center">0</td>
            <td width="80">General Shift Staff</td>
            <td></td>	
        </tr>
		        <tr bgcolor="#FFFFFF">
            <td width="30" align="center">39</td>
            <td width="50">0000162</td>
            <td width="80">0004306437</td>
            <td width="130">
				Md.All  Kaiyom<br />cell:             </td>
            <td width="120">IT Officer</td>
            <td width="100">Admin and HR</td>						
            <td width="100">IT(Information Technology)</td>
            <td width="100"></td>
            <td width="70">17-02-2015</td>
            <td width="50"><p>02061</p></td>
            <td width="60"><b>8:35 am</b></td>
            <td width="60"><b>00:00</b></td>
            <td width="50" align="center">P</td>
            <td width="40" align="center">0</td>
            <td width="40" align="center">0</td>
            <td width="80">General Shift Staff</td>
            <td></td>	
        </tr>
		        <tr bgcolor="#EEEEEE">
            <td width="30" align="center">40</td>
            <td width="50">0000158</td>
            <td width="80">0004296914</td>
            <td width="130">
				Mst.Porna   Akter<br />cell:             </td>
            <td width="120">Manager</td>
            <td width="100">Admin and HR</td>						
            <td width="100">Admin and HR</td>
            <td width="100"></td>
            <td width="70">17-02-2015</td>
            <td width="50"><p>02062</p></td>
            <td width="60"><b>8:26 am</b></td>
            <td width="60"><b>00:00</b></td>
            <td width="50" align="center">P</td>
            <td width="40" align="center">0</td>
            <td width="40" align="center">0</td>
            <td width="80">General Shift Staff</td>
            <td></td>	
        </tr>
		        <tr bgcolor="#FFFFFF">
            <td width="30" align="center">41</td>
            <td width="50">0000231</td>
            <td width="80">0003568413</td>
            <td width="130">
				Mst. Latifa   Akter<br />cell: 01912354709            </td>
            <td width="120">Supervisor</td>
            <td width="100">Quality</td>						
            <td width="100">Quality</td>
            <td width="100"></td>
            <td width="70">17-02-2015</td>
            <td width="50"><p>02065</p></td>
            <td width="60"><b>00:00</b></td>
            <td width="60"><b>00:00</b></td>
            <td width="50" align="center">A</td>
            <td width="40" align="center">0</td>
            <td width="40" align="center">0</td>
            <td width="80">General Shift Staff</td>
            <td></td>	
        </tr>
		        <tr bgcolor="#EEEEEE">
            <td width="30" align="center">42</td>
            <td width="50">0000206</td>
            <td width="80">0000085573</td>
            <td width="130">
				Md. Aminul Islam  Mintu<br />cell: 01750183181            </td>
            <td width="120">Incharge</td>
            <td width="100">Pattern</td>						
            <td width="100">Pattern</td>
            <td width="100"></td>
            <td width="70">17-02-2015</td>
            <td width="50"><p>02066</p></td>
            <td width="60"><b>8:24 am</b></td>
            <td width="60"><b>00:00</b></td>
            <td width="50" align="center">P</td>
            <td width="40" align="center">0</td>
            <td width="40" align="center">0</td>
            <td width="80">General Shift Staff</td>
            <td></td>	
        </tr>
		        <tr bgcolor="#FFFFFF">
            <td width="30" align="center">43</td>
            <td width="50">0000220</td>
            <td width="80">0008052345</td>
            <td width="130">
				Golam Mostafa  <br />cell: 01726038376            </td>
            <td width="120">Sr. Merchandiser</td>
            <td width="100">Marketing and Merchandising</td>						
            <td width="100">Merchandising</td>
            <td width="100"></td>
            <td width="70">17-02-2015</td>
            <td width="50"><p>02067</p></td>
            <td width="60"><b>8:22 am</b></td>
            <td width="60"><b>00:00</b></td>
            <td width="50" align="center">P</td>
            <td width="40" align="center">0</td>
            <td width="40" align="center">0</td>
            <td width="80">General Shift Staff</td>
            <td></td>	
        </tr>
		        <tr bgcolor="#EEEEEE">
            <td width="30" align="center">44</td>
            <td width="50">0000219</td>
            <td width="80">0004318675</td>
            <td width="130">
				Md. Najrul   Islam<br />cell: 01725744730            </td>
            <td width="120">Assistant Merchandiser</td>
            <td width="100">Marketing and Merchandising</td>						
            <td width="100">Merchandising</td>
            <td width="100"></td>
            <td width="70">17-02-2015</td>
            <td width="50"><p>02068</p></td>
            <td width="60"><b>8:18 am</b></td>
            <td width="60"><b>00:00</b></td>
            <td width="50" align="center">P</td>
            <td width="40" align="center">0</td>
            <td width="40" align="center">0</td>
            <td width="80">General Shift Staff</td>
            <td></td>	
        </tr>
		        <tr bgcolor="#FFFFFF">
            <td width="30" align="center">45</td>
            <td width="50">0000218</td>
            <td width="80">0004311605</td>
            <td width="130">
				Md. Hasan  Ali<br />cell:             </td>
            <td width="120">Manager</td>
            <td width="100">Fabrics</td>						
            <td width="100">Fabrics</td>
            <td width="100"></td>
            <td width="70">17-02-2015</td>
            <td width="50"><p>02069</p></td>
            <td width="60"><b>9:26 am</b></td>
            <td width="60"><b>00:00</b></td>
            <td width="50" align="center">D</td>
            <td width="40" align="center">56</td>
            <td width="40" align="center">0</td>
            <td width="80">General Shift Staff</td>
            <td></td>	
        </tr>
		        <tr bgcolor="#EEEEEE">
            <td width="30" align="center">46</td>
            <td width="50">0000217</td>
            <td width="80">0004322155</td>
            <td width="130">
				Md. Rafiqul   Islam<br />cell:             </td>
            <td width="120">Incharge (Fabric)</td>
            <td width="100">Store</td>						
            <td width="100">Store</td>
            <td width="100"></td>
            <td width="70">17-02-2015</td>
            <td width="50"><p>02070</p></td>
            <td width="60"><b>7:55 am</b></td>
            <td width="60"><b>00:00</b></td>
            <td width="50" align="center">P</td>
            <td width="40" align="center">0</td>
            <td width="40" align="center">0</td>
            <td width="80">General Shift Staff</td>
            <td></td>	
        </tr>
		        <tr bgcolor="#FFFFFF">
            <td width="30" align="center">47</td>
            <td width="50">0000212</td>
            <td width="80">0008106607</td>
            <td width="130">
				Md. Rubel  Mia<br />cell:             </td>
            <td width="120">Cutter man</td>
            <td width="100">Cutting</td>						
            <td width="100">Cutting</td>
            <td width="100"></td>
            <td width="70">17-02-2015</td>
            <td width="50"><p>02071</p></td>
            <td width="60"><b>8:18 am</b></td>
            <td width="60"><b>00:00</b></td>
            <td width="50" align="center">P</td>
            <td width="40" align="center">0</td>
            <td width="40" align="center">0</td>
            <td width="80">General Shift Staff</td>
            <td></td>	
        </tr>
		        <tr bgcolor="#EEEEEE">
            <td width="30" align="center">48</td>
            <td width="50">0000210</td>
            <td width="80">0008096950</td>
            <td width="130">
				Md. Sagor  Mia<br />cell:             </td>
            <td width="120">Cutter man</td>
            <td width="100">Cutting</td>						
            <td width="100">Cutting</td>
            <td width="100"></td>
            <td width="70">17-02-2015</td>
            <td width="50"><p>02072</p></td>
            <td width="60"><b>8:20 am</b></td>
            <td width="60"><b>00:00</b></td>
            <td width="50" align="center">P</td>
            <td width="40" align="center">0</td>
            <td width="40" align="center">0</td>
            <td width="80">General Shift Staff</td>
            <td></td>	
        </tr>
		        <tr bgcolor="#FFFFFF">
            <td width="30" align="center">49</td>
            <td width="50">0000209</td>
            <td width="80">0004298401</td>
            <td width="130">
				Md. Belal  Bapari<br />cell:             </td>
            <td width="120">Supervisor</td>
            <td width="100">Cutting</td>						
            <td width="100">Cutting</td>
            <td width="100"></td>
            <td width="70">17-02-2015</td>
            <td width="50"><p>02073</p></td>
            <td width="60"><b>8:24 am</b></td>
            <td width="60"><b>00:00</b></td>
            <td width="50" align="center">P</td>
            <td width="40" align="center">0</td>
            <td width="40" align="center">0</td>
            <td width="80">General Shift Staff</td>
            <td></td>	
        </tr>
		        <tr bgcolor="#EEEEEE">
            <td width="30" align="center">50</td>
            <td width="50">0000208</td>
            <td width="80">0004322209</td>
            <td width="130">
				Md. Ismail  Hossain<br />cell: 01818602553            </td>
            <td width="120">Incharge</td>
            <td width="100">Cutting</td>						
            <td width="100">Cutting</td>
            <td width="100"></td>
            <td width="70">17-02-2015</td>
            <td width="50"><p>02074</p></td>
            <td width="60"><b>8:30 am</b></td>
            <td width="60"><b>00:00</b></td>
            <td width="50" align="center">P</td>
            <td width="40" align="center">0</td>
            <td width="40" align="center">0</td>
            <td width="80">General Shift Staff</td>
            <td></td>	
        </tr>
		        <tr bgcolor="#FFFFFF">
            <td width="30" align="center">51</td>
            <td width="50">0000207</td>
            <td width="80">0004318673</td>
            <td width="130">
				Md. Mijanur  Rahman<br />cell:             </td>
            <td width="120">Incharge (Acc. Store)</td>
            <td width="100">Store</td>						
            <td width="100">Store</td>
            <td width="100"></td>
            <td width="70">17-02-2015</td>
            <td width="50"><p>02075</p></td>
            <td width="60"><b>8:28 am</b></td>
            <td width="60"><b>00:00</b></td>
            <td width="50" align="center">P</td>
            <td width="40" align="center">0</td>
            <td width="40" align="center">0</td>
            <td width="80">General Shift Staff</td>
            <td></td>	
        </tr>
		        <tr bgcolor="#EEEEEE">
            <td width="30" align="center">52</td>
            <td width="50">0000221</td>
            <td width="80">0008147608</td>
            <td width="130">
				Md. Anowar   Hossain<br />cell:             </td>
            <td width="120">QC (Knitting)</td>
            <td width="100">Knitting</td>						
            <td width="100">Knitting</td>
            <td width="100"></td>
            <td width="70">17-02-2015</td>
            <td width="50"><p>02076</p></td>
            <td width="60"><b>8:22 am</b></td>
            <td width="60"><b>00:00</b></td>
            <td width="50" align="center">P</td>
            <td width="40" align="center">0</td>
            <td width="40" align="center">0</td>
            <td width="80">General Shift Staff</td>
            <td></td>	
        </tr>
		        <tr bgcolor="#FFFFFF">
            <td width="30" align="center">53</td>
            <td width="50">0000222</td>
            <td width="80">0004318672</td>
            <td width="130">
				Md. Manik  Mollah<br />cell:             </td>
            <td width="120">Iron Man (Sample)</td>
            <td width="100">Sample</td>						
            <td width="100">Sample</td>
            <td width="100"></td>
            <td width="70">17-02-2015</td>
            <td width="50"><p>02077</p></td>
            <td width="60"><b>00:00</b></td>
            <td width="60"><b>00:00</b></td>
            <td width="50" align="center">A</td>
            <td width="40" align="center">0</td>
            <td width="40" align="center">0</td>
            <td width="80">General Shift Staff</td>
            <td></td>	
        </tr>
		        <tr bgcolor="#EEEEEE">
            <td width="30" align="center">54</td>
            <td width="50">0000223</td>
            <td width="80">0004296897</td>
            <td width="130">
				Md. Kabir  Hossain<br />cell:             </td>
            <td width="120">Sample Man</td>
            <td width="100">Sample</td>						
            <td width="100">Sample</td>
            <td width="100"></td>
            <td width="70">17-02-2015</td>
            <td width="50"><p>02078</p></td>
            <td width="60"><b>8:15 am</b></td>
            <td width="60"><b>00:00</b></td>
            <td width="50" align="center">P</td>
            <td width="40" align="center">0</td>
            <td width="40" align="center">0</td>
            <td width="80">General Shift Staff</td>
            <td></td>	
        </tr>
		        <tr bgcolor="#FFFFFF">
            <td width="30" align="center">55</td>
            <td width="50">0000224</td>
            <td width="80">0004769651</td>
            <td width="130">
				Md. Abu Said  <br />cell:             </td>
            <td width="120">Sample Man</td>
            <td width="100">Sample</td>						
            <td width="100">Sample</td>
            <td width="100"></td>
            <td width="70">17-02-2015</td>
            <td width="50"><p>02079</p></td>
            <td width="60"><b>8:14 am</b></td>
            <td width="60"><b>00:00</b></td>
            <td width="50" align="center">P</td>
            <td width="40" align="center">0</td>
            <td width="40" align="center">0</td>
            <td width="80">General Shift Staff</td>
            <td></td>	
        </tr>
		        <tr bgcolor="#EEEEEE">
            <td width="30" align="center">56</td>
            <td width="50">0000228</td>
            <td width="80">0004879917</td>
            <td width="130">
				Md. Faruk   Hossain<br />cell:             </td>
            <td width="120">Sample Man</td>
            <td width="100">Sample</td>						
            <td width="100">Sample</td>
            <td width="100"></td>
            <td width="70">17-02-2015</td>
            <td width="50"><p>02080</p></td>
            <td width="60"><b>8:23 am</b></td>
            <td width="60"><b>00:00</b></td>
            <td width="50" align="center">P</td>
            <td width="40" align="center">0</td>
            <td width="40" align="center">0</td>
            <td width="80">General Shift Staff</td>
            <td></td>	
        </tr>
		        <tr bgcolor="#FFFFFF">
            <td width="30" align="center">57</td>
            <td width="50">0000229</td>
            <td width="80">0008163887</td>
            <td width="130">
				Md. Hira   Khan<br />cell:             </td>
            <td width="120">Sample Man</td>
            <td width="100">Sample</td>						
            <td width="100">Sample</td>
            <td width="100"></td>
            <td width="70">17-02-2015</td>
            <td width="50"><p>02081</p></td>
            <td width="60"><b>8:23 am</b></td>
            <td width="60"><b>00:00</b></td>
            <td width="50" align="center">P</td>
            <td width="40" align="center">0</td>
            <td width="40" align="center">0</td>
            <td width="80">General Shift Staff</td>
            <td></td>	
        </tr>
		        <tr bgcolor="#EEEEEE">
            <td width="30" align="center">58</td>
            <td width="50">0000242</td>
            <td width="80">0008144054</td>
            <td width="130">
				Md. Anisur Rahman  <br />cell:             </td>
            <td width="120">Accountant</td>
            <td width="100">Finance and Accounts</td>						
            <td width="100">Finance and Accounts</td>
            <td width="100"></td>
            <td width="70">17-02-2015</td>
            <td width="50"><p>02093</p></td>
            <td width="60"><b>8:31 am</b></td>
            <td width="60"><b>00:00</b></td>
            <td width="50" align="center">P</td>
            <td width="40" align="center">0</td>
            <td width="40" align="center">0</td>
            <td width="80">General Shift Staff</td>
            <td></td>	
        </tr>
		        <tr bgcolor="#FFFFFF">
            <td width="30" align="center">59</td>
            <td width="50">0000238</td>
            <td width="80">0008166341</td>
            <td width="130">
				Md. Sadek Mia  <br />cell:             </td>
            <td width="120">Incharge</td>
            <td width="100">Sample</td>						
            <td width="100">Sample</td>
            <td width="100"></td>
            <td width="70">17-02-2015</td>
            <td width="50"><p>02094</p></td>
            <td width="60"><b>8:23 am</b></td>
            <td width="60"><b>00:00</b></td>
            <td width="50" align="center">P</td>
            <td width="40" align="center">0</td>
            <td width="40" align="center">0</td>
            <td width="80">General Shift Staff</td>
            <td></td>	
        </tr>
		        <tr bgcolor="#EEEEEE">
            <td width="30" align="center">60</td>
            <td width="50">0000239</td>
            <td width="80">0008099634</td>
            <td width="130">
				Md.Abdur  Razzak<br />cell:             </td>
            <td width="120">Driver</td>
            <td width="100">Admin and HR</td>						
            <td width="100">Admin and HR</td>
            <td width="100"></td>
            <td width="70">17-02-2015</td>
            <td width="50"><p>02095</p></td>
            <td width="60"><b>8:19 am</b></td>
            <td width="60"><b>00:00</b></td>
            <td width="50" align="center">P</td>
            <td width="40" align="center">0</td>
            <td width="40" align="center">0</td>
            <td width="80">General Shift Staff</td>
            <td></td>	
        </tr>
		        <tr bgcolor="#FFFFFF">
            <td width="30" align="center">61</td>
            <td width="50">0000240</td>
            <td width="80">0000267805</td>
            <td width="130">
				Deyen Md. Saidur   Rahman<br />cell:             </td>
            <td width="120">Asst.QC (Knitting)</td>
            <td width="100">Knitting</td>						
            <td width="100">Knitting</td>
            <td width="100"></td>
            <td width="70">17-02-2015</td>
            <td width="50"><p>02096</p></td>
            <td width="60"><b>8:18 am</b></td>
            <td width="60"><b>00:00</b></td>
            <td width="50" align="center">P</td>
            <td width="40" align="center">0</td>
            <td width="40" align="center">0</td>
            <td width="80">General Shift Staff</td>
            <td></td>	
        </tr>
		        <tr bgcolor="#EEEEEE">
            <td width="30" align="center">62</td>
            <td width="50">0000295</td>
            <td width="80">0008146877</td>
            <td width="130">
				Md. Enamul Haque  <br />cell:             </td>
            <td width="120">Store Assistant</td>
            <td width="100">Store</td>						
            <td width="100">Store</td>
            <td width="100"></td>
            <td width="70">17-02-2015</td>
            <td width="50"><p>02099</p></td>
            <td width="60"><b>8:22 am</b></td>
            <td width="60"><b>00:00</b></td>
            <td width="50" align="center">P</td>
            <td width="40" align="center">0</td>
            <td width="40" align="center">0</td>
            <td width="80">General Shift Staff</td>
            <td></td>	
        </tr>
		        <tr bgcolor="#FFFFFF">
            <td width="30" align="center">63</td>
            <td width="50">0000308</td>
            <td width="80">0005223471</td>
            <td width="130">
				Sk. Md. Sahedul  Islam<br />cell:             </td>
            <td width="120">Incharge</td>
            <td width="100">Admin and HR</td>						
            <td width="100">Maintenance-Electrical</td>
            <td width="100"></td>
            <td width="70">17-02-2015</td>
            <td width="50"><p>02100</p></td>
            <td width="60"><b>8:12 am</b></td>
            <td width="60"><b>00:00</b></td>
            <td width="50" align="center">P</td>
            <td width="40" align="center">0</td>
            <td width="40" align="center">0</td>
            <td width="80">General Shift Staff</td>
            <td></td>	
        </tr>
		        <tr bgcolor="#EEEEEE">
            <td width="30" align="center">64</td>
            <td width="50">0000353</td>
            <td width="80">0005233025</td>
            <td width="130">
				Md.Baccu Mia  <br />cell:             </td>
            <td width="120">Driver</td>
            <td width="100">Admin and HR</td>						
            <td width="100">Admin and HR</td>
            <td width="100"></td>
            <td width="70">17-02-2015</td>
            <td width="50"><p>02101</p></td>
            <td width="60"><b>8:34 am</b></td>
            <td width="60"><b>00:00</b></td>
            <td width="50" align="center">P</td>
            <td width="40" align="center">0</td>
            <td width="40" align="center">0</td>
            <td width="80">General Shift Staff</td>
            <td></td>	
        </tr>
		        <tr bgcolor="#FFFFFF">
            <td width="30" align="center">65</td>
            <td width="50">0000327</td>
            <td width="80">0005223448</td>
            <td width="130">
				Md. Johurul Islam Jamal  <br />cell:             </td>
            <td width="120">Ceenten Keeper</td>
            <td width="100">Admin and HR</td>						
            <td width="100">Admin and HR</td>
            <td width="100"></td>
            <td width="70">17-02-2015</td>
            <td width="50"><p>02102</p></td>
            <td width="60"><b>8:26 am</b></td>
            <td width="60"><b>00:00</b></td>
            <td width="50" align="center">P</td>
            <td width="40" align="center">0</td>
            <td width="40" align="center">0</td>
            <td width="80">General Shift Staff</td>
            <td></td>	
        </tr>
		        <tr bgcolor="#EEEEEE">
            <td width="30" align="center">66</td>
            <td width="50">0000316</td>
            <td width="80">0005223475</td>
            <td width="130">
				Rubaiat-E-Sultana  <br />cell:             </td>
            <td width="120">Trainee Merchandiser</td>
            <td width="100">Marketing and Merchandising</td>						
            <td width="100">Merchandising</td>
            <td width="100"></td>
            <td width="70">17-02-2015</td>
            <td width="50"><p>02103</p></td>
            <td width="60"><b>8:54 am</b></td>
            <td width="60"><b>00:00</b></td>
            <td width="50" align="center">D</td>
            <td width="40" align="center">24</td>
            <td width="40" align="center">0</td>
            <td width="80">General Shift Staff</td>
            <td></td>	
        </tr>
		        <tr bgcolor="#FFFFFF">
            <td width="30" align="center">67</td>
            <td width="50">0000325</td>
            <td width="80">0005240970</td>
            <td width="130">
				Md. Sirajul Islam  <br />cell:             </td>
            <td width="120">Fire Safety Officer</td>
            <td width="100">Admin and HR</td>						
            <td width="100">Admin and HR</td>
            <td width="100"></td>
            <td width="70">17-02-2015</td>
            <td width="50"><p>02104</p></td>
            <td width="60"><b>00:00</b></td>
            <td width="60"><b>00:00</b></td>
            <td width="50" align="center">A</td>
            <td width="40" align="center">0</td>
            <td width="40" align="center">0</td>
            <td width="80">General Shift Staff</td>
            <td></td>	
        </tr>
		        <tr bgcolor="#EEEEEE">
            <td width="30" align="center">68</td>
            <td width="50">0000326</td>
            <td width="80">0000485614</td>
            <td width="130">
				Md. Helal Uddin  <br />cell:             </td>
            <td width="120">Boiler Operator</td>
            <td width="100">Admin and HR</td>						
            <td width="100">Maintenance-Mechanical</td>
            <td width="100"></td>
            <td width="70">17-02-2015</td>
            <td width="50"><p>02105</p></td>
            <td width="60"><b>00:00</b></td>
            <td width="60"><b>00:00</b></td>
            <td width="50" align="center">A</td>
            <td width="40" align="center">0</td>
            <td width="40" align="center">0</td>
            <td width="80">General Shift Staff</td>
            <td></td>	
        </tr>
		        <tr bgcolor="#FFFFFF">
            <td width="30" align="center">69</td>
            <td width="50">0000358</td>
            <td width="80">0005215927</td>
            <td width="130">
				Sudhir Chandra Sarker (Sosuil)  <br />cell:             </td>
            <td width="120">Incharge (Dyeing)</td>
            <td width="100">Dyeing</td>						
            <td width="100">Dyeing</td>
            <td width="100"></td>
            <td width="70">17-02-2015</td>
            <td width="50"><p>02121</p></td>
            <td width="60"><b>8:18 am</b></td>
            <td width="60"><b>00:00</b></td>
            <td width="50" align="center">P</td>
            <td width="40" align="center">0</td>
            <td width="40" align="center">0</td>
            <td width="80">General Shift Staff</td>
            <td></td>	
        </tr>
		        <tr bgcolor="#EEEEEE">
            <td width="30" align="center">70</td>
            <td width="50">0000394</td>
            <td width="80">0005233019</td>
            <td width="130">
				Md. Abu Sufian  <br />cell:             </td>
            <td width="120">Manager</td>
            <td width="100">Quality</td>						
            <td width="100">Quality</td>
            <td width="100"></td>
            <td width="70">17-02-2015</td>
            <td width="50"><p>02122</p></td>
            <td width="60"><b>8:52 am</b></td>
            <td width="60"><b>00:00</b></td>
            <td width="50" align="center">D</td>
            <td width="40" align="center">22</td>
            <td width="40" align="center">0</td>
            <td width="80">General Shift Staff</td>
            <td></td>	
        </tr>
		        <tr bgcolor="#FFFFFF">
            <td width="30" align="center">71</td>
            <td width="50">0000395</td>
            <td width="80">0005240686</td>
            <td width="130">
				Md. Abdus Salam  <br />cell:             </td>
            <td width="120">Supervisor</td>
            <td width="100">Sewing</td>						
            <td width="100">Sewing</td>
            <td width="100"></td>
            <td width="70">17-02-2015</td>
            <td width="50"><p>02123</p></td>
            <td width="60"><b>8:13 am</b></td>
            <td width="60"><b>00:00</b></td>
            <td width="50" align="center">P</td>
            <td width="40" align="center">0</td>
            <td width="40" align="center">0</td>
            <td width="80">General Shift Staff</td>
            <td></td>	
        </tr>
		        <tr bgcolor="#EEEEEE">
            <td width="30" align="center">72</td>
            <td width="50">0000132</td>
            <td width="80">0004322257</td>
            <td width="130">
				Md. Moin Hossen  <br />cell:             </td>
            <td width="120">QC (Dyeing)</td>
            <td width="100">Dyeing</td>						
            <td width="100">Dyeing</td>
            <td width="100"></td>
            <td width="70">17-02-2015</td>
            <td width="50"><p>02124</p></td>
            <td width="60"><b>8:29 am</b></td>
            <td width="60"><b>00:00</b></td>
            <td width="50" align="center">P</td>
            <td width="40" align="center">0</td>
            <td width="40" align="center">0</td>
            <td width="80">General Shift Staff</td>
            <td></td>	
        </tr>
		        <tr bgcolor="#FFFFFF">
            <td width="30" align="center">73</td>
            <td width="50">0000416</td>
            <td width="80">0005233055</td>
            <td width="130">
				Md. Rubel Hasan  <br />cell:             </td>
            <td width="120">Sample Man</td>
            <td width="100">Sample</td>						
            <td width="100">Sample</td>
            <td width="100"></td>
            <td width="70">17-02-2015</td>
            <td width="50"><p>02126</p></td>
            <td width="60"><b>8:21 am</b></td>
            <td width="60"><b>00:00</b></td>
            <td width="50" align="center">P</td>
            <td width="40" align="center">0</td>
            <td width="40" align="center">0</td>
            <td width="80">General Shift Staff</td>
            <td></td>	
        </tr>
		        <tr bgcolor="#EEEEEE">
            <td width="30" align="center">74</td>
            <td width="50">0000418</td>
            <td width="80">0005233070</td>
            <td width="130">
				Md. Arif  <br />cell:             </td>
            <td width="120">Mechanic</td>
            <td width="100">Sewing</td>						
            <td width="100">Maintenance-Mechanical</td>
            <td width="100"></td>
            <td width="70">17-02-2015</td>
            <td width="50"><p>02127</p></td>
            <td width="60"><b>8:25 am</b></td>
            <td width="60"><b>00:00</b></td>
            <td width="50" align="center">P</td>
            <td width="40" align="center">0</td>
            <td width="40" align="center">0</td>
            <td width="80">General Shift Staff</td>
            <td></td>	
        </tr>
		        <tr bgcolor="#FFFFFF">
            <td width="30" align="center">75</td>
            <td width="50">0000425</td>
            <td width="80">0005233017</td>
            <td width="130">
				Md. Mizanur Rahman  <br />cell:             </td>
            <td width="120">Accountant</td>
            <td width="100">Finance and Accounts</td>						
            <td width="100">Finance and Accounts</td>
            <td width="100"></td>
            <td width="70">17-02-2015</td>
            <td width="50"><p>02128</p></td>
            <td width="60"><b>8:24 am</b></td>
            <td width="60"><b>00:00</b></td>
            <td width="50" align="center">P</td>
            <td width="40" align="center">0</td>
            <td width="40" align="center">0</td>
            <td width="80">General Shift Staff</td>
            <td></td>	
        </tr>
		        <tr bgcolor="#EEEEEE">
            <td width="30" align="center">76</td>
            <td width="50">0000429</td>
            <td width="80">0005233022</td>
            <td width="130">
				Urmi Akter  <br />cell:             </td>
            <td width="120">Computer Operator</td>
            <td width="100">Sewing</td>						
            <td width="100">Sewing</td>
            <td width="100"></td>
            <td width="70">17-02-2015</td>
            <td width="50"><p>02129</p></td>
            <td width="60"><b>8:25 am</b></td>
            <td width="60"><b>00:00</b></td>
            <td width="50" align="center">P</td>
            <td width="40" align="center">0</td>
            <td width="40" align="center">0</td>
            <td width="80">General Shift Staff</td>
            <td></td>	
        </tr>
		        <tr bgcolor="#FFFFFF">
            <td width="30" align="center">77</td>
            <td width="50">0000431</td>
            <td width="80">0005233077</td>
            <td width="130">
				Md. Shakil Sarker  <br />cell:             </td>
            <td width="120">Asst. Mechanic</td>
            <td width="100">Sewing</td>						
            <td width="100">Maintenance-Mechanical</td>
            <td width="100"></td>
            <td width="70">17-02-2015</td>
            <td width="50"><p>02130</p></td>
            <td width="60"><b>8:26 am</b></td>
            <td width="60"><b>00:00</b></td>
            <td width="50" align="center">P</td>
            <td width="40" align="center">0</td>
            <td width="40" align="center">0</td>
            <td width="80">General Shift Staff</td>
            <td></td>	
        </tr>
		        <tr  bgcolor="#CCCCCC" style="font-weight:bold">
            <td  colspan="14">&nbsp;Grand Total</td>
            <td width='' align='right'> 0.00</td>
            <td>&nbsp;</td>
            <td>&nbsp;</td>							
            </tr> 
            </table> <tfoot>
        <tr>
            <td colspan="17" align="center"><table width="1260px">
		<tr height="130" style="font-size:24px; font-family:Arial; font-weight:bold">
		 </tr></table></td>
        </tr>
</tfoot>
<!--</div>-->
</div>

</div>
<p></p>
    
	<table width="1000" border="1" class="rpt_table" rules="all">
		  <tr bgcolor="#F0F0B8">
				<td colspan="17" align="center" height=50><b>Summary</b></td>
		  </tr>
		  <tr>				
				<td colspan="3" align="left" bgcolor="#E5E5E5" height="50" ><b>Present :</b> 65 </td>								  	
				<td colspan="3"  align="left" bgcolor="#FFFFFF"><b>Absent :</b><a href='#' onclick="openmypage('popup_punch_report.php?emp_code=0000077,0000159,0000161,0000231,0000222,0000325,0000326&date=2015-02-17','Absent Information'); return false">7</a> </td>				  			  	
				<td colspan="3"  align="left" bgcolor="#E5E5E5"><b>Leave :</b> <a href='#' onclick="openmypage('popup_punch_report.php?emp_code=&date=2015-02-17','Leave Information'); return false">0</a> </td>				  				   
				<td colspan="2"  align="left" bgcolor="#FFFFFF"><b>Movement :</b><a href='#' onclick="openmypage('popup_punch_report.php?emp_code=&date=2015-02-17','Movement Information'); return false">0 </a> </td>				  			    
				<td colspan="2"  align="left" bgcolor="#E5E5E5"><b>Late :</b><a href='#' onclick="openmypage('popup_punch_report.php?emp_code=0000112,0000184,0000218,0000316,0000394&date=2015-02-17','Late Information'); return false">5 </a></td>
                <td colspan="2"  align="left" bgcolor="#E5E5E5"><b>Weekend :</b><a href='#' onclick="openmypage('popup_punch_report.php?emp_code=&date=2015-02-17','Weekend Information'); return false">0 </a></td>				  			    
				<td colspan="2"  align="left" bgcolor="#FFFFFF"><b>Total :</b> 77 </td>					
		  </tr>
	</table> 
    
               	   	
        

</div>