<div>	<style type="text/css" media="print">
    p{ page-break-after: always;}
    </style>	
    <!--<div style=" border:1px solid #7F7FFF; width:1300px;">-->
	<table width="1280" cellpadding="0" cellspacing="0" border="1" style="font-size:11px;font-family:Arial" class="rpt_table" rules="all">
        <tr>
            <td colspan="17" align="center" style="border:hidden"><font size="+1">
                Peak Apparels Ltd.</font><br />
                <br />
                <font size="+0"> Daily Punch Report On 17-03-2015</font><br />
            </td>
        </tr>
    </table>
       	<!--<div style="width:1700px;margin-top:15px;" class="page" align="center">-->
    <div style="width:1300px;">
    <table cellpadding="0" cellspacing="0" border="1" class="rpt_table" style="font-size:10px;" width="1280" rules="all" align="left">
        <thead>
            <tr>
                <th width="30"><b>SL</b></th>
                <th width="50"><b>Emp Code</b></th>
                <th width="80"><b>Punch Card</b></th>
                <th width="130"><b>Name</b></th>
                <th width="120"><b>Designation</b></th>
                <th width="100"><b>Department</b></th>
                <th width="100"><b>Section</b></th>
                <th width="100"><b>Sub Section</b></th>
                <th width="70"><b>Attnd. Date</b></th>
                <th width="50"><b>ID Card</b></th>
                <th width="60"><b>In Time</b></th>
                <th width="60"><b>Out Time</b></th>
                <th width="50"><b>Status</b></th>
                <th width="40"><b>Late Min</b></th>
                <th width="40"><b>OT</b></th>
                <th width="80"><b>Shift Name</b></th>
                <th><b>Remarks</b></th>
            </tr>
    	</thead>
    </table>
    </div>
        <div style="width:1300px; overflow-y:scroll;" id="scroll_body">
    <table cellpadding="0" cellspacing="0" border="1" class="rpt_table" style="font-size:10px;" width="1280" rules="all" id="table_body" align="left">
	        <tr bgcolor="#FFFFFF">
            <td width="30" align="center">1</td>
            <td width="50">0000021</td>
            <td width="80">0004298382</td>
            <td width="130">
				Mst. Morzina  Begum<br />cell:             </td>
            <td width="120">Jr. S.M Operator</td>
            <td width="100">Sewing</td>						
            <td width="100">Sewing</td>
            <td width="100">Line-5</td>
            <td width="70">17-03-2015</td>
            <td width="50"><p>00015</p></td>
            <td width="60"><b>00:00</b></td>
            <td width="60"><b>00:00</b></td>
            <td width="50" align="center">A</td>
            <td width="40" align="center">0</td>
            <td width="40" align="center">0</td>
            <td width="80">General Shift Worker</td>
            <td></td>	
        </tr>
		        <tr bgcolor="#EEEEEE">
            <td width="30" align="center">2</td>
            <td width="50">0000012</td>
            <td width="80">0004298380</td>
            <td width="130">
				Mst. Shajeda  <br />cell: 01967980321            </td>
            <td width="120">S.M Operator</td>
            <td width="100">Sewing</td>						
            <td width="100">Sewing</td>
            <td width="100">Line-1</td>
            <td width="70">17-03-2015</td>
            <td width="50"><p>00019</p></td>
            <td width="60"><b>00:00</b></td>
            <td width="60"><b>00:00</b></td>
            <td width="50" align="center">A</td>
            <td width="40" align="center">0</td>
            <td width="40" align="center">0</td>
            <td width="80">General Shift Worker</td>
            <td></td>	
        </tr>
		        <tr bgcolor="#FFFFFF">
            <td width="30" align="center">3</td>
            <td width="50">0000056</td>
            <td width="80">0004322256</td>
            <td width="130">
				Mst. Sahanaj  Begum<br />cell: 01937089975            </td>
            <td width="120">S.M Operator</td>
            <td width="100">Sewing</td>						
            <td width="100">Sewing</td>
            <td width="100">Line-1</td>
            <td width="70">17-03-2015</td>
            <td width="50"><p>00024</p></td>
            <td width="60"><b>00:00</b></td>
            <td width="60"><b>00:00</b></td>
            <td width="50" align="center">A</td>
            <td width="40" align="center">0</td>
            <td width="40" align="center">0</td>
            <td width="80">General Shift Worker</td>
            <td></td>	
        </tr>
		        <tr bgcolor="#EEEEEE">
            <td width="30" align="center">4</td>
            <td width="50">0000047</td>
            <td width="80">0004308475</td>
            <td width="130">
				Mst. Najmin   Akter<br />cell: 01738889413            </td>
            <td width="120">S.M Operator</td>
            <td width="100">Sewing</td>						
            <td width="100">Sewing</td>
            <td width="100">Line-5</td>
            <td width="70">17-03-2015</td>
            <td width="50"><p>00032</p></td>
            <td width="60"><b>00:00</b></td>
            <td width="60"><b>00:00</b></td>
            <td width="50" align="center">A</td>
            <td width="40" align="center">0</td>
            <td width="40" align="center">0</td>
            <td width="80">General Shift Worker</td>
            <td></td>	
        </tr>
		        <tr bgcolor="#FFFFFF">
            <td width="30" align="center">5</td>
            <td width="50">0000189</td>
            <td width="80">0014477274</td>
            <td width="130">
				Taslima Akter  <br />cell:             </td>
            <td width="120">Gen. S.M Operator</td>
            <td width="100">Sewing</td>						
            <td width="100">Sewing</td>
            <td width="100">Line-5</td>
            <td width="70">17-03-2015</td>
            <td width="50"><p>00052</p></td>
            <td width="60"><b>00:00</b></td>
            <td width="60"><b>00:00</b></td>
            <td width="50" align="center">A</td>
            <td width="40" align="center">0</td>
            <td width="40" align="center">0</td>
            <td width="80">General Shift Worker</td>
            <td></td>	
        </tr>
		        <tr bgcolor="#EEEEEE">
            <td width="30" align="center">6</td>
            <td width="50">0000185</td>
            <td width="80">0004296773</td>
            <td width="130">
				Mst. Shikha  <br />cell: 01937129495            </td>
            <td width="120">Gen. S.M Operator</td>
            <td width="100">Sewing</td>						
            <td width="100">Sewing</td>
            <td width="100">Line-1</td>
            <td width="70">17-03-2015</td>
            <td width="50"><p>00059</p></td>
            <td width="60"><b>00:00</b></td>
            <td width="60"><b>00:00</b></td>
            <td width="50" align="center">A</td>
            <td width="40" align="center">0</td>
            <td width="40" align="center">0</td>
            <td width="80">General Shift Worker</td>
            <td></td>	
        </tr>
		        <tr bgcolor="#FFFFFF">
            <td width="30" align="center">7</td>
            <td width="50">0000123</td>
            <td width="80">0004310105</td>
            <td width="130">
				Md. Akas  <br />cell:             </td>
            <td width="120">Line Iron Man</td>
            <td width="100">Sewing</td>						
            <td width="100">Sewing</td>
            <td width="100"></td>
            <td width="70">17-03-2015</td>
            <td width="50"><p>00078</p></td>
            <td width="60"><b>00:00</b></td>
            <td width="60"><b>00:00</b></td>
            <td width="50" align="center">A</td>
            <td width="40" align="center">0</td>
            <td width="40" align="center">0</td>
            <td width="80">General Shift Worker</td>
            <td></td>	
        </tr>
		        <tr bgcolor="#EEEEEE">
            <td width="30" align="center">8</td>
            <td width="50">0000125</td>
            <td width="80">0004322161</td>
            <td width="130">
				Md. Alim  <br />cell:             </td>
            <td width="120">Gen. S.M Operator</td>
            <td width="100">Sewing</td>						
            <td width="100">Sewing</td>
            <td width="100">Line-1</td>
            <td width="70">17-03-2015</td>
            <td width="50"><p>00087</p></td>
            <td width="60"><b>00:00</b></td>
            <td width="60"><b>00:00</b></td>
            <td width="50" align="center">A</td>
            <td width="40" align="center">0</td>
            <td width="40" align="center">0</td>
            <td width="80">General Shift Worker</td>
            <td></td>	
        </tr>
		        <tr bgcolor="#FFFFFF">
            <td width="30" align="center">9</td>
            <td width="50">0000142</td>
            <td width="80">0003567219</td>
            <td width="130">
				Mst.Lavly   Begum<br />cell:             </td>
            <td width="120">Gen. S.M Operator</td>
            <td width="100">Sewing</td>						
            <td width="100">Sewing</td>
            <td width="100">Line-3</td>
            <td width="70">17-03-2015</td>
            <td width="50"><p>00095</p></td>
            <td width="60"><b>00:00</b></td>
            <td width="60"><b>00:00</b></td>
            <td width="50" align="center">A</td>
            <td width="40" align="center">0</td>
            <td width="40" align="center">0</td>
            <td width="80">General Shift Worker</td>
            <td></td>	
        </tr>
		        <tr bgcolor="#EEEEEE">
            <td width="30" align="center">10</td>
            <td width="50">0000282</td>
            <td width="80">0015138510</td>
            <td width="130">
				Mst. Sweety  Akter<br />cell:             </td>
            <td width="120">Gen. S.M Operator</td>
            <td width="100">Sewing</td>						
            <td width="100">Sewing</td>
            <td width="100">Line-5</td>
            <td width="70">17-03-2015</td>
            <td width="50"><p>00125</p></td>
            <td width="60"><b>00:00</b></td>
            <td width="60"><b>00:00</b></td>
            <td width="50" align="center">A</td>
            <td width="40" align="center">0</td>
            <td width="40" align="center">0</td>
            <td width="80">General Shift Worker</td>
            <td></td>	
        </tr>
		        <tr bgcolor="#FFFFFF">
            <td width="30" align="center">11</td>
            <td width="50">0000103</td>
            <td width="80">0004318680</td>
            <td width="130">
				Masuda  Khatun<br />cell:             </td>
            <td width="120">A.S.M. Operator</td>
            <td width="100">Sewing</td>						
            <td width="100">Sewing</td>
            <td width="100"></td>
            <td width="70">17-03-2015</td>
            <td width="50"><p>00134</p></td>
            <td width="60"><b>00:00</b></td>
            <td width="60"><b>00:00</b></td>
            <td width="50" align="center">A</td>
            <td width="40" align="center">0</td>
            <td width="40" align="center">0</td>
            <td width="80">General Shift Worker</td>
            <td></td>	
        </tr>
		        <tr bgcolor="#EEEEEE">
            <td width="30" align="center">12</td>
            <td width="50">0000284</td>
            <td width="80">0011388355</td>
            <td width="130">
				Md.Rajib  <br />cell:             </td>
            <td width="120">Jr. S.M Operator</td>
            <td width="100">Sewing</td>						
            <td width="100">Sewing</td>
            <td width="100">Line-3</td>
            <td width="70">17-03-2015</td>
            <td width="50"><p>00137</p></td>
            <td width="60"><b>00:00</b></td>
            <td width="60"><b>00:00</b></td>
            <td width="50" align="center">A</td>
            <td width="40" align="center">0</td>
            <td width="40" align="center">0</td>
            <td width="80">General Shift Worker</td>
            <td></td>	
        </tr>
		        <tr bgcolor="#FFFFFF">
            <td width="30" align="center">13</td>
            <td width="50">0000286</td>
            <td width="80">0000272603</td>
            <td width="130">
				Md. Shamim  <br />cell:             </td>
            <td width="120">S.M Operator</td>
            <td width="100">Sewing</td>						
            <td width="100">Sewing</td>
            <td width="100">Line-3</td>
            <td width="70">17-03-2015</td>
            <td width="50"><p>00140</p></td>
            <td width="60"><b>00:00</b></td>
            <td width="60"><b>00:00</b></td>
            <td width="50" align="center">A</td>
            <td width="40" align="center">0</td>
            <td width="40" align="center">0</td>
            <td width="80">General Shift Worker</td>
            <td></td>	
        </tr>
		        <tr bgcolor="#EEEEEE">
            <td width="30" align="center">14</td>
            <td width="50">0000269</td>
            <td width="80">0004308478</td>
            <td width="130">
				Mst. Sheuly  <br />cell:             </td>
            <td width="120">S.M Operator</td>
            <td width="100">Sewing</td>						
            <td width="100">Sewing</td>
            <td width="100">Line-5</td>
            <td width="70">17-03-2015</td>
            <td width="50"><p>00144</p></td>
            <td width="60"><b>00:00</b></td>
            <td width="60"><b>00:00</b></td>
            <td width="50" align="center">A</td>
            <td width="40" align="center">0</td>
            <td width="40" align="center">0</td>
            <td width="80">General Shift Worker</td>
            <td></td>	
        </tr>
		        <tr bgcolor="#FFFFFF">
            <td width="30" align="center">15</td>
            <td width="50">0000331</td>
            <td width="80">0005233056</td>
            <td width="130">
				Mst. Chadni Islam  <br />cell:             </td>
            <td width="120">S.M Operator</td>
            <td width="100">Sewing</td>						
            <td width="100">Sewing</td>
            <td width="100">Line-5</td>
            <td width="70">17-03-2015</td>
            <td width="50"><p>00147</p></td>
            <td width="60"><b>00:00</b></td>
            <td width="60"><b>00:00</b></td>
            <td width="50" align="center">A</td>
            <td width="40" align="center">0</td>
            <td width="40" align="center">0</td>
            <td width="80">General Shift Worker</td>
            <td></td>	
        </tr>
		        <tr bgcolor="#EEEEEE">
            <td width="30" align="center">16</td>
            <td width="50">0000346</td>
            <td width="80">0005233986</td>
            <td width="130">
				Jahid Hasan  <br />cell:             </td>
            <td width="120">Jr. S.M Operator</td>
            <td width="100">Sewing</td>						
            <td width="100">Sewing</td>
            <td width="100">Line-3</td>
            <td width="70">17-03-2015</td>
            <td width="50"><p>00152</p></td>
            <td width="60"><b>00:00</b></td>
            <td width="60"><b>00:00</b></td>
            <td width="50" align="center">A</td>
            <td width="40" align="center">0</td>
            <td width="40" align="center">0</td>
            <td width="80">General Shift Worker</td>
            <td></td>	
        </tr>
		        <tr bgcolor="#FFFFFF">
            <td width="30" align="center">17</td>
            <td width="50">0000372</td>
            <td width="80">0005232711</td>
            <td width="130">
				Mst. Salma Khatun  <br />cell:             </td>
            <td width="120">Jr. S.M Operator</td>
            <td width="100">Sewing</td>						
            <td width="100">Sewing</td>
            <td width="100"></td>
            <td width="70">17-03-2015</td>
            <td width="50"><p>00162</p></td>
            <td width="60"><b>00:00</b></td>
            <td width="60"><b>00:00</b></td>
            <td width="50" align="center">A</td>
            <td width="40" align="center">0</td>
            <td width="40" align="center">0</td>
            <td width="80">General Shift Worker</td>
            <td></td>	
        </tr>
		        <tr bgcolor="#EEEEEE">
            <td width="30" align="center">18</td>
            <td width="50">0000373</td>
            <td width="80">0005221891</td>
            <td width="130">
				Md. Uzzal Mia  <br />cell:             </td>
            <td width="120">S.M Operator</td>
            <td width="100">Sewing</td>						
            <td width="100">Sewing</td>
            <td width="100"></td>
            <td width="70">17-03-2015</td>
            <td width="50"><p>00163</p></td>
            <td width="60"><b>00:00</b></td>
            <td width="60"><b>00:00</b></td>
            <td width="50" align="center">A</td>
            <td width="40" align="center">0</td>
            <td width="40" align="center">0</td>
            <td width="80">General Shift Worker</td>
            <td></td>	
        </tr>
		        <tr bgcolor="#FFFFFF">
            <td width="30" align="center">19</td>
            <td width="50">0000085</td>
            <td width="80">0004296913</td>
            <td width="130">
				Mst. Jhinuk  Akter<br />cell:             </td>
            <td width="120">A.S.M. Operator</td>
            <td width="100">Sewing</td>						
            <td width="100">Sewing</td>
            <td width="100">Line-1</td>
            <td width="70">17-03-2015</td>
            <td width="50"><p>00415</p></td>
            <td width="60"><b>00:00</b></td>
            <td width="60"><b>00:00</b></td>
            <td width="50" align="center">A</td>
            <td width="40" align="center">0</td>
            <td width="40" align="center">0</td>
            <td width="80">General Shift Worker</td>
            <td></td>	
        </tr>
		        <tr bgcolor="#EEEEEE">
            <td width="30" align="center">20</td>
            <td width="50">0000307</td>
            <td width="80">0008094212</td>
            <td width="130">
				Mst.Jahanara Begum  <br />cell:             </td>
            <td width="120">A.S.M. Operator</td>
            <td width="100">Sewing</td>						
            <td width="100">Sewing</td>
            <td width="100">Line-5</td>
            <td width="70">17-03-2015</td>
            <td width="50"><p>00416</p></td>
            <td width="60"><b>00:00</b></td>
            <td width="60"><b>00:00</b></td>
            <td width="50" align="center">A</td>
            <td width="40" align="center">0</td>
            <td width="40" align="center">0</td>
            <td width="80">General Shift Worker</td>
            <td></td>	
        </tr>
		        <tr bgcolor="#FFFFFF">
            <td width="30" align="center">21</td>
            <td width="50">0000110</td>
            <td width="80">0004317862</td>
            <td width="130">
				Mst. Fenshi  <br />cell:             </td>
            <td width="120">A.S.M. Operator</td>
            <td width="100">Sewing</td>						
            <td width="100">Sewing</td>
            <td width="100">Line-5</td>
            <td width="70">17-03-2015</td>
            <td width="50"><p>00419</p></td>
            <td width="60"><b>00:00</b></td>
            <td width="60"><b>00:00</b></td>
            <td width="50" align="center">A</td>
            <td width="40" align="center">0</td>
            <td width="40" align="center">0</td>
            <td width="80">General Shift Worker</td>
            <td></td>	
        </tr>
		        <tr bgcolor="#EEEEEE">
            <td width="30" align="center">22</td>
            <td width="50">0000335</td>
            <td width="80">0005233031</td>
            <td width="130">
				Mst. Alufa Khatun  <br />cell:             </td>
            <td width="120">A.S.M. Operator</td>
            <td width="100">Sewing</td>						
            <td width="100">Sewing</td>
            <td width="100">Line-5</td>
            <td width="70">17-03-2015</td>
            <td width="50"><p>00439</p></td>
            <td width="60"><b>00:00</b></td>
            <td width="60"><b>00:00</b></td>
            <td width="50" align="center">A</td>
            <td width="40" align="center">0</td>
            <td width="40" align="center">0</td>
            <td width="80">General Shift Worker</td>
            <td></td>	
        </tr>
		        <tr bgcolor="#FFFFFF">
            <td width="30" align="center">23</td>
            <td width="50">0000274</td>
            <td width="80">0004310107</td>
            <td width="130">
				Pankaj Kumar  Mohonto<br />cell:             </td>
            <td width="120">Quality Inspector</td>
            <td width="100">Quality</td>						
            <td width="100">Quality</td>
            <td width="100"></td>
            <td width="70">17-03-2015</td>
            <td width="50"><p>00720</p></td>
            <td width="60"><b>00:00</b></td>
            <td width="60"><b>00:00</b></td>
            <td width="50" align="center">A</td>
            <td width="40" align="center">0</td>
            <td width="40" align="center">0</td>
            <td width="80">General Shift Worker</td>
            <td></td>	
        </tr>
		        <tr bgcolor="#EEEEEE">
            <td width="30" align="center">24</td>
            <td width="50">0000343</td>
            <td width="80">0005234881</td>
            <td width="130">
				Mohsina Begum  <br />cell:             </td>
            <td width="120">Quality Inspector</td>
            <td width="100">Quality</td>						
            <td width="100">Quality</td>
            <td width="100"></td>
            <td width="70">17-03-2015</td>
            <td width="50"><p>00724</p></td>
            <td width="60"><b>00:00</b></td>
            <td width="60"><b>00:00</b></td>
            <td width="50" align="center">A</td>
            <td width="40" align="center">0</td>
            <td width="40" align="center">0</td>
            <td width="80">General Shift Worker</td>
            <td></td>	
        </tr>
		        <tr bgcolor="#FFFFFF">
            <td width="30" align="center">25</td>
            <td width="50">0000354</td>
            <td width="80">0005221906</td>
            <td width="130">
				Md.Abdul Gaffar  <br />cell:             </td>
            <td width="120">Quality Inspector</td>
            <td width="100">Quality</td>						
            <td width="100">Quality</td>
            <td width="100"></td>
            <td width="70">17-03-2015</td>
            <td width="50"><p>00725</p></td>
            <td width="60"><b>00:00</b></td>
            <td width="60"><b>00:00</b></td>
            <td width="50" align="center">A</td>
            <td width="40" align="center">0</td>
            <td width="40" align="center">0</td>
            <td width="80">General Shift Worker</td>
            <td></td>	
        </tr>
		        <tr bgcolor="#EEEEEE">
            <td width="30" align="center">26</td>
            <td width="50">0000248</td>
            <td width="80">0000100792</td>
            <td width="130">
				Md.Alam   Mia<br />cell:             </td>
            <td width="120">Asst.Cutting</td>
            <td width="100">Cutting</td>						
            <td width="100">Cutting</td>
            <td width="100"></td>
            <td width="70">17-03-2015</td>
            <td width="50"><p>00906</p></td>
            <td width="60"><b>00:00</b></td>
            <td width="60"><b>00:00</b></td>
            <td width="50" align="center">A</td>
            <td width="40" align="center">0</td>
            <td width="40" align="center">0</td>
            <td width="80">General Shift Worker</td>
            <td></td>	
        </tr>
		        <tr bgcolor="#FFFFFF">
            <td width="30" align="center">27</td>
            <td width="50">0000237</td>
            <td width="80">0008106972</td>
            <td width="130">
				Md. Sobhan  <br />cell:             </td>
            <td width="120">Sticker Man</td>
            <td width="100">Cutting</td>						
            <td width="100">Cutting</td>
            <td width="100"></td>
            <td width="70">17-03-2015</td>
            <td width="50"><p>00907</p></td>
            <td width="60"><b>00:00</b></td>
            <td width="60"><b>00:00</b></td>
            <td width="50" align="center">A</td>
            <td width="40" align="center">0</td>
            <td width="40" align="center">0</td>
            <td width="80">General Shift Worker</td>
            <td></td>	
        </tr>
		        <tr bgcolor="#EEEEEE">
            <td width="30" align="center">28</td>
            <td width="50">0000256</td>
            <td width="80">0011409822</td>
            <td width="130">
				Md.Abdul  Gaffar<br />cell:             </td>
            <td width="120">Scissor Man</td>
            <td width="100">Cutting</td>						
            <td width="100">Cutting</td>
            <td width="100"></td>
            <td width="70">17-03-2015</td>
            <td width="50"><p>00911</p></td>
            <td width="60"><b>00:00</b></td>
            <td width="60"><b>00:00</b></td>
            <td width="50" align="center">A</td>
            <td width="40" align="center">0</td>
            <td width="40" align="center">0</td>
            <td width="80">General Shift Worker</td>
            <td></td>	
        </tr>
		        <tr bgcolor="#FFFFFF">
            <td width="30" align="center">29</td>
            <td width="50">0000235</td>
            <td width="80">0008108720</td>
            <td width="130">
				Md. Mizanur   Rahman<br />cell:             </td>
            <td width="120">Quality Inspector</td>
            <td width="100">Cutting</td>						
            <td width="100">Quality</td>
            <td width="100"></td>
            <td width="70">17-03-2015</td>
            <td width="50"><p>00928</p></td>
            <td width="60"><b>00:00</b></td>
            <td width="60"><b>00:00</b></td>
            <td width="50" align="center">A</td>
            <td width="40" align="center">0</td>
            <td width="40" align="center">0</td>
            <td width="80">General Shift Worker</td>
            <td></td>	
        </tr>
		        <tr bgcolor="#EEEEEE">
            <td width="30" align="center">30</td>
            <td width="50">0000386</td>
            <td width="80">0005240690</td>
            <td width="130">
				Md. Salim Mia  <br />cell:             </td>
            <td width="120">Jr. Cutter</td>
            <td width="100">Cutting</td>						
            <td width="100">Cutting</td>
            <td width="100"></td>
            <td width="70">17-03-2015</td>
            <td width="50"><p>00941</p></td>
            <td width="60"><b>00:00</b></td>
            <td width="60"><b>00:00</b></td>
            <td width="50" align="center">A</td>
            <td width="40" align="center">0</td>
            <td width="40" align="center">0</td>
            <td width="80">General Shift Worker</td>
            <td></td>	
        </tr>
		        <tr bgcolor="#FFFFFF">
            <td width="30" align="center">31</td>
            <td width="50">0000396</td>
            <td width="80">0005230765</td>
            <td width="130">
				Md. Badsha Alamgir  <br />cell:             </td>
            <td width="120">Security Guard</td>
            <td width="100">Admin and HR</td>						
            <td width="100">Security</td>
            <td width="100"></td>
            <td width="70">17-03-2015</td>
            <td width="50"><p>01106</p></td>
            <td width="60"><b>00:00</b></td>
            <td width="60"><b>00:00</b></td>
            <td width="50" align="center">A</td>
            <td width="40" align="center">0</td>
            <td width="40" align="center">0</td>
            <td width="80">General Shift Worker</td>
            <td></td>	
        </tr>
		        <tr bgcolor="#EEEEEE">
            <td width="30" align="center">32</td>
            <td width="50">0000397</td>
            <td width="80">0005221886</td>
            <td width="130">
				Md. Mizanur Rahman  <br />cell:             </td>
            <td width="120">Security Guard</td>
            <td width="100">Admin and HR</td>						
            <td width="100">Security</td>
            <td width="100"></td>
            <td width="70">17-03-2015</td>
            <td width="50"><p>01107</p></td>
            <td width="60"><b>00:00</b></td>
            <td width="60"><b>00:00</b></td>
            <td width="50" align="center">A</td>
            <td width="40" align="center">0</td>
            <td width="40" align="center">0</td>
            <td width="80">General Shift Worker</td>
            <td></td>	
        </tr>
		        <tr bgcolor="#FFFFFF">
            <td width="30" align="center">33</td>
            <td width="50">0000430</td>
            <td width="80">0005230760</td>
            <td width="130">
				Delwar Hossain  <br />cell:             </td>
            <td width="120">Security Guard</td>
            <td width="100">Admin and HR</td>						
            <td width="100">Security</td>
            <td width="100"></td>
            <td width="70">17-03-2015</td>
            <td width="50"><p>01108</p></td>
            <td width="60"><b>00:00</b></td>
            <td width="60"><b>00:00</b></td>
            <td width="50" align="center">A</td>
            <td width="40" align="center">0</td>
            <td width="40" align="center">0</td>
            <td width="80">General Shift Worker</td>
            <td></td>	
        </tr>
		        <tr bgcolor="#EEEEEE">
            <td width="30" align="center">34</td>
            <td width="50">0000298</td>
            <td width="80">0008154272</td>
            <td width="130">
				Md. Aminur Islam  <br />cell:             </td>
            <td width="120">Jr. Packer</td>
            <td width="100">Finishing</td>						
            <td width="100">Finishing</td>
            <td width="100"></td>
            <td width="70">17-03-2015</td>
            <td width="50"><p>01504</p></td>
            <td width="60"><b>00:00</b></td>
            <td width="60"><b>00:00</b></td>
            <td width="50" align="center">A</td>
            <td width="40" align="center">0</td>
            <td width="40" align="center">0</td>
            <td width="80">General Shift Worker</td>
            <td></td>	
        </tr>
		        <tr bgcolor="#FFFFFF">
            <td width="30" align="center">35</td>
            <td width="50">0000151</td>
            <td width="80">0004318700</td>
            <td width="130">
				Mst.Bobita  Begum<br />cell:             </td>
            <td width="120">Folder. (Finishing)</td>
            <td width="100">Finishing</td>						
            <td width="100">Finishing</td>
            <td width="100"></td>
            <td width="70">17-03-2015</td>
            <td width="50"><p>01510</p></td>
            <td width="60"><b>00:00</b></td>
            <td width="60"><b>00:00</b></td>
            <td width="50" align="center">A</td>
            <td width="40" align="center">0</td>
            <td width="40" align="center">0</td>
            <td width="80">General Shift Worker</td>
            <td></td>	
        </tr>
		        <tr bgcolor="#EEEEEE">
            <td width="30" align="center">36</td>
            <td width="50">0000352</td>
            <td width="80">0005226609</td>
            <td width="130">
				Md.Nasir Uddin  <br />cell:             </td>
            <td width="120">Operator</td>
            <td width="100">Knitting</td>						
            <td width="100">Knitting</td>
            <td width="100"></td>
            <td width="70">17-03-2015</td>
            <td width="50"><p>01814</p></td>
            <td width="60"><b>00:00</b></td>
            <td width="60"><b>00:00</b></td>
            <td width="50" align="center">A</td>
            <td width="40" align="center">0</td>
            <td width="40" align="center">0</td>
            <td width="80">General Shift Worker</td>
            <td></td>	
        </tr>
		        <tr bgcolor="#FFFFFF">
            <td width="30" align="center">37</td>
            <td width="50">0000350</td>
            <td width="80">0005234875</td>
            <td width="130">
				Md.Al Maruf   Imon<br />cell:             </td>
            <td width="120">Asst. Knitting</td>
            <td width="100">Knitting</td>						
            <td width="100">Knitting</td>
            <td width="100"></td>
            <td width="70">17-03-2015</td>
            <td width="50"><p>01816</p></td>
            <td width="60"><b>00:00</b></td>
            <td width="60"><b>00:00</b></td>
            <td width="50" align="center">A</td>
            <td width="40" align="center">0</td>
            <td width="40" align="center">0</td>
            <td width="80">General Shift Worker</td>
            <td></td>	
        </tr>
		        <tr bgcolor="#EEEEEE">
            <td width="30" align="center">38</td>
            <td width="50">0000059</td>
            <td width="80">0004310146</td>
            <td width="130">
				Md. Manik  Hossain<br />cell: 01937711699            </td>
            <td width="120">HR Officer</td>
            <td width="100">Admin and HR</td>						
            <td width="100">Admin and HR</td>
            <td width="100"></td>
            <td width="70">17-03-2015</td>
            <td width="50"><p>02000</p></td>
            <td width="60"><b>00:00</b></td>
            <td width="60"><b>00:00</b></td>
            <td width="50" align="center">A</td>
            <td width="40" align="center">0</td>
            <td width="40" align="center">0</td>
            <td width="80">General Shift Staff</td>
            <td></td>	
        </tr>
		        <tr bgcolor="#FFFFFF">
            <td width="30" align="center">39</td>
            <td width="50">0000060</td>
            <td width="80">0004311585</td>
            <td width="130">
				Rasheda  Akter<br />cell:             </td>
            <td width="120">Welfare Officer</td>
            <td width="100">Admin and HR</td>						
            <td width="100">Admin and HR</td>
            <td width="100"></td>
            <td width="70">17-03-2015</td>
            <td width="50"><p>02001</p></td>
            <td width="60"><b>00:00</b></td>
            <td width="60"><b>00:00</b></td>
            <td width="50" align="center">A</td>
            <td width="40" align="center">0</td>
            <td width="40" align="center">0</td>
            <td width="80">General Shift Staff</td>
            <td></td>	
        </tr>
		        <tr bgcolor="#EEEEEE">
            <td width="30" align="center">40</td>
            <td width="50">0000075</td>
            <td width="80">0004298386</td>
            <td width="130">
				Md. Shahab  Uddin<br />cell:             </td>
            <td width="120">Purchase Incharge</td>
            <td width="100">Admin and HR</td>						
            <td width="100">Purchase</td>
            <td width="100"></td>
            <td width="70">17-03-2015</td>
            <td width="50"><p>02016</p></td>
            <td width="60"><b>00:00</b></td>
            <td width="60"><b>00:00</b></td>
            <td width="50" align="center">A</td>
            <td width="40" align="center">0</td>
            <td width="40" align="center">0</td>
            <td width="80">General Shift Staff</td>
            <td></td>	
        </tr>
		        <tr bgcolor="#FFFFFF">
            <td width="30" align="center">41</td>
            <td width="50">0000112</td>
            <td width="80">0004322261</td>
            <td width="130">
				Md. Shaheen  Miah<br />cell:             </td>
            <td width="120">Manager Knitting</td>
            <td width="100">Knitting</td>						
            <td width="100">Knitting</td>
            <td width="100"></td>
            <td width="70">17-03-2015</td>
            <td width="50"><p>02023</p></td>
            <td width="60"><b>00:00</b></td>
            <td width="60"><b>00:00</b></td>
            <td width="50" align="center">A</td>
            <td width="40" align="center">0</td>
            <td width="40" align="center">0</td>
            <td width="80">General Shift Staff</td>
            <td></td>	
        </tr>
		        <tr bgcolor="#EEEEEE">
            <td width="30" align="center">42</td>
            <td width="50">0000077</td>
            <td width="80">0004306038</td>
            <td width="130">
				Dr. Mohammad Mazharul Islam<br />cell:             </td>
            <td width="120">Medical Officer</td>
            <td width="100">Admin and HR</td>						
            <td width="100">Medical</td>
            <td width="100"></td>
            <td width="70">17-03-2015</td>
            <td width="50"><p>02033</p></td>
            <td width="60"><b>00:00</b></td>
            <td width="60"><b>00:00</b></td>
            <td width="50" align="center">A</td>
            <td width="40" align="center">0</td>
            <td width="40" align="center">0</td>
            <td width="80">General Shift Staff</td>
            <td></td>	
        </tr>
		        <tr bgcolor="#FFFFFF">
            <td width="30" align="center">43</td>
            <td width="50">0000089</td>
            <td width="80">0009014505</td>
            <td width="130">
				Md. Firoz  Alam<br />cell:             </td>
            <td width="120">Officer (Admin)</td>
            <td width="100">Admin and HR</td>						
            <td width="100">Admin and HR</td>
            <td width="100"></td>
            <td width="70">17-03-2015</td>
            <td width="50"><p>02039</p></td>
            <td width="60"><b>00:00</b></td>
            <td width="60"><b>00:00</b></td>
            <td width="50" align="center">A</td>
            <td width="40" align="center">0</td>
            <td width="40" align="center">0</td>
            <td width="80">General Shift Staff</td>
            <td></td>	
        </tr>
		        <tr bgcolor="#EEEEEE">
            <td width="30" align="center">44</td>
            <td width="50">0000130</td>
            <td width="80">0000099616</td>
            <td width="130">
				Md. Sohel Rana  <br />cell:             </td>
            <td width="120">Supervisor</td>
            <td width="100">Sewing</td>						
            <td width="100">Sewing</td>
            <td width="100"></td>
            <td width="70">17-03-2015</td>
            <td width="50"><p>02045</p></td>
            <td width="60"><b>00:00</b></td>
            <td width="60"><b>00:00</b></td>
            <td width="50" align="center">A</td>
            <td width="40" align="center">0</td>
            <td width="40" align="center">0</td>
            <td width="80">General Shift Staff</td>
            <td></td>	
        </tr>
		        <tr bgcolor="#FFFFFF">
            <td width="30" align="center">45</td>
            <td width="50">0000127</td>
            <td width="80">0004298809</td>
            <td width="130">
				Md. Abdul  Jalil<br />cell:             </td>
            <td width="120">Quality Controler</td>
            <td width="100">Quality</td>						
            <td width="100">Quality</td>
            <td width="100"></td>
            <td width="70">17-03-2015</td>
            <td width="50"><p>02048</p></td>
            <td width="60"><b>00:00</b></td>
            <td width="60"><b>00:00</b></td>
            <td width="50" align="center">A</td>
            <td width="40" align="center">0</td>
            <td width="40" align="center">0</td>
            <td width="80">General Shift Staff</td>
            <td></td>	
        </tr>
		        <tr bgcolor="#EEEEEE">
            <td width="30" align="center">46</td>
            <td width="50">0000218</td>
            <td width="80">0004311605</td>
            <td width="130">
				Md. Hasan  Ali<br />cell:             </td>
            <td width="120">Manager</td>
            <td width="100">Fabrics</td>						
            <td width="100">Fabrics</td>
            <td width="100"></td>
            <td width="70">17-03-2015</td>
            <td width="50"><p>02069</p></td>
            <td width="60"><b>00:00</b></td>
            <td width="60"><b>00:00</b></td>
            <td width="50" align="center">A</td>
            <td width="40" align="center">0</td>
            <td width="40" align="center">0</td>
            <td width="80">General Shift Staff</td>
            <td></td>	
        </tr>
		        <tr bgcolor="#FFFFFF">
            <td width="30" align="center">47</td>
            <td width="50">0000308</td>
            <td width="80">0005223471</td>
            <td width="130">
				Sk. Md. Sahedul  Islam<br />cell:             </td>
            <td width="120">Incharge</td>
            <td width="100">Admin and HR</td>						
            <td width="100">Maintenance-Electrical</td>
            <td width="100"></td>
            <td width="70">17-03-2015</td>
            <td width="50"><p>02100</p></td>
            <td width="60"><b>00:00</b></td>
            <td width="60"><b>00:00</b></td>
            <td width="50" align="center">A</td>
            <td width="40" align="center">0</td>
            <td width="40" align="center">0</td>
            <td width="80">General Shift Staff</td>
            <td></td>	
        </tr>
		        <tr bgcolor="#EEEEEE">
            <td width="30" align="center">48</td>
            <td width="50">0000325</td>
            <td width="80">0005240970</td>
            <td width="130">
				Md. Sirajul Islam  <br />cell:             </td>
            <td width="120">Fire Safety Officer</td>
            <td width="100">Admin and HR</td>						
            <td width="100">Admin and HR</td>
            <td width="100"></td>
            <td width="70">17-03-2015</td>
            <td width="50"><p>02104</p></td>
            <td width="60"><b>00:00</b></td>
            <td width="60"><b>00:00</b></td>
            <td width="50" align="center">A</td>
            <td width="40" align="center">0</td>
            <td width="40" align="center">0</td>
            <td width="80">General Shift Staff</td>
            <td></td>	
        </tr>
		        <tr bgcolor="#FFFFFF">
            <td width="30" align="center">49</td>
            <td width="50">0000326</td>
            <td width="80">0000485614</td>
            <td width="130">
				Md. Helal Uddin  <br />cell:             </td>
            <td width="120">Boiler Operator</td>
            <td width="100">Admin and HR</td>						
            <td width="100">Maintenance-Mechanical</td>
            <td width="100"></td>
            <td width="70">17-03-2015</td>
            <td width="50"><p>02105</p></td>
            <td width="60"><b>00:00</b></td>
            <td width="60"><b>00:00</b></td>
            <td width="50" align="center">A</td>
            <td width="40" align="center">0</td>
            <td width="40" align="center">0</td>
            <td width="80">General Shift Staff</td>
            <td></td>	
        </tr>
		        <tr bgcolor="#EEEEEE">
            <td width="30" align="center">50</td>
            <td width="50">0000356</td>
            <td width="80">0005233057</td>
            <td width="130">
				Md. Abdur Rahim  <br />cell:             </td>
            <td width="120">Supervisor</td>
            <td width="100">Admin and HR</td>						
            <td width="100">Security</td>
            <td width="100"></td>
            <td width="70">17-03-2015</td>
            <td width="50"><p>02120</p></td>
            <td width="60"><b>00:00</b></td>
            <td width="60"><b>00:00</b></td>
            <td width="50" align="center">A</td>
            <td width="40" align="center">0</td>
            <td width="40" align="center">0</td>
            <td width="80">General Shift Worker</td>
            <td></td>	
        </tr>
		        <tr  bgcolor="#CCCCCC" style="font-weight:bold">
            <td  colspan="14">&nbsp;Grand Total</td>
            <td width='' align='right'> 0.00</td>
            <td>&nbsp;</td>
            <td>&nbsp;</td>							
            </tr> 
            </table> <tfoot>
        <tr>
            <td colspan="17" align="center"><table width="1260px">
		<tr height="130" style="font-size:24px; font-family:Arial; font-weight:bold">
		 </tr></table></td>
        </tr>
</tfoot>
<!--</div>-->
</div>

</div>
<p></p>
    
	<table width="1000" border="1" class="rpt_table" rules="all">
		  <tr bgcolor="#F0F0B8">
				<td colspan="17" align="center" height=50><b>Summary</b></td>
		  </tr>
		  <tr>				
				<td colspan="3" align="left" bgcolor="#E5E5E5" height="50" ><b>Present :</b> 0 </td>								  	
				<td colspan="3"  align="left" bgcolor="#FFFFFF"><b>Absent :</b><a href='#' onclick="openmypage('popup_punch_report.php?emp_code=0000021,0000012,0000056,0000047,0000189,0000185,0000123,0000125,0000142,0000282,0000103,0000284,0000286,0000269,0000331,0000346,0000372,0000373,0000085,0000307,0000110,0000335,0000274,0000343,0000354,0000248,0000237,0000256,0000235,0000386,0000396,0000397,0000430,0000298,0000151,0000352,0000350,0000059,0000060,0000075,0000112,0000077,0000089,0000130,0000127,0000218,0000308,0000325,0000326,0000356&date=2015-03-17','Absent Information'); return false">50</a> </td>				  			  	
				<td colspan="3"  align="left" bgcolor="#E5E5E5"><b>Leave :</b> <a href='#' onclick="openmypage('popup_punch_report.php?emp_code=&date=2015-03-17','Leave Information'); return false">0</a> </td>				  				   
				<td colspan="2"  align="left" bgcolor="#FFFFFF"><b>Movement :</b><a href='#' onclick="openmypage('popup_punch_report.php?emp_code=&date=2015-03-17','Movement Information'); return false">0 </a> </td>				  			    
				<td colspan="2"  align="left" bgcolor="#E5E5E5"><b>Late :</b><a href='#' onclick="openmypage('popup_punch_report.php?emp_code=&date=2015-03-17','Late Information'); return false">0 </a></td>
                <td colspan="2"  align="left" bgcolor="#E5E5E5"><b>Weekend :</b><a href='#' onclick="openmypage('popup_punch_report.php?emp_code=&date=2015-03-17','Weekend Information'); return false">0 </a></td>				  			    
				<td colspan="2"  align="left" bgcolor="#FFFFFF"><b>Total :</b> 50 </td>					
		  </tr>
	</table> 
    
               	   	
        

</div>