<div>    <div align="center" style="width:1300px; font-size:16px"><b></b></div>
	<table cellpadding="0" width="1280" cellspacing="0" border="1" class="rpt_table" rules="all">
		<thead>
             	<th width='38'>SL</th>
                <th width='85'>Emp Code</th>
                <th width='80'>ID Card</th>
                <th width='168'>Emp Name</th>
                <th width='120'>Designation</th>
                <th width='120'>Join Date</th>
                
                <th width='36'>Total Days</th>
                <th width='53'>Present</th>
                <th width='51'>Absent</th>
                <th width='38'>Late</th>
                <th width='30'>E.Out</th>
                <th width='45'>Leave</th>
                <th width='32'>MR</th>
                
                <th width='30'>WOD</th>
                <th width='30'>HD</th>
                <th width='32'>PL</th>
                <th width='30'>PW</th>
                <th width='32'>PH</th>
                <th width='50'>Total Present</th>
                <th width='57'>Payable Days</th>
                <th width='50'>Monthly OT</th>
                <th>Job Card</th>
    	</thead>
        <!--</table>
        <table  cellpadding="0" width="1230" cellspacing="0" border="1" class="rpt_table" id="table_body" >	--> 

						
            <tr bgcolor="#FFFFFF">
            	<td height='50'>1</td>
                <td height='50'>0000410</td>
                <td>02019</td>
                <td>Md. Imam Hossain  </td>
                <td align='left'>Chief Accountant</td>
                <td>15-03-2005</td>
                
                <td>12</td>
                 <td>
                 	<a href='#' onclick="openmypage('popup_report.php?action=emp_job_card_report&emp_code=0000410&emp_name=Md. Imam Hossain                      &date_part_from=2015-04-01&date_part_to=2015-04-30&status=P','Partial Attendance'); return false">9</a>
                </td>
                <td>
                	<a href='#' onclick="openmypage('popup_report.php?action=emp_job_card_report&emp_code=0000410&emp_name=Md. Imam Hossain                      &date_part_from=2015-04-01&date_part_to=2015-04-30&status=A','Partial Attendance'); return false">0</a>
                </td>
                <td bgcolor="">&nbsp;
                	<a href='#' onclick="openmypage('popup_report.php?action=emp_job_card_report&emp_code=0000410&emp_name=Md. Imam Hossain                      &date_part_from=2015-04-01&date_part_to=2015-04-30&status=D','Partial Attendance'); return false">1</a>
                </td>
                <td bgcolor="">&nbsp;
                	<a href='#' onclick="openmypage('popup_report.php?action=emp_job_card_report_e_out&emp_code=0000410&emp_name=Md. Imam Hossain                      &date_part_from=2015-04-01&date_part_to=2015-04-30&status=EO','Partial Attendance'); return false">0</a>
                </td>
                <td>
                	<a href='#' onclick="openmypage('popup_report.php?action=emp_job_card_report&emp_code=0000410&emp_name=Md. Imam Hossain                      &date_part_from=2015-04-01&date_part_to=2015-04-30&status=CL','Partial Attendance'); return false">0                    </a>
                </td>
                <td>
                    <a href='#' onclick="openmypage('popup_report.php?action=emp_job_card_report&emp_code=0000410&emp_name=Md. Imam Hossain                      &date_part_from=2015-04-01&date_part_to=2015-04-30&status=MR','Partial Attendance'); return false">0                    </a>
                </td>						
                <td>
                    <a href='#' onclick="openmypage('popup_report.php?action=emp_job_card_report&emp_code=0000410&emp_name=Md. Imam Hossain                      &date_part_from=2015-04-01&date_part_to=2015-04-30&status=W','Partial Attendance'); return false">2                    </a>
                </td>
                <td>
                    <a href='#' onclick="openmypage('popup_report.php?action=emp_job_card_report&emp_code=0000410&emp_name=Md. Imam Hossain                      &date_part_from=2015-04-01&date_part_to=2015-04-30&status=H','Partial Attendance'); return false">0                    </a>
                </td>
                <td>0</td>
                <td>0</td>
                <td>0</td>
                <td>10</td>
                <td>12</td>
                <td>0.00</td>
                <td>
                    <input type="button" value="View" style="width:30px" class="formbutton" onclick="openmypage('popup_report.php?action=emp_job_card_report&emp_code=0000410&emp_name=Md. Imam Hossain                      &date_part_from=2015-04-01&date_part_to=2015-04-30&status=JC','Partial Attendance'); return false"/>
                </td>
            </tr>
								
            <tr bgcolor="#E9F3FF">
            	<td height='50'>2</td>
                <td height='50'>0000409</td>
                <td>02017</td>
                <td>Md. Humayun Biswas  </td>
                <td align='left'>Manager</td>
                <td>15-03-2005</td>
                
                <td>12</td>
                 <td>
                 	<a href='#' onclick="openmypage('popup_report.php?action=emp_job_card_report&emp_code=0000409&emp_name=Md. Humayun Biswas                      &date_part_from=2015-04-01&date_part_to=2015-04-30&status=P','Partial Attendance'); return false">10</a>
                </td>
                <td>
                	<a href='#' onclick="openmypage('popup_report.php?action=emp_job_card_report&emp_code=0000409&emp_name=Md. Humayun Biswas                      &date_part_from=2015-04-01&date_part_to=2015-04-30&status=A','Partial Attendance'); return false">0</a>
                </td>
                <td bgcolor="">&nbsp;
                	<a href='#' onclick="openmypage('popup_report.php?action=emp_job_card_report&emp_code=0000409&emp_name=Md. Humayun Biswas                      &date_part_from=2015-04-01&date_part_to=2015-04-30&status=D','Partial Attendance'); return false">0</a>
                </td>
                <td bgcolor="">&nbsp;
                	<a href='#' onclick="openmypage('popup_report.php?action=emp_job_card_report_e_out&emp_code=0000409&emp_name=Md. Humayun Biswas                      &date_part_from=2015-04-01&date_part_to=2015-04-30&status=EO','Partial Attendance'); return false">1</a>
                </td>
                <td>
                	<a href='#' onclick="openmypage('popup_report.php?action=emp_job_card_report&emp_code=0000409&emp_name=Md. Humayun Biswas                      &date_part_from=2015-04-01&date_part_to=2015-04-30&status=CL','Partial Attendance'); return false">0                    </a>
                </td>
                <td>
                    <a href='#' onclick="openmypage('popup_report.php?action=emp_job_card_report&emp_code=0000409&emp_name=Md. Humayun Biswas                      &date_part_from=2015-04-01&date_part_to=2015-04-30&status=MR','Partial Attendance'); return false">0                    </a>
                </td>						
                <td>
                    <a href='#' onclick="openmypage('popup_report.php?action=emp_job_card_report&emp_code=0000409&emp_name=Md. Humayun Biswas                      &date_part_from=2015-04-01&date_part_to=2015-04-30&status=W','Partial Attendance'); return false">2                    </a>
                </td>
                <td>
                    <a href='#' onclick="openmypage('popup_report.php?action=emp_job_card_report&emp_code=0000409&emp_name=Md. Humayun Biswas                      &date_part_from=2015-04-01&date_part_to=2015-04-30&status=H','Partial Attendance'); return false">0                    </a>
                </td>
                <td>0</td>
                <td>0</td>
                <td>0</td>
                <td>10</td>
                <td>12</td>
                <td>0.00</td>
                <td>
                    <input type="button" value="View" style="width:30px" class="formbutton" onclick="openmypage('popup_report.php?action=emp_job_card_report&emp_code=0000409&emp_name=Md. Humayun Biswas                      &date_part_from=2015-04-01&date_part_to=2015-04-30&status=JC','Partial Attendance'); return false"/>
                </td>
            </tr>
								
            <tr bgcolor="#FFFFFF">
            	<td height='50'>3</td>
                <td height='50'>0000420</td>
                <td>02106</td>
                <td>Mr. Partho  </td>
                <td align='left'> Engineer</td>
                <td>06-03-2014</td>
                
                <td>12</td>
                 <td>
                 	<a href='#' onclick="openmypage('popup_report.php?action=emp_job_card_report&emp_code=0000420&emp_name=Mr. Partho                      &date_part_from=2015-04-01&date_part_to=2015-04-30&status=P','Partial Attendance'); return false">0</a>
                </td>
                <td>
                	<a href='#' onclick="openmypage('popup_report.php?action=emp_job_card_report&emp_code=0000420&emp_name=Mr. Partho                      &date_part_from=2015-04-01&date_part_to=2015-04-30&status=A','Partial Attendance'); return false">10</a>
                </td>
                <td bgcolor="">&nbsp;
                	<a href='#' onclick="openmypage('popup_report.php?action=emp_job_card_report&emp_code=0000420&emp_name=Mr. Partho                      &date_part_from=2015-04-01&date_part_to=2015-04-30&status=D','Partial Attendance'); return false">0</a>
                </td>
                <td bgcolor="">&nbsp;
                	<a href='#' onclick="openmypage('popup_report.php?action=emp_job_card_report_e_out&emp_code=0000420&emp_name=Mr. Partho                      &date_part_from=2015-04-01&date_part_to=2015-04-30&status=EO','Partial Attendance'); return false">0</a>
                </td>
                <td>
                	<a href='#' onclick="openmypage('popup_report.php?action=emp_job_card_report&emp_code=0000420&emp_name=Mr. Partho                      &date_part_from=2015-04-01&date_part_to=2015-04-30&status=CL','Partial Attendance'); return false">0                    </a>
                </td>
                <td>
                    <a href='#' onclick="openmypage('popup_report.php?action=emp_job_card_report&emp_code=0000420&emp_name=Mr. Partho                      &date_part_from=2015-04-01&date_part_to=2015-04-30&status=MR','Partial Attendance'); return false">0                    </a>
                </td>						
                <td>
                    <a href='#' onclick="openmypage('popup_report.php?action=emp_job_card_report&emp_code=0000420&emp_name=Mr. Partho                      &date_part_from=2015-04-01&date_part_to=2015-04-30&status=W','Partial Attendance'); return false">2                    </a>
                </td>
                <td>
                    <a href='#' onclick="openmypage('popup_report.php?action=emp_job_card_report&emp_code=0000420&emp_name=Mr. Partho                      &date_part_from=2015-04-01&date_part_to=2015-04-30&status=H','Partial Attendance'); return false">0                    </a>
                </td>
                <td>0</td>
                <td>0</td>
                <td>0</td>
                <td>0</td>
                <td>2</td>
                <td>0.00</td>
                <td>
                    <input type="button" value="View" style="width:30px" class="formbutton" onclick="openmypage('popup_report.php?action=emp_job_card_report&emp_code=0000420&emp_name=Mr. Partho                      &date_part_from=2015-04-01&date_part_to=2015-04-30&status=JC','Partial Attendance'); return false"/>
                </td>
            </tr>
								
            <tr bgcolor="#E9F3FF">
            	<td height='50'>4</td>
                <td height='50'>0000382</td>
                <td>02012</td>
                <td>Md. Mahabbul Alam  </td>
                <td align='left'>Manager</td>
                <td>07-09-2014</td>
                
                <td>12</td>
                 <td>
                 	<a href='#' onclick="openmypage('popup_report.php?action=emp_job_card_report&emp_code=0000382&emp_name=Md. Mahabbul Alam                      &date_part_from=2015-04-01&date_part_to=2015-04-30&status=P','Partial Attendance'); return false">3</a>
                </td>
                <td>
                	<a href='#' onclick="openmypage('popup_report.php?action=emp_job_card_report&emp_code=0000382&emp_name=Md. Mahabbul Alam                      &date_part_from=2015-04-01&date_part_to=2015-04-30&status=A','Partial Attendance'); return false">1</a>
                </td>
                <td bgcolor="#EE3900">&nbsp;
                	<a href='#' onclick="openmypage('popup_report.php?action=emp_job_card_report&emp_code=0000382&emp_name=Md. Mahabbul Alam                      &date_part_from=2015-04-01&date_part_to=2015-04-30&status=D','Partial Attendance'); return false">6</a>
                </td>
                <td bgcolor="">&nbsp;
                	<a href='#' onclick="openmypage('popup_report.php?action=emp_job_card_report_e_out&emp_code=0000382&emp_name=Md. Mahabbul Alam                      &date_part_from=2015-04-01&date_part_to=2015-04-30&status=EO','Partial Attendance'); return false">1</a>
                </td>
                <td>
                	<a href='#' onclick="openmypage('popup_report.php?action=emp_job_card_report&emp_code=0000382&emp_name=Md. Mahabbul Alam                      &date_part_from=2015-04-01&date_part_to=2015-04-30&status=CL','Partial Attendance'); return false">0                    </a>
                </td>
                <td>
                    <a href='#' onclick="openmypage('popup_report.php?action=emp_job_card_report&emp_code=0000382&emp_name=Md. Mahabbul Alam                      &date_part_from=2015-04-01&date_part_to=2015-04-30&status=MR','Partial Attendance'); return false">0                    </a>
                </td>						
                <td>
                    <a href='#' onclick="openmypage('popup_report.php?action=emp_job_card_report&emp_code=0000382&emp_name=Md. Mahabbul Alam                      &date_part_from=2015-04-01&date_part_to=2015-04-30&status=W','Partial Attendance'); return false">2                    </a>
                </td>
                <td>
                    <a href='#' onclick="openmypage('popup_report.php?action=emp_job_card_report&emp_code=0000382&emp_name=Md. Mahabbul Alam                      &date_part_from=2015-04-01&date_part_to=2015-04-30&status=H','Partial Attendance'); return false">0                    </a>
                </td>
                <td>0</td>
                <td>0</td>
                <td>0</td>
                <td>9</td>
                <td>11</td>
                <td>0.00</td>
                <td>
                    <input type="button" value="View" style="width:30px" class="formbutton" onclick="openmypage('popup_report.php?action=emp_job_card_report&emp_code=0000382&emp_name=Md. Mahabbul Alam                      &date_part_from=2015-04-01&date_part_to=2015-04-30&status=JC','Partial Attendance'); return false"/>
                </td>
            </tr>
								
            <tr bgcolor="#FFFFFF">
            	<td height='50'>5</td>
                <td height='50'>0000387</td>
                <td>02040</td>
                <td>M.M. Waliur Rahman  </td>
                <td align='left'>C and F Officer</td>
                <td>01-01-2013</td>
                
                <td>12</td>
                 <td>
                 	<a href='#' onclick="openmypage('popup_report.php?action=emp_job_card_report&emp_code=0000387&emp_name=M.M. Waliur Rahman                      &date_part_from=2015-04-01&date_part_to=2015-04-30&status=P','Partial Attendance'); return false">0</a>
                </td>
                <td>
                	<a href='#' onclick="openmypage('popup_report.php?action=emp_job_card_report&emp_code=0000387&emp_name=M.M. Waliur Rahman                      &date_part_from=2015-04-01&date_part_to=2015-04-30&status=A','Partial Attendance'); return false">10</a>
                </td>
                <td bgcolor="">&nbsp;
                	<a href='#' onclick="openmypage('popup_report.php?action=emp_job_card_report&emp_code=0000387&emp_name=M.M. Waliur Rahman                      &date_part_from=2015-04-01&date_part_to=2015-04-30&status=D','Partial Attendance'); return false">0</a>
                </td>
                <td bgcolor="">&nbsp;
                	<a href='#' onclick="openmypage('popup_report.php?action=emp_job_card_report_e_out&emp_code=0000387&emp_name=M.M. Waliur Rahman                      &date_part_from=2015-04-01&date_part_to=2015-04-30&status=EO','Partial Attendance'); return false">0</a>
                </td>
                <td>
                	<a href='#' onclick="openmypage('popup_report.php?action=emp_job_card_report&emp_code=0000387&emp_name=M.M. Waliur Rahman                      &date_part_from=2015-04-01&date_part_to=2015-04-30&status=CL','Partial Attendance'); return false">0                    </a>
                </td>
                <td>
                    <a href='#' onclick="openmypage('popup_report.php?action=emp_job_card_report&emp_code=0000387&emp_name=M.M. Waliur Rahman                      &date_part_from=2015-04-01&date_part_to=2015-04-30&status=MR','Partial Attendance'); return false">0                    </a>
                </td>						
                <td>
                    <a href='#' onclick="openmypage('popup_report.php?action=emp_job_card_report&emp_code=0000387&emp_name=M.M. Waliur Rahman                      &date_part_from=2015-04-01&date_part_to=2015-04-30&status=W','Partial Attendance'); return false">2                    </a>
                </td>
                <td>
                    <a href='#' onclick="openmypage('popup_report.php?action=emp_job_card_report&emp_code=0000387&emp_name=M.M. Waliur Rahman                      &date_part_from=2015-04-01&date_part_to=2015-04-30&status=H','Partial Attendance'); return false">0                    </a>
                </td>
                <td>0</td>
                <td>0</td>
                <td>0</td>
                <td>0</td>
                <td>2</td>
                <td>0.00</td>
                <td>
                    <input type="button" value="View" style="width:30px" class="formbutton" onclick="openmypage('popup_report.php?action=emp_job_card_report&emp_code=0000387&emp_name=M.M. Waliur Rahman                      &date_part_from=2015-04-01&date_part_to=2015-04-30&status=JC','Partial Attendance'); return false"/>
                </td>
            </tr>
								
            <tr bgcolor="#E9F3FF">
            	<td height='50'>6</td>
                <td height='50'>0000359</td>
                <td>02111</td>
                <td>Sayed Mahamudul Hassan  </td>
                <td align='left'>Accountant</td>
                <td>01-12-2014</td>
                
                <td>12</td>
                 <td>
                 	<a href='#' onclick="openmypage('popup_report.php?action=emp_job_card_report&emp_code=0000359&emp_name=Sayed Mahamudul Hassan                      &date_part_from=2015-04-01&date_part_to=2015-04-30&status=P','Partial Attendance'); return false">5</a>
                </td>
                <td>
                	<a href='#' onclick="openmypage('popup_report.php?action=emp_job_card_report&emp_code=0000359&emp_name=Sayed Mahamudul Hassan                      &date_part_from=2015-04-01&date_part_to=2015-04-30&status=A','Partial Attendance'); return false">0</a>
                </td>
                <td bgcolor="#EE3900">&nbsp;
                	<a href='#' onclick="openmypage('popup_report.php?action=emp_job_card_report&emp_code=0000359&emp_name=Sayed Mahamudul Hassan                      &date_part_from=2015-04-01&date_part_to=2015-04-30&status=D','Partial Attendance'); return false">5</a>
                </td>
                <td bgcolor="">&nbsp;
                	<a href='#' onclick="openmypage('popup_report.php?action=emp_job_card_report_e_out&emp_code=0000359&emp_name=Sayed Mahamudul Hassan                      &date_part_from=2015-04-01&date_part_to=2015-04-30&status=EO','Partial Attendance'); return false">4</a>
                </td>
                <td>
                	<a href='#' onclick="openmypage('popup_report.php?action=emp_job_card_report&emp_code=0000359&emp_name=Sayed Mahamudul Hassan                      &date_part_from=2015-04-01&date_part_to=2015-04-30&status=CL','Partial Attendance'); return false">0                    </a>
                </td>
                <td>
                    <a href='#' onclick="openmypage('popup_report.php?action=emp_job_card_report&emp_code=0000359&emp_name=Sayed Mahamudul Hassan                      &date_part_from=2015-04-01&date_part_to=2015-04-30&status=MR','Partial Attendance'); return false">0                    </a>
                </td>						
                <td>
                    <a href='#' onclick="openmypage('popup_report.php?action=emp_job_card_report&emp_code=0000359&emp_name=Sayed Mahamudul Hassan                      &date_part_from=2015-04-01&date_part_to=2015-04-30&status=W','Partial Attendance'); return false">2                    </a>
                </td>
                <td>
                    <a href='#' onclick="openmypage('popup_report.php?action=emp_job_card_report&emp_code=0000359&emp_name=Sayed Mahamudul Hassan                      &date_part_from=2015-04-01&date_part_to=2015-04-30&status=H','Partial Attendance'); return false">0                    </a>
                </td>
                <td>0</td>
                <td>0</td>
                <td>0</td>
                <td>10</td>
                <td>12</td>
                <td>0.00</td>
                <td>
                    <input type="button" value="View" style="width:30px" class="formbutton" onclick="openmypage('popup_report.php?action=emp_job_card_report&emp_code=0000359&emp_name=Sayed Mahamudul Hassan                      &date_part_from=2015-04-01&date_part_to=2015-04-30&status=JC','Partial Attendance'); return false"/>
                </td>
            </tr>
								
            <tr bgcolor="#FFFFFF">
            	<td height='50'>7</td>
                <td height='50'>0000391</td>
                <td>02109</td>
                <td>Md. Kamrul Islam  </td>
                <td align='left'>Officer</td>
                <td>25-01-2009</td>
                
                <td>12</td>
                 <td>
                 	<a href='#' onclick="openmypage('popup_report.php?action=emp_job_card_report&emp_code=0000391&emp_name=Md. Kamrul Islam                      &date_part_from=2015-04-01&date_part_to=2015-04-30&status=P','Partial Attendance'); return false">10</a>
                </td>
                <td>
                	<a href='#' onclick="openmypage('popup_report.php?action=emp_job_card_report&emp_code=0000391&emp_name=Md. Kamrul Islam                      &date_part_from=2015-04-01&date_part_to=2015-04-30&status=A','Partial Attendance'); return false">0</a>
                </td>
                <td bgcolor="">&nbsp;
                	<a href='#' onclick="openmypage('popup_report.php?action=emp_job_card_report&emp_code=0000391&emp_name=Md. Kamrul Islam                      &date_part_from=2015-04-01&date_part_to=2015-04-30&status=D','Partial Attendance'); return false">0</a>
                </td>
                <td bgcolor="">&nbsp;
                	<a href='#' onclick="openmypage('popup_report.php?action=emp_job_card_report_e_out&emp_code=0000391&emp_name=Md. Kamrul Islam                      &date_part_from=2015-04-01&date_part_to=2015-04-30&status=EO','Partial Attendance'); return false">0</a>
                </td>
                <td>
                	<a href='#' onclick="openmypage('popup_report.php?action=emp_job_card_report&emp_code=0000391&emp_name=Md. Kamrul Islam                      &date_part_from=2015-04-01&date_part_to=2015-04-30&status=CL','Partial Attendance'); return false">0                    </a>
                </td>
                <td>
                    <a href='#' onclick="openmypage('popup_report.php?action=emp_job_card_report&emp_code=0000391&emp_name=Md. Kamrul Islam                      &date_part_from=2015-04-01&date_part_to=2015-04-30&status=MR','Partial Attendance'); return false">0                    </a>
                </td>						
                <td>
                    <a href='#' onclick="openmypage('popup_report.php?action=emp_job_card_report&emp_code=0000391&emp_name=Md. Kamrul Islam                      &date_part_from=2015-04-01&date_part_to=2015-04-30&status=W','Partial Attendance'); return false">2                    </a>
                </td>
                <td>
                    <a href='#' onclick="openmypage('popup_report.php?action=emp_job_card_report&emp_code=0000391&emp_name=Md. Kamrul Islam                      &date_part_from=2015-04-01&date_part_to=2015-04-30&status=H','Partial Attendance'); return false">0                    </a>
                </td>
                <td>0</td>
                <td>0</td>
                <td>0</td>
                <td>10</td>
                <td>12</td>
                <td>0.00</td>
                <td>
                    <input type="button" value="View" style="width:30px" class="formbutton" onclick="openmypage('popup_report.php?action=emp_job_card_report&emp_code=0000391&emp_name=Md. Kamrul Islam                      &date_part_from=2015-04-01&date_part_to=2015-04-30&status=JC','Partial Attendance'); return false"/>
                </td>
            </tr>
								
            <tr bgcolor="#E9F3FF">
            	<td height='50'>8</td>
                <td height='50'>0000390</td>
                <td>02108</td>
                <td>Md. Mostak Ahmed  </td>
                <td align='left'>Officer</td>
                <td>25-01-2011</td>
                
                <td>12</td>
                 <td>
                 	<a href='#' onclick="openmypage('popup_report.php?action=emp_job_card_report&emp_code=0000390&emp_name=Md. Mostak Ahmed                      &date_part_from=2015-04-01&date_part_to=2015-04-30&status=P','Partial Attendance'); return false">0</a>
                </td>
                <td>
                	<a href='#' onclick="openmypage('popup_report.php?action=emp_job_card_report&emp_code=0000390&emp_name=Md. Mostak Ahmed                      &date_part_from=2015-04-01&date_part_to=2015-04-30&status=A','Partial Attendance'); return false">10</a>
                </td>
                <td bgcolor="">&nbsp;
                	<a href='#' onclick="openmypage('popup_report.php?action=emp_job_card_report&emp_code=0000390&emp_name=Md. Mostak Ahmed                      &date_part_from=2015-04-01&date_part_to=2015-04-30&status=D','Partial Attendance'); return false">0</a>
                </td>
                <td bgcolor="">&nbsp;
                	<a href='#' onclick="openmypage('popup_report.php?action=emp_job_card_report_e_out&emp_code=0000390&emp_name=Md. Mostak Ahmed                      &date_part_from=2015-04-01&date_part_to=2015-04-30&status=EO','Partial Attendance'); return false">0</a>
                </td>
                <td>
                	<a href='#' onclick="openmypage('popup_report.php?action=emp_job_card_report&emp_code=0000390&emp_name=Md. Mostak Ahmed                      &date_part_from=2015-04-01&date_part_to=2015-04-30&status=CL','Partial Attendance'); return false">0                    </a>
                </td>
                <td>
                    <a href='#' onclick="openmypage('popup_report.php?action=emp_job_card_report&emp_code=0000390&emp_name=Md. Mostak Ahmed                      &date_part_from=2015-04-01&date_part_to=2015-04-30&status=MR','Partial Attendance'); return false">0                    </a>
                </td>						
                <td>
                    <a href='#' onclick="openmypage('popup_report.php?action=emp_job_card_report&emp_code=0000390&emp_name=Md. Mostak Ahmed                      &date_part_from=2015-04-01&date_part_to=2015-04-30&status=W','Partial Attendance'); return false">2                    </a>
                </td>
                <td>
                    <a href='#' onclick="openmypage('popup_report.php?action=emp_job_card_report&emp_code=0000390&emp_name=Md. Mostak Ahmed                      &date_part_from=2015-04-01&date_part_to=2015-04-30&status=H','Partial Attendance'); return false">0                    </a>
                </td>
                <td>0</td>
                <td>0</td>
                <td>0</td>
                <td>0</td>
                <td>2</td>
                <td>0.00</td>
                <td>
                    <input type="button" value="View" style="width:30px" class="formbutton" onclick="openmypage('popup_report.php?action=emp_job_card_report&emp_code=0000390&emp_name=Md. Mostak Ahmed                      &date_part_from=2015-04-01&date_part_to=2015-04-30&status=JC','Partial Attendance'); return false"/>
                </td>
            </tr>
								
            <tr bgcolor="#FFFFFF">
            	<td height='50'>9</td>
                <td height='50'>0000411</td>
                <td>02020</td>
                <td>Abul Basar Md. Saifullah   </td>
                <td align='left'>Accounts Officer</td>
                <td>01-09-2014</td>
                
                <td>12</td>
                 <td>
                 	<a href='#' onclick="openmypage('popup_report.php?action=emp_job_card_report&emp_code=0000411&emp_name=Abul Basar Md. Saifullah                       &date_part_from=2015-04-01&date_part_to=2015-04-30&status=P','Partial Attendance'); return false">6</a>
                </td>
                <td>
                	<a href='#' onclick="openmypage('popup_report.php?action=emp_job_card_report&emp_code=0000411&emp_name=Abul Basar Md. Saifullah                       &date_part_from=2015-04-01&date_part_to=2015-04-30&status=A','Partial Attendance'); return false">0</a>
                </td>
                <td bgcolor="">&nbsp;
                	<a href='#' onclick="openmypage('popup_report.php?action=emp_job_card_report&emp_code=0000411&emp_name=Abul Basar Md. Saifullah                       &date_part_from=2015-04-01&date_part_to=2015-04-30&status=D','Partial Attendance'); return false">4</a>
                </td>
                <td bgcolor="">&nbsp;
                	<a href='#' onclick="openmypage('popup_report.php?action=emp_job_card_report_e_out&emp_code=0000411&emp_name=Abul Basar Md. Saifullah                       &date_part_from=2015-04-01&date_part_to=2015-04-30&status=EO','Partial Attendance'); return false">2</a>
                </td>
                <td>
                	<a href='#' onclick="openmypage('popup_report.php?action=emp_job_card_report&emp_code=0000411&emp_name=Abul Basar Md. Saifullah                       &date_part_from=2015-04-01&date_part_to=2015-04-30&status=CL','Partial Attendance'); return false">0                    </a>
                </td>
                <td>
                    <a href='#' onclick="openmypage('popup_report.php?action=emp_job_card_report&emp_code=0000411&emp_name=Abul Basar Md. Saifullah                       &date_part_from=2015-04-01&date_part_to=2015-04-30&status=MR','Partial Attendance'); return false">0                    </a>
                </td>						
                <td>
                    <a href='#' onclick="openmypage('popup_report.php?action=emp_job_card_report&emp_code=0000411&emp_name=Abul Basar Md. Saifullah                       &date_part_from=2015-04-01&date_part_to=2015-04-30&status=W','Partial Attendance'); return false">2                    </a>
                </td>
                <td>
                    <a href='#' onclick="openmypage('popup_report.php?action=emp_job_card_report&emp_code=0000411&emp_name=Abul Basar Md. Saifullah                       &date_part_from=2015-04-01&date_part_to=2015-04-30&status=H','Partial Attendance'); return false">0                    </a>
                </td>
                <td>0</td>
                <td>0</td>
                <td>0</td>
                <td>10</td>
                <td>12</td>
                <td>0.00</td>
                <td>
                    <input type="button" value="View" style="width:30px" class="formbutton" onclick="openmypage('popup_report.php?action=emp_job_card_report&emp_code=0000411&emp_name=Abul Basar Md. Saifullah                       &date_part_from=2015-04-01&date_part_to=2015-04-30&status=JC','Partial Attendance'); return false"/>
                </td>
            </tr>
								
            <tr bgcolor="#E9F3FF">
            	<td height='50'>10</td>
                <td height='50'>0000383</td>
                <td>02014</td>
                <td>Md. Abdur Rahman  </td>
                <td align='left'>Officer (Admin)</td>
                <td>15-03-2005</td>
                
                <td>12</td>
                 <td>
                 	<a href='#' onclick="openmypage('popup_report.php?action=emp_job_card_report&emp_code=0000383&emp_name=Md. Abdur Rahman                      &date_part_from=2015-04-01&date_part_to=2015-04-30&status=P','Partial Attendance'); return false">5</a>
                </td>
                <td>
                	<a href='#' onclick="openmypage('popup_report.php?action=emp_job_card_report&emp_code=0000383&emp_name=Md. Abdur Rahman                      &date_part_from=2015-04-01&date_part_to=2015-04-30&status=A','Partial Attendance'); return false">2</a>
                </td>
                <td bgcolor="">&nbsp;
                	<a href='#' onclick="openmypage('popup_report.php?action=emp_job_card_report&emp_code=0000383&emp_name=Md. Abdur Rahman                      &date_part_from=2015-04-01&date_part_to=2015-04-30&status=D','Partial Attendance'); return false">3</a>
                </td>
                <td bgcolor="">&nbsp;
                	<a href='#' onclick="openmypage('popup_report.php?action=emp_job_card_report_e_out&emp_code=0000383&emp_name=Md. Abdur Rahman                      &date_part_from=2015-04-01&date_part_to=2015-04-30&status=EO','Partial Attendance'); return false">1</a>
                </td>
                <td>
                	<a href='#' onclick="openmypage('popup_report.php?action=emp_job_card_report&emp_code=0000383&emp_name=Md. Abdur Rahman                      &date_part_from=2015-04-01&date_part_to=2015-04-30&status=CL','Partial Attendance'); return false">0                    </a>
                </td>
                <td>
                    <a href='#' onclick="openmypage('popup_report.php?action=emp_job_card_report&emp_code=0000383&emp_name=Md. Abdur Rahman                      &date_part_from=2015-04-01&date_part_to=2015-04-30&status=MR','Partial Attendance'); return false">0                    </a>
                </td>						
                <td>
                    <a href='#' onclick="openmypage('popup_report.php?action=emp_job_card_report&emp_code=0000383&emp_name=Md. Abdur Rahman                      &date_part_from=2015-04-01&date_part_to=2015-04-30&status=W','Partial Attendance'); return false">2                    </a>
                </td>
                <td>
                    <a href='#' onclick="openmypage('popup_report.php?action=emp_job_card_report&emp_code=0000383&emp_name=Md. Abdur Rahman                      &date_part_from=2015-04-01&date_part_to=2015-04-30&status=H','Partial Attendance'); return false">0                    </a>
                </td>
                <td>0</td>
                <td>0</td>
                <td>0</td>
                <td>8</td>
                <td>10</td>
                <td>0.00</td>
                <td>
                    <input type="button" value="View" style="width:30px" class="formbutton" onclick="openmypage('popup_report.php?action=emp_job_card_report&emp_code=0000383&emp_name=Md. Abdur Rahman                      &date_part_from=2015-04-01&date_part_to=2015-04-30&status=JC','Partial Attendance'); return false"/>
                </td>
            </tr>
								
            <tr bgcolor="#FFFFFF">
            	<td height='50'>11</td>
                <td height='50'>0000388</td>
                <td>02047</td>
                <td>Md. Mahbub Zaman  </td>
                <td align='left'>Officer</td>
                <td>25-01-2009</td>
                
                <td>12</td>
                 <td>
                 	<a href='#' onclick="openmypage('popup_report.php?action=emp_job_card_report&emp_code=0000388&emp_name=Md. Mahbub Zaman                      &date_part_from=2015-04-01&date_part_to=2015-04-30&status=P','Partial Attendance'); return false">6</a>
                </td>
                <td>
                	<a href='#' onclick="openmypage('popup_report.php?action=emp_job_card_report&emp_code=0000388&emp_name=Md. Mahbub Zaman                      &date_part_from=2015-04-01&date_part_to=2015-04-30&status=A','Partial Attendance'); return false">1</a>
                </td>
                <td bgcolor="">&nbsp;
                	<a href='#' onclick="openmypage('popup_report.php?action=emp_job_card_report&emp_code=0000388&emp_name=Md. Mahbub Zaman                      &date_part_from=2015-04-01&date_part_to=2015-04-30&status=D','Partial Attendance'); return false">3</a>
                </td>
                <td bgcolor="">&nbsp;
                	<a href='#' onclick="openmypage('popup_report.php?action=emp_job_card_report_e_out&emp_code=0000388&emp_name=Md. Mahbub Zaman                      &date_part_from=2015-04-01&date_part_to=2015-04-30&status=EO','Partial Attendance'); return false">0</a>
                </td>
                <td>
                	<a href='#' onclick="openmypage('popup_report.php?action=emp_job_card_report&emp_code=0000388&emp_name=Md. Mahbub Zaman                      &date_part_from=2015-04-01&date_part_to=2015-04-30&status=CL','Partial Attendance'); return false">0                    </a>
                </td>
                <td>
                    <a href='#' onclick="openmypage('popup_report.php?action=emp_job_card_report&emp_code=0000388&emp_name=Md. Mahbub Zaman                      &date_part_from=2015-04-01&date_part_to=2015-04-30&status=MR','Partial Attendance'); return false">0                    </a>
                </td>						
                <td>
                    <a href='#' onclick="openmypage('popup_report.php?action=emp_job_card_report&emp_code=0000388&emp_name=Md. Mahbub Zaman                      &date_part_from=2015-04-01&date_part_to=2015-04-30&status=W','Partial Attendance'); return false">2                    </a>
                </td>
                <td>
                    <a href='#' onclick="openmypage('popup_report.php?action=emp_job_card_report&emp_code=0000388&emp_name=Md. Mahbub Zaman                      &date_part_from=2015-04-01&date_part_to=2015-04-30&status=H','Partial Attendance'); return false">0                    </a>
                </td>
                <td>0</td>
                <td>0</td>
                <td>0</td>
                <td>9</td>
                <td>11</td>
                <td>0.00</td>
                <td>
                    <input type="button" value="View" style="width:30px" class="formbutton" onclick="openmypage('popup_report.php?action=emp_job_card_report&emp_code=0000388&emp_name=Md. Mahbub Zaman                      &date_part_from=2015-04-01&date_part_to=2015-04-30&status=JC','Partial Attendance'); return false"/>
                </td>
            </tr>
								
            <tr bgcolor="#E9F3FF">
            	<td height='50'>12</td>
                <td height='50'>0000421</td>
                <td>02107</td>
                <td>Md. Mamun  </td>
                <td align='left'>Side Engineer</td>
                <td>22-01-2014</td>
                
                <td>12</td>
                 <td>
                 	<a href='#' onclick="openmypage('popup_report.php?action=emp_job_card_report&emp_code=0000421&emp_name=Md. Mamun                      &date_part_from=2015-04-01&date_part_to=2015-04-30&status=P','Partial Attendance'); return false">0</a>
                </td>
                <td>
                	<a href='#' onclick="openmypage('popup_report.php?action=emp_job_card_report&emp_code=0000421&emp_name=Md. Mamun                      &date_part_from=2015-04-01&date_part_to=2015-04-30&status=A','Partial Attendance'); return false">10</a>
                </td>
                <td bgcolor="">&nbsp;
                	<a href='#' onclick="openmypage('popup_report.php?action=emp_job_card_report&emp_code=0000421&emp_name=Md. Mamun                      &date_part_from=2015-04-01&date_part_to=2015-04-30&status=D','Partial Attendance'); return false">0</a>
                </td>
                <td bgcolor="">&nbsp;
                	<a href='#' onclick="openmypage('popup_report.php?action=emp_job_card_report_e_out&emp_code=0000421&emp_name=Md. Mamun                      &date_part_from=2015-04-01&date_part_to=2015-04-30&status=EO','Partial Attendance'); return false">0</a>
                </td>
                <td>
                	<a href='#' onclick="openmypage('popup_report.php?action=emp_job_card_report&emp_code=0000421&emp_name=Md. Mamun                      &date_part_from=2015-04-01&date_part_to=2015-04-30&status=CL','Partial Attendance'); return false">0                    </a>
                </td>
                <td>
                    <a href='#' onclick="openmypage('popup_report.php?action=emp_job_card_report&emp_code=0000421&emp_name=Md. Mamun                      &date_part_from=2015-04-01&date_part_to=2015-04-30&status=MR','Partial Attendance'); return false">0                    </a>
                </td>						
                <td>
                    <a href='#' onclick="openmypage('popup_report.php?action=emp_job_card_report&emp_code=0000421&emp_name=Md. Mamun                      &date_part_from=2015-04-01&date_part_to=2015-04-30&status=W','Partial Attendance'); return false">2                    </a>
                </td>
                <td>
                    <a href='#' onclick="openmypage('popup_report.php?action=emp_job_card_report&emp_code=0000421&emp_name=Md. Mamun                      &date_part_from=2015-04-01&date_part_to=2015-04-30&status=H','Partial Attendance'); return false">0                    </a>
                </td>
                <td>0</td>
                <td>0</td>
                <td>0</td>
                <td>0</td>
                <td>2</td>
                <td>0.00</td>
                <td>
                    <input type="button" value="View" style="width:30px" class="formbutton" onclick="openmypage('popup_report.php?action=emp_job_card_report&emp_code=0000421&emp_name=Md. Mamun                      &date_part_from=2015-04-01&date_part_to=2015-04-30&status=JC','Partial Attendance'); return false"/>
                </td>
            </tr>
								
            <tr bgcolor="#FFFFFF">
            	<td height='50'>13</td>
                <td height='50'>0000424</td>
                <td>02115</td>
                <td>Md. Ibrahim Khalil  </td>
                <td align='left'>Quring Man</td>
                <td>17-12-2014</td>
                
                <td>12</td>
                 <td>
                 	<a href='#' onclick="openmypage('popup_report.php?action=emp_job_card_report&emp_code=0000424&emp_name=Md. Ibrahim Khalil                      &date_part_from=2015-04-01&date_part_to=2015-04-30&status=P','Partial Attendance'); return false">0</a>
                </td>
                <td>
                	<a href='#' onclick="openmypage('popup_report.php?action=emp_job_card_report&emp_code=0000424&emp_name=Md. Ibrahim Khalil                      &date_part_from=2015-04-01&date_part_to=2015-04-30&status=A','Partial Attendance'); return false">10</a>
                </td>
                <td bgcolor="">&nbsp;
                	<a href='#' onclick="openmypage('popup_report.php?action=emp_job_card_report&emp_code=0000424&emp_name=Md. Ibrahim Khalil                      &date_part_from=2015-04-01&date_part_to=2015-04-30&status=D','Partial Attendance'); return false">0</a>
                </td>
                <td bgcolor="">&nbsp;
                	<a href='#' onclick="openmypage('popup_report.php?action=emp_job_card_report_e_out&emp_code=0000424&emp_name=Md. Ibrahim Khalil                      &date_part_from=2015-04-01&date_part_to=2015-04-30&status=EO','Partial Attendance'); return false">0</a>
                </td>
                <td>
                	<a href='#' onclick="openmypage('popup_report.php?action=emp_job_card_report&emp_code=0000424&emp_name=Md. Ibrahim Khalil                      &date_part_from=2015-04-01&date_part_to=2015-04-30&status=CL','Partial Attendance'); return false">0                    </a>
                </td>
                <td>
                    <a href='#' onclick="openmypage('popup_report.php?action=emp_job_card_report&emp_code=0000424&emp_name=Md. Ibrahim Khalil                      &date_part_from=2015-04-01&date_part_to=2015-04-30&status=MR','Partial Attendance'); return false">0                    </a>
                </td>						
                <td>
                    <a href='#' onclick="openmypage('popup_report.php?action=emp_job_card_report&emp_code=0000424&emp_name=Md. Ibrahim Khalil                      &date_part_from=2015-04-01&date_part_to=2015-04-30&status=W','Partial Attendance'); return false">2                    </a>
                </td>
                <td>
                    <a href='#' onclick="openmypage('popup_report.php?action=emp_job_card_report&emp_code=0000424&emp_name=Md. Ibrahim Khalil                      &date_part_from=2015-04-01&date_part_to=2015-04-30&status=H','Partial Attendance'); return false">0                    </a>
                </td>
                <td>0</td>
                <td>0</td>
                <td>0</td>
                <td>0</td>
                <td>2</td>
                <td>0.00</td>
                <td>
                    <input type="button" value="View" style="width:30px" class="formbutton" onclick="openmypage('popup_report.php?action=emp_job_card_report&emp_code=0000424&emp_name=Md. Ibrahim Khalil                      &date_part_from=2015-04-01&date_part_to=2015-04-30&status=JC','Partial Attendance'); return false"/>
                </td>
            </tr>
								
            <tr bgcolor="#E9F3FF">
            	<td height='50'>14</td>
                <td height='50'>0000423</td>
                <td>02112</td>
                <td>Md. Didarul Alam  </td>
                <td align='left'>Side Engineer</td>
                <td>12-11-2014</td>
                
                <td>12</td>
                 <td>
                 	<a href='#' onclick="openmypage('popup_report.php?action=emp_job_card_report&emp_code=0000423&emp_name=Md. Didarul Alam                      &date_part_from=2015-04-01&date_part_to=2015-04-30&status=P','Partial Attendance'); return false">0</a>
                </td>
                <td>
                	<a href='#' onclick="openmypage('popup_report.php?action=emp_job_card_report&emp_code=0000423&emp_name=Md. Didarul Alam                      &date_part_from=2015-04-01&date_part_to=2015-04-30&status=A','Partial Attendance'); return false">10</a>
                </td>
                <td bgcolor="">&nbsp;
                	<a href='#' onclick="openmypage('popup_report.php?action=emp_job_card_report&emp_code=0000423&emp_name=Md. Didarul Alam                      &date_part_from=2015-04-01&date_part_to=2015-04-30&status=D','Partial Attendance'); return false">0</a>
                </td>
                <td bgcolor="">&nbsp;
                	<a href='#' onclick="openmypage('popup_report.php?action=emp_job_card_report_e_out&emp_code=0000423&emp_name=Md. Didarul Alam                      &date_part_from=2015-04-01&date_part_to=2015-04-30&status=EO','Partial Attendance'); return false">0</a>
                </td>
                <td>
                	<a href='#' onclick="openmypage('popup_report.php?action=emp_job_card_report&emp_code=0000423&emp_name=Md. Didarul Alam                      &date_part_from=2015-04-01&date_part_to=2015-04-30&status=CL','Partial Attendance'); return false">0                    </a>
                </td>
                <td>
                    <a href='#' onclick="openmypage('popup_report.php?action=emp_job_card_report&emp_code=0000423&emp_name=Md. Didarul Alam                      &date_part_from=2015-04-01&date_part_to=2015-04-30&status=MR','Partial Attendance'); return false">0                    </a>
                </td>						
                <td>
                    <a href='#' onclick="openmypage('popup_report.php?action=emp_job_card_report&emp_code=0000423&emp_name=Md. Didarul Alam                      &date_part_from=2015-04-01&date_part_to=2015-04-30&status=W','Partial Attendance'); return false">2                    </a>
                </td>
                <td>
                    <a href='#' onclick="openmypage('popup_report.php?action=emp_job_card_report&emp_code=0000423&emp_name=Md. Didarul Alam                      &date_part_from=2015-04-01&date_part_to=2015-04-30&status=H','Partial Attendance'); return false">0                    </a>
                </td>
                <td>0</td>
                <td>0</td>
                <td>0</td>
                <td>0</td>
                <td>2</td>
                <td>0.00</td>
                <td>
                    <input type="button" value="View" style="width:30px" class="formbutton" onclick="openmypage('popup_report.php?action=emp_job_card_report&emp_code=0000423&emp_name=Md. Didarul Alam                      &date_part_from=2015-04-01&date_part_to=2015-04-30&status=JC','Partial Attendance'); return false"/>
                </td>
            </tr>
								
            <tr bgcolor="#FFFFFF">
            	<td height='50'>15</td>
                <td height='50'>0000422</td>
                <td>02110</td>
                <td>Showrab Hossain  </td>
                <td align='left'>Side Engineer</td>
                <td>15-11-2014</td>
                
                <td>12</td>
                 <td>
                 	<a href='#' onclick="openmypage('popup_report.php?action=emp_job_card_report&emp_code=0000422&emp_name=Showrab Hossain                      &date_part_from=2015-04-01&date_part_to=2015-04-30&status=P','Partial Attendance'); return false">0</a>
                </td>
                <td>
                	<a href='#' onclick="openmypage('popup_report.php?action=emp_job_card_report&emp_code=0000422&emp_name=Showrab Hossain                      &date_part_from=2015-04-01&date_part_to=2015-04-30&status=A','Partial Attendance'); return false">10</a>
                </td>
                <td bgcolor="">&nbsp;
                	<a href='#' onclick="openmypage('popup_report.php?action=emp_job_card_report&emp_code=0000422&emp_name=Showrab Hossain                      &date_part_from=2015-04-01&date_part_to=2015-04-30&status=D','Partial Attendance'); return false">0</a>
                </td>
                <td bgcolor="">&nbsp;
                	<a href='#' onclick="openmypage('popup_report.php?action=emp_job_card_report_e_out&emp_code=0000422&emp_name=Showrab Hossain                      &date_part_from=2015-04-01&date_part_to=2015-04-30&status=EO','Partial Attendance'); return false">0</a>
                </td>
                <td>
                	<a href='#' onclick="openmypage('popup_report.php?action=emp_job_card_report&emp_code=0000422&emp_name=Showrab Hossain                      &date_part_from=2015-04-01&date_part_to=2015-04-30&status=CL','Partial Attendance'); return false">0                    </a>
                </td>
                <td>
                    <a href='#' onclick="openmypage('popup_report.php?action=emp_job_card_report&emp_code=0000422&emp_name=Showrab Hossain                      &date_part_from=2015-04-01&date_part_to=2015-04-30&status=MR','Partial Attendance'); return false">0                    </a>
                </td>						
                <td>
                    <a href='#' onclick="openmypage('popup_report.php?action=emp_job_card_report&emp_code=0000422&emp_name=Showrab Hossain                      &date_part_from=2015-04-01&date_part_to=2015-04-30&status=W','Partial Attendance'); return false">2                    </a>
                </td>
                <td>
                    <a href='#' onclick="openmypage('popup_report.php?action=emp_job_card_report&emp_code=0000422&emp_name=Showrab Hossain                      &date_part_from=2015-04-01&date_part_to=2015-04-30&status=H','Partial Attendance'); return false">0                    </a>
                </td>
                <td>0</td>
                <td>0</td>
                <td>0</td>
                <td>0</td>
                <td>2</td>
                <td>0.00</td>
                <td>
                    <input type="button" value="View" style="width:30px" class="formbutton" onclick="openmypage('popup_report.php?action=emp_job_card_report&emp_code=0000422&emp_name=Showrab Hossain                      &date_part_from=2015-04-01&date_part_to=2015-04-30&status=JC','Partial Attendance'); return false"/>
                </td>
            </tr>
								
            <tr bgcolor="#E9F3FF">
            	<td height='50'>16</td>
                <td height='50'>0000398</td>
                <td>02031</td>
                <td>Md. Bashir Miah  </td>
                <td align='left'>Driver</td>
                <td>27-03-2009</td>
                
                <td>12</td>
                 <td>
                 	<a href='#' onclick="openmypage('popup_report.php?action=emp_job_card_report&emp_code=0000398&emp_name=Md. Bashir Miah                      &date_part_from=2015-04-01&date_part_to=2015-04-30&status=P','Partial Attendance'); return false">0</a>
                </td>
                <td>
                	<a href='#' onclick="openmypage('popup_report.php?action=emp_job_card_report&emp_code=0000398&emp_name=Md. Bashir Miah                      &date_part_from=2015-04-01&date_part_to=2015-04-30&status=A','Partial Attendance'); return false">10</a>
                </td>
                <td bgcolor="">&nbsp;
                	<a href='#' onclick="openmypage('popup_report.php?action=emp_job_card_report&emp_code=0000398&emp_name=Md. Bashir Miah                      &date_part_from=2015-04-01&date_part_to=2015-04-30&status=D','Partial Attendance'); return false">0</a>
                </td>
                <td bgcolor="">&nbsp;
                	<a href='#' onclick="openmypage('popup_report.php?action=emp_job_card_report_e_out&emp_code=0000398&emp_name=Md. Bashir Miah                      &date_part_from=2015-04-01&date_part_to=2015-04-30&status=EO','Partial Attendance'); return false">0</a>
                </td>
                <td>
                	<a href='#' onclick="openmypage('popup_report.php?action=emp_job_card_report&emp_code=0000398&emp_name=Md. Bashir Miah                      &date_part_from=2015-04-01&date_part_to=2015-04-30&status=CL','Partial Attendance'); return false">0                    </a>
                </td>
                <td>
                    <a href='#' onclick="openmypage('popup_report.php?action=emp_job_card_report&emp_code=0000398&emp_name=Md. Bashir Miah                      &date_part_from=2015-04-01&date_part_to=2015-04-30&status=MR','Partial Attendance'); return false">0                    </a>
                </td>						
                <td>
                    <a href='#' onclick="openmypage('popup_report.php?action=emp_job_card_report&emp_code=0000398&emp_name=Md. Bashir Miah                      &date_part_from=2015-04-01&date_part_to=2015-04-30&status=W','Partial Attendance'); return false">2                    </a>
                </td>
                <td>
                    <a href='#' onclick="openmypage('popup_report.php?action=emp_job_card_report&emp_code=0000398&emp_name=Md. Bashir Miah                      &date_part_from=2015-04-01&date_part_to=2015-04-30&status=H','Partial Attendance'); return false">0                    </a>
                </td>
                <td>0</td>
                <td>0</td>
                <td>0</td>
                <td>0</td>
                <td>2</td>
                <td>0.00</td>
                <td>
                    <input type="button" value="View" style="width:30px" class="formbutton" onclick="openmypage('popup_report.php?action=emp_job_card_report&emp_code=0000398&emp_name=Md. Bashir Miah                      &date_part_from=2015-04-01&date_part_to=2015-04-30&status=JC','Partial Attendance'); return false"/>
                </td>
            </tr>
								
            <tr bgcolor="#FFFFFF">
            	<td height='50'>17</td>
                <td height='50'>0000408</td>
                <td>02119</td>
                <td>Md. Reaz Hossain  </td>
                <td align='left'>Driver</td>
                <td>04-12-2014</td>
                
                <td>12</td>
                 <td>
                 	<a href='#' onclick="openmypage('popup_report.php?action=emp_job_card_report&emp_code=0000408&emp_name=Md. Reaz Hossain                      &date_part_from=2015-04-01&date_part_to=2015-04-30&status=P','Partial Attendance'); return false">0</a>
                </td>
                <td>
                	<a href='#' onclick="openmypage('popup_report.php?action=emp_job_card_report&emp_code=0000408&emp_name=Md. Reaz Hossain                      &date_part_from=2015-04-01&date_part_to=2015-04-30&status=A','Partial Attendance'); return false">10</a>
                </td>
                <td bgcolor="">&nbsp;
                	<a href='#' onclick="openmypage('popup_report.php?action=emp_job_card_report&emp_code=0000408&emp_name=Md. Reaz Hossain                      &date_part_from=2015-04-01&date_part_to=2015-04-30&status=D','Partial Attendance'); return false">0</a>
                </td>
                <td bgcolor="">&nbsp;
                	<a href='#' onclick="openmypage('popup_report.php?action=emp_job_card_report_e_out&emp_code=0000408&emp_name=Md. Reaz Hossain                      &date_part_from=2015-04-01&date_part_to=2015-04-30&status=EO','Partial Attendance'); return false">0</a>
                </td>
                <td>
                	<a href='#' onclick="openmypage('popup_report.php?action=emp_job_card_report&emp_code=0000408&emp_name=Md. Reaz Hossain                      &date_part_from=2015-04-01&date_part_to=2015-04-30&status=CL','Partial Attendance'); return false">0                    </a>
                </td>
                <td>
                    <a href='#' onclick="openmypage('popup_report.php?action=emp_job_card_report&emp_code=0000408&emp_name=Md. Reaz Hossain                      &date_part_from=2015-04-01&date_part_to=2015-04-30&status=MR','Partial Attendance'); return false">0                    </a>
                </td>						
                <td>
                    <a href='#' onclick="openmypage('popup_report.php?action=emp_job_card_report&emp_code=0000408&emp_name=Md. Reaz Hossain                      &date_part_from=2015-04-01&date_part_to=2015-04-30&status=W','Partial Attendance'); return false">2                    </a>
                </td>
                <td>
                    <a href='#' onclick="openmypage('popup_report.php?action=emp_job_card_report&emp_code=0000408&emp_name=Md. Reaz Hossain                      &date_part_from=2015-04-01&date_part_to=2015-04-30&status=H','Partial Attendance'); return false">0                    </a>
                </td>
                <td>0</td>
                <td>0</td>
                <td>0</td>
                <td>0</td>
                <td>2</td>
                <td>0.00</td>
                <td>
                    <input type="button" value="View" style="width:30px" class="formbutton" onclick="openmypage('popup_report.php?action=emp_job_card_report&emp_code=0000408&emp_name=Md. Reaz Hossain                      &date_part_from=2015-04-01&date_part_to=2015-04-30&status=JC','Partial Attendance'); return false"/>
                </td>
            </tr>
								
            <tr bgcolor="#E9F3FF">
            	<td height='50'>18</td>
                <td height='50'>0000407</td>
                <td>02118</td>
                <td>Md. Azizul Islam  </td>
                <td align='left'>Driver</td>
                <td>01-12-2014</td>
                
                <td>12</td>
                 <td>
                 	<a href='#' onclick="openmypage('popup_report.php?action=emp_job_card_report&emp_code=0000407&emp_name=Md. Azizul Islam                      &date_part_from=2015-04-01&date_part_to=2015-04-30&status=P','Partial Attendance'); return false">0</a>
                </td>
                <td>
                	<a href='#' onclick="openmypage('popup_report.php?action=emp_job_card_report&emp_code=0000407&emp_name=Md. Azizul Islam                      &date_part_from=2015-04-01&date_part_to=2015-04-30&status=A','Partial Attendance'); return false">10</a>
                </td>
                <td bgcolor="">&nbsp;
                	<a href='#' onclick="openmypage('popup_report.php?action=emp_job_card_report&emp_code=0000407&emp_name=Md. Azizul Islam                      &date_part_from=2015-04-01&date_part_to=2015-04-30&status=D','Partial Attendance'); return false">0</a>
                </td>
                <td bgcolor="">&nbsp;
                	<a href='#' onclick="openmypage('popup_report.php?action=emp_job_card_report_e_out&emp_code=0000407&emp_name=Md. Azizul Islam                      &date_part_from=2015-04-01&date_part_to=2015-04-30&status=EO','Partial Attendance'); return false">0</a>
                </td>
                <td>
                	<a href='#' onclick="openmypage('popup_report.php?action=emp_job_card_report&emp_code=0000407&emp_name=Md. Azizul Islam                      &date_part_from=2015-04-01&date_part_to=2015-04-30&status=CL','Partial Attendance'); return false">0                    </a>
                </td>
                <td>
                    <a href='#' onclick="openmypage('popup_report.php?action=emp_job_card_report&emp_code=0000407&emp_name=Md. Azizul Islam                      &date_part_from=2015-04-01&date_part_to=2015-04-30&status=MR','Partial Attendance'); return false">0                    </a>
                </td>						
                <td>
                    <a href='#' onclick="openmypage('popup_report.php?action=emp_job_card_report&emp_code=0000407&emp_name=Md. Azizul Islam                      &date_part_from=2015-04-01&date_part_to=2015-04-30&status=W','Partial Attendance'); return false">2                    </a>
                </td>
                <td>
                    <a href='#' onclick="openmypage('popup_report.php?action=emp_job_card_report&emp_code=0000407&emp_name=Md. Azizul Islam                      &date_part_from=2015-04-01&date_part_to=2015-04-30&status=H','Partial Attendance'); return false">0                    </a>
                </td>
                <td>0</td>
                <td>0</td>
                <td>0</td>
                <td>0</td>
                <td>2</td>
                <td>0.00</td>
                <td>
                    <input type="button" value="View" style="width:30px" class="formbutton" onclick="openmypage('popup_report.php?action=emp_job_card_report&emp_code=0000407&emp_name=Md. Azizul Islam                      &date_part_from=2015-04-01&date_part_to=2015-04-30&status=JC','Partial Attendance'); return false"/>
                </td>
            </tr>
								
            <tr bgcolor="#FFFFFF">
            	<td height='50'>19</td>
                <td height='50'>0000385</td>
                <td>02028</td>
                <td>Md. Shafiqul Islam  </td>
                <td align='left'>Peon </td>
                <td>01-01-2012</td>
                
                <td>12</td>
                 <td>
                 	<a href='#' onclick="openmypage('popup_report.php?action=emp_job_card_report&emp_code=0000385&emp_name=Md. Shafiqul Islam                      &date_part_from=2015-04-01&date_part_to=2015-04-30&status=P','Partial Attendance'); return false">9</a>
                </td>
                <td>
                	<a href='#' onclick="openmypage('popup_report.php?action=emp_job_card_report&emp_code=0000385&emp_name=Md. Shafiqul Islam                      &date_part_from=2015-04-01&date_part_to=2015-04-30&status=A','Partial Attendance'); return false">0</a>
                </td>
                <td bgcolor="">&nbsp;
                	<a href='#' onclick="openmypage('popup_report.php?action=emp_job_card_report&emp_code=0000385&emp_name=Md. Shafiqul Islam                      &date_part_from=2015-04-01&date_part_to=2015-04-30&status=D','Partial Attendance'); return false">1</a>
                </td>
                <td bgcolor="">&nbsp;
                	<a href='#' onclick="openmypage('popup_report.php?action=emp_job_card_report_e_out&emp_code=0000385&emp_name=Md. Shafiqul Islam                      &date_part_from=2015-04-01&date_part_to=2015-04-30&status=EO','Partial Attendance'); return false">0</a>
                </td>
                <td>
                	<a href='#' onclick="openmypage('popup_report.php?action=emp_job_card_report&emp_code=0000385&emp_name=Md. Shafiqul Islam                      &date_part_from=2015-04-01&date_part_to=2015-04-30&status=CL','Partial Attendance'); return false">0                    </a>
                </td>
                <td>
                    <a href='#' onclick="openmypage('popup_report.php?action=emp_job_card_report&emp_code=0000385&emp_name=Md. Shafiqul Islam                      &date_part_from=2015-04-01&date_part_to=2015-04-30&status=MR','Partial Attendance'); return false">0                    </a>
                </td>						
                <td>
                    <a href='#' onclick="openmypage('popup_report.php?action=emp_job_card_report&emp_code=0000385&emp_name=Md. Shafiqul Islam                      &date_part_from=2015-04-01&date_part_to=2015-04-30&status=W','Partial Attendance'); return false">2                    </a>
                </td>
                <td>
                    <a href='#' onclick="openmypage('popup_report.php?action=emp_job_card_report&emp_code=0000385&emp_name=Md. Shafiqul Islam                      &date_part_from=2015-04-01&date_part_to=2015-04-30&status=H','Partial Attendance'); return false">0                    </a>
                </td>
                <td>0</td>
                <td>0</td>
                <td>0</td>
                <td>10</td>
                <td>12</td>
                <td>0.00</td>
                <td>
                    <input type="button" value="View" style="width:30px" class="formbutton" onclick="openmypage('popup_report.php?action=emp_job_card_report&emp_code=0000385&emp_name=Md. Shafiqul Islam                      &date_part_from=2015-04-01&date_part_to=2015-04-30&status=JC','Partial Attendance'); return false"/>
                </td>
            </tr>
				</table> 
	</div>