<div>    <div align="center" style="width:1300px; font-size:16px"><b></b></div>
	<table cellpadding="0" width="1280" cellspacing="0" border="1" class="rpt_table" rules="all">
		<thead>
             	<th width='38'>SL</th>
                <th width='85'>Emp Code</th>
                <th width='80'>ID Card</th>
                <th width='168'>Emp Name</th>
                <th width='120'>Designation</th>
                <th width='120'>Join Date</th>
                
                <th width='36'>Total Days</th>
                <th width='53'>Present</th>
                <th width='51'>Absent</th>
                <th width='38'>Late</th>
                <th width='30'>E.Out</th>
                <th width='45'>Leave</th>
                <th width='32'>MR</th>
                
                <th width='30'>WOD</th>
                <th width='30'>HD</th>
                <th width='32'>PL</th>
                <th width='30'>PW</th>
                <th width='32'>PH</th>
                <th width='50'>Total Present</th>
                <th width='57'>Payable Days</th>
                <th width='50'>Monthly OT</th>
                <th>Job Card</th>
    	</thead>
        <!--</table>
        <table  cellpadding="0" width="1230" cellspacing="0" border="1" class="rpt_table" id="table_body" >	--> 

		</table> 
	</div>