<div>	<style type="text/css" media="print">
    p{ page-break-after: always;}
    </style>	
    <!--<div style=" border:1px solid #7F7FFF; width:1300px;">-->
	<table width="1280" cellpadding="0" cellspacing="0" border="1" style="font-size:11px;font-family:Arial" class="rpt_table" rules="all">
        <tr>
            <td colspan="17" align="center" style="border:hidden"><font size="+1">
                Peak Apparels Ltd.</font><br />
                <br />
                <font size="+0"> Daily Punch Report On 27-08-2015</font><br />
            </td>
        </tr>
    </table>
       	<!--<div style="width:1700px;margin-top:15px;" class="page" align="center">-->
    <div style="width:1300px;">
    <table cellpadding="0" cellspacing="0" border="1" class="rpt_table" style="font-size:10px;" width="1280" rules="all" align="left">
        <thead>
            <tr>
                <th width="30"><b>SL</b></th>
                <th width="50"><b>Emp Code</b></th>
                <th width="80"><b>Punch Card</b></th>
                <th width="130"><b>Name</b></th>
                <th width="120"><b>Designation</b></th>
                <th width="100"><b>Department</b></th>
                <th width="100"><b>Section</b></th>
                <th width="100"><b>Sub Section</b></th>
                <th width="70"><b>Attnd. Date</b></th>
                <th width="50"><b>ID Card</b></th>
                <th width="60"><b>In Time</b></th>
                <th width="60"><b>Out Time</b></th>
                <th width="50"><b>Status</b></th>
                <th width="40"><b>Late Min</b></th>
                <th width="40"><b>OT</b></th>
                <th width="80"><b>Shift Name</b></th>
                <th><b>Remarks</b></th>
            </tr>
    	</thead>
    </table>
    </div>
        <div style="width:1300px; overflow-y:scroll;" id="scroll_body">
    <table cellpadding="0" cellspacing="0" border="1" class="rpt_table" style="font-size:10px;" width="1280" rules="all" id="table_body" align="left">
	        <tr bgcolor="#FFFFFF">
            <td width="30" align="center">1</td>
            <td width="50">0000007</td>
            <td width="80">0004298384</td>
            <td width="130">
				Mst. Roksana  Khatun<br />cell: 01950952987            </td>
            <td width="120">Sr. S.M. Operator</td>
            <td width="100">Sewing</td>						
            <td width="100">Sewing</td>
            <td width="100">Line-1</td>
            <td width="70">27-08-2015</td>
            <td width="50"><p>00001</p></td>
            <td width="60"><b>00:00</b></td>
            <td width="60"><b>00:00</b></td>
            <td width="50" align="center">A</td>
            <td width="40" align="center">0</td>
            <td width="40" align="center">0</td>
            <td width="80">General Shift Worker</td>
            <td></td>	
        </tr>
		        <tr bgcolor="#EEEEEE">
            <td width="30" align="center">2</td>
            <td width="50">0000041</td>
            <td width="80">0004322160</td>
            <td width="130">
				Mst. Maleka  <br />cell: 01930640041            </td>
            <td width="120">S.M Operator</td>
            <td width="100">Sewing</td>						
            <td width="100">Sewing</td>
            <td width="100">Line-5</td>
            <td width="70">27-08-2015</td>
            <td width="50"><p>00002</p></td>
            <td width="60"><b>00:00</b></td>
            <td width="60"><b>00:00</b></td>
            <td width="50" align="center">A</td>
            <td width="40" align="center">0</td>
            <td width="40" align="center">0</td>
            <td width="80">General Shift Worker</td>
            <td></td>	
        </tr>
		        <tr bgcolor="#FFFFFF">
            <td width="30" align="center">3</td>
            <td width="50">0000015</td>
            <td width="80">0004308476</td>
            <td width="130">
				Arjina  <br />cell: 01760396463            </td>
            <td width="120">S.M Operator</td>
            <td width="100">Sewing</td>						
            <td width="100">Sewing</td>
            <td width="100">Line-5</td>
            <td width="70">27-08-2015</td>
            <td width="50"><p>00012</p></td>
            <td width="60"><b>00:00</b></td>
            <td width="60"><b>00:00</b></td>
            <td width="50" align="center">A</td>
            <td width="40" align="center">0</td>
            <td width="40" align="center">0</td>
            <td width="80">General Shift Worker</td>
            <td></td>	
        </tr>
		        <tr bgcolor="#EEEEEE">
            <td width="30" align="center">4</td>
            <td width="50">0000040</td>
            <td width="80">0004322163</td>
            <td width="130">
				Mst. Sharmin  Akhter<br />cell: 01767719534            </td>
            <td width="120">Asst. Needle Man</td>
            <td width="100">Sewing</td>						
            <td width="100">Sewing</td>
            <td width="100">Line-7</td>
            <td width="70">27-08-2015</td>
            <td width="50"><p>00037</p></td>
            <td width="60"><b>00:00</b></td>
            <td width="60"><b>00:00</b></td>
            <td width="50" align="center">A</td>
            <td width="40" align="center">0</td>
            <td width="40" align="center">0</td>
            <td width="80">General Shift Worker</td>
            <td></td>	
        </tr>
		        <tr bgcolor="#FFFFFF">
            <td width="30" align="center">5</td>
            <td width="50">0000115</td>
            <td width="80">0004321240</td>
            <td width="130">
				Papiya  Akter<br />cell:             </td>
            <td width="120">Gen. S.M Operator</td>
            <td width="100">Sewing</td>						
            <td width="100">Sewing</td>
            <td width="100">Line-3</td>
            <td width="70">27-08-2015</td>
            <td width="50"><p>00068</p></td>
            <td width="60"><b>00:00</b></td>
            <td width="60"><b>00:00</b></td>
            <td width="50" align="center">A</td>
            <td width="40" align="center">0</td>
            <td width="40" align="center">0</td>
            <td width="80">General Shift Worker</td>
            <td></td>	
        </tr>
		        <tr bgcolor="#EEEEEE">
            <td width="30" align="center">6</td>
            <td width="50">0000147</td>
            <td width="80">0004310106</td>
            <td width="130">
				Mst.Jaitun AKter  <br />cell:             </td>
            <td width="120">Jr. S.M Operator</td>
            <td width="100">Sewing</td>						
            <td width="100">Sewing</td>
            <td width="100">Line-1</td>
            <td width="70">27-08-2015</td>
            <td width="50"><p>00076</p></td>
            <td width="60"><b>00:00</b></td>
            <td width="60"><b>00:00</b></td>
            <td width="50" align="center">A</td>
            <td width="40" align="center">0</td>
            <td width="40" align="center">0</td>
            <td width="80">General Shift Worker</td>
            <td></td>	
        </tr>
		        <tr bgcolor="#FFFFFF">
            <td width="30" align="center">7</td>
            <td width="50">0000272</td>
            <td width="80">0003569864</td>
            <td width="130">
				Mst.Shajida   Begum<br />cell:             </td>
            <td width="120">Gen. S.M Operator</td>
            <td width="100">Sewing</td>						
            <td width="100">Sewing</td>
            <td width="100">Line-5</td>
            <td width="70">27-08-2015</td>
            <td width="50"><p>00098</p></td>
            <td width="60"><b>00:00</b></td>
            <td width="60"><b>00:00</b></td>
            <td width="50" align="center">A</td>
            <td width="40" align="center">0</td>
            <td width="40" align="center">0</td>
            <td width="80">General Shift Worker</td>
            <td></td>	
        </tr>
		        <tr bgcolor="#EEEEEE">
            <td width="30" align="center">8</td>
            <td width="50">0000267</td>
            <td width="80">0008108704</td>
            <td width="130">
				Dilip Chandra   Sarker<br />cell:             </td>
            <td width="120">Supervisor</td>
            <td width="100">Sewing</td>						
            <td width="100">Sewing</td>
            <td width="100"></td>
            <td width="70">27-08-2015</td>
            <td width="50"><p>00113</p></td>
            <td width="60"><b>00:00</b></td>
            <td width="60"><b>00:00</b></td>
            <td width="50" align="center">A</td>
            <td width="40" align="center">0</td>
            <td width="40" align="center">0</td>
            <td width="80">General Staff</td>
            <td></td>	
        </tr>
		        <tr bgcolor="#FFFFFF">
            <td width="30" align="center">9</td>
            <td width="50">0000287</td>
            <td width="80">0008150670</td>
            <td width="130">
				Mst. Sheuly  Begum<br />cell:             </td>
            <td width="120">Jr. S.M Operator</td>
            <td width="100">Sewing</td>						
            <td width="100">Sewing</td>
            <td width="100">Line-1</td>
            <td width="70">27-08-2015</td>
            <td width="50"><p>00124</p></td>
            <td width="60"><b>00:00</b></td>
            <td width="60"><b>00:00</b></td>
            <td width="50" align="center">A</td>
            <td width="40" align="center">0</td>
            <td width="40" align="center">0</td>
            <td width="80">General Shift Worker</td>
            <td></td>	
        </tr>
		        <tr bgcolor="#EEEEEE">
            <td width="30" align="center">10</td>
            <td width="50">0000289</td>
            <td width="80">0003582457</td>
            <td width="130">
				Ibrahim Khalil  <br />cell:             </td>
            <td width="120">Asst. Input Man</td>
            <td width="100">Sewing</td>						
            <td width="100">Sewing</td>
            <td width="100">Line-7</td>
            <td width="70">27-08-2015</td>
            <td width="50"><p>00126</p></td>
            <td width="60"><b>00:00</b></td>
            <td width="60"><b>00:00</b></td>
            <td width="50" align="center">A</td>
            <td width="40" align="center">0</td>
            <td width="40" align="center">0</td>
            <td width="80">General Shift Worker</td>
            <td></td>	
        </tr>
		        <tr bgcolor="#FFFFFF">
            <td width="30" align="center">11</td>
            <td width="50">0000103</td>
            <td width="80">0004318680</td>
            <td width="130">
				Masuda  Khatun<br />cell:             </td>
            <td width="120">Gen. S.M Operator</td>
            <td width="100">Sewing</td>						
            <td width="100">Sewing</td>
            <td width="100">Line-1</td>
            <td width="70">27-08-2015</td>
            <td width="50"><p>00134</p></td>
            <td width="60"><b>00:00</b></td>
            <td width="60"><b>00:00</b></td>
            <td width="50" align="center">A</td>
            <td width="40" align="center">0</td>
            <td width="40" align="center">0</td>
            <td width="80">General Shift Worker</td>
            <td></td>	
        </tr>
		        <tr bgcolor="#EEEEEE">
            <td width="30" align="center">12</td>
            <td width="50">0000363</td>
            <td width="80">0005223413</td>
            <td width="130">
				Jayda Khatun  <br />cell:             </td>
            <td width="120">Gen. S.M Operator</td>
            <td width="100">Sewing</td>						
            <td width="100">Sewing</td>
            <td width="100">Line-1</td>
            <td width="70">27-08-2015</td>
            <td width="50"><p>00157</p></td>
            <td width="60"><b>00:00</b></td>
            <td width="60"><b>00:00</b></td>
            <td width="50" align="center">A</td>
            <td width="40" align="center">0</td>
            <td width="40" align="center">0</td>
            <td width="80">General Shift Worker</td>
            <td></td>	
        </tr>
		        <tr bgcolor="#FFFFFF">
            <td width="30" align="center">13</td>
            <td width="50">0000491</td>
            <td width="80">0008682574</td>
            <td width="130">
				Mst. Asma Khatun  <br />cell:             </td>
            <td width="120">Gen. S.M Operator</td>
            <td width="100">Sewing</td>						
            <td width="100">Sewing</td>
            <td width="100">Line-5</td>
            <td width="70">27-08-2015</td>
            <td width="50"><p>00202</p></td>
            <td width="60"><b>00:00</b></td>
            <td width="60"><b>00:00</b></td>
            <td width="50" align="center">A</td>
            <td width="40" align="center">0</td>
            <td width="40" align="center">0</td>
            <td width="80">General Shift Worker</td>
            <td></td>	
        </tr>
		        <tr bgcolor="#EEEEEE">
            <td width="30" align="center">14</td>
            <td width="50">0000515</td>
            <td width="80">0008692497</td>
            <td width="130">
				Anoara Begum  <br />cell:             </td>
            <td width="120">S.M Operator</td>
            <td width="100">Sewing</td>						
            <td width="100">Sewing</td>
            <td width="100">Line-6</td>
            <td width="70">27-08-2015</td>
            <td width="50"><p>00213</p></td>
            <td width="60"><b>00:00</b></td>
            <td width="60"><b>00:00</b></td>
            <td width="50" align="center">A</td>
            <td width="40" align="center">0</td>
            <td width="40" align="center">0</td>
            <td width="80">General Shift Worker</td>
            <td></td>	
        </tr>
		        <tr bgcolor="#FFFFFF">
            <td width="30" align="center">15</td>
            <td width="50">0000526</td>
            <td width="80">0008682585</td>
            <td width="130">
				Md. Anowarul Islam  <br />cell:             </td>
            <td width="120">S.M Operator</td>
            <td width="100">Sewing</td>						
            <td width="100">Sewing</td>
            <td width="100">Line-5</td>
            <td width="70">27-08-2015</td>
            <td width="50"><p>00218</p></td>
            <td width="60"><b>00:00</b></td>
            <td width="60"><b>00:00</b></td>
            <td width="50" align="center">A</td>
            <td width="40" align="center">0</td>
            <td width="40" align="center">0</td>
            <td width="80">General Shift Worker</td>
            <td></td>	
        </tr>
		        <tr bgcolor="#EEEEEE">
            <td width="30" align="center">16</td>
            <td width="50">0000575</td>
            <td width="80">0008691689</td>
            <td width="130">
				Sree Shasty Kumar Sharker  <br />cell:             </td>
            <td width="120">S.M Operator</td>
            <td width="100">Sewing</td>						
            <td width="100">Sewing</td>
            <td width="100">Line-2</td>
            <td width="70">27-08-2015</td>
            <td width="50"><p>00230</p></td>
            <td width="60"><b>00:00</b></td>
            <td width="60"><b>00:00</b></td>
            <td width="50" align="center">A</td>
            <td width="40" align="center">0</td>
            <td width="40" align="center">0</td>
            <td width="80">General Shift Worker</td>
            <td></td>	
        </tr>
		        <tr bgcolor="#FFFFFF">
            <td width="30" align="center">17</td>
            <td width="50">0000601</td>
            <td width="80">0008680297</td>
            <td width="130">
				Mst. Shahida Akter  <br />cell:             </td>
            <td width="120">Sr. S.M. Operator</td>
            <td width="100">Sewing</td>						
            <td width="100">Sewing</td>
            <td width="100">Line-2</td>
            <td width="70">27-08-2015</td>
            <td width="50"><p>00234</p></td>
            <td width="60"><b>00:00</b></td>
            <td width="60"><b>00:00</b></td>
            <td width="50" align="center">A</td>
            <td width="40" align="center">0</td>
            <td width="40" align="center">0</td>
            <td width="80">General Shift Worker</td>
            <td></td>	
        </tr>
		        <tr bgcolor="#EEEEEE">
            <td width="30" align="center">18</td>
            <td width="50">0000602</td>
            <td width="80">0008691599</td>
            <td width="130">
				Md. Rasel  <br />cell:             </td>
            <td width="120">S.M Operator</td>
            <td width="100">Sewing</td>						
            <td width="100">Sewing</td>
            <td width="100">Line-7</td>
            <td width="70">27-08-2015</td>
            <td width="50"><p>00235</p></td>
            <td width="60"><b>00:00</b></td>
            <td width="60"><b>00:00</b></td>
            <td width="50" align="center">A</td>
            <td width="40" align="center">0</td>
            <td width="40" align="center">0</td>
            <td width="80">General Shift Worker</td>
            <td></td>	
        </tr>
		        <tr bgcolor="#FFFFFF">
            <td width="30" align="center">19</td>
            <td width="50">0000627</td>
            <td width="80">0002730648</td>
            <td width="130">
				Md. Firoz Alam  <br />cell:             </td>
            <td width="120">Sr. S.M. Operator</td>
            <td width="100">Sewing</td>						
            <td width="100">Sewing</td>
            <td width="100">Line-9</td>
            <td width="70">27-08-2015</td>
            <td width="50"><p>00247</p></td>
            <td width="60"><b>00:00</b></td>
            <td width="60"><b>00:00</b></td>
            <td width="50" align="center">A</td>
            <td width="40" align="center">0</td>
            <td width="40" align="center">0</td>
            <td width="80">General Shift Worker</td>
            <td></td>	
        </tr>
		        <tr bgcolor="#EEEEEE">
            <td width="30" align="center">20</td>
            <td width="50">0000640</td>
            <td width="80">0002728425</td>
            <td width="130">
				Md. Abdul Goni  <br />cell:             </td>
            <td width="120">Asst. Input Man</td>
            <td width="100">Sewing</td>						
            <td width="100">Sewing</td>
            <td width="100">Line-9</td>
            <td width="70">27-08-2015</td>
            <td width="50"><p>00250</p></td>
            <td width="60"><b>00:00</b></td>
            <td width="60"><b>00:00</b></td>
            <td width="50" align="center">A</td>
            <td width="40" align="center">0</td>
            <td width="40" align="center">0</td>
            <td width="80">General Shift Worker</td>
            <td></td>	
        </tr>
		        <tr bgcolor="#FFFFFF">
            <td width="30" align="center">21</td>
            <td width="50">0000683</td>
            <td width="80">0002730467</td>
            <td width="130">
				Mst. Nurjahan Nupur  <br />cell:             </td>
            <td width="120">Jr. S.M Operator</td>
            <td width="100">Sewing</td>						
            <td width="100">Sewing</td>
            <td width="100"></td>
            <td width="70">27-08-2015</td>
            <td width="50"><p>00261</p></td>
            <td width="60"><b>00:00</b></td>
            <td width="60"><b>00:00</b></td>
            <td width="50" align="center">A</td>
            <td width="40" align="center">0</td>
            <td width="40" align="center">0</td>
            <td width="80">General Shift Worker</td>
            <td></td>	
        </tr>
		        <tr bgcolor="#EEEEEE">
            <td width="30" align="center">22</td>
            <td width="50">0000684</td>
            <td width="80">0002726949</td>
            <td width="130">
				Mst. Sheuly Akter  <br />cell:             </td>
            <td width="120">Gen. S.M Operator</td>
            <td width="100">Sewing</td>						
            <td width="100">Sewing</td>
            <td width="100"></td>
            <td width="70">27-08-2015</td>
            <td width="50"><p>00262</p></td>
            <td width="60"><b>00:00</b></td>
            <td width="60"><b>00:00</b></td>
            <td width="50" align="center">A</td>
            <td width="40" align="center">0</td>
            <td width="40" align="center">0</td>
            <td width="80">General Shift Worker</td>
            <td></td>	
        </tr>
		        <tr bgcolor="#FFFFFF">
            <td width="30" align="center">23</td>
            <td width="50">0000690</td>
            <td width="80">0002732258</td>
            <td width="130">
				Md. Jamal Uddin  <br />cell:             </td>
            <td width="120">S.M Operator</td>
            <td width="100">Sewing</td>						
            <td width="100">Sewing</td>
            <td width="100"></td>
            <td width="70">27-08-2015</td>
            <td width="50"><p>00266</p></td>
            <td width="60"><b>00:00</b></td>
            <td width="60"><b>00:00</b></td>
            <td width="50" align="center">A</td>
            <td width="40" align="center">0</td>
            <td width="40" align="center">0</td>
            <td width="80">General Shift Worker</td>
            <td></td>	
        </tr>
		        <tr bgcolor="#EEEEEE">
            <td width="30" align="center">24</td>
            <td width="50">0000692</td>
            <td width="80">0002734895</td>
            <td width="130">
				Md. Lal Mia  <br />cell:             </td>
            <td width="120">Sr. S.M. Operator</td>
            <td width="100">Sewing</td>						
            <td width="100">Sewing</td>
            <td width="100"></td>
            <td width="70">27-08-2015</td>
            <td width="50"><p>00267</p></td>
            <td width="60"><b>00:00</b></td>
            <td width="60"><b>00:00</b></td>
            <td width="50" align="center">A</td>
            <td width="40" align="center">0</td>
            <td width="40" align="center">0</td>
            <td width="80">General Shift Worker</td>
            <td></td>	
        </tr>
		        <tr bgcolor="#FFFFFF">
            <td width="30" align="center">25</td>
            <td width="50">0000706</td>
            <td width="80">0002730113</td>
            <td width="130">
				Minara Aktari  <br />cell:             </td>
            <td width="120">Gen. S.M Operator</td>
            <td width="100">Sewing</td>						
            <td width="100">Sewing</td>
            <td width="100"></td>
            <td width="70">27-08-2015</td>
            <td width="50"><p>00275</p></td>
            <td width="60"><b>00:00</b></td>
            <td width="60"><b>00:00</b></td>
            <td width="50" align="center">A</td>
            <td width="40" align="center">0</td>
            <td width="40" align="center">0</td>
            <td width="80">General Shift Worker</td>
            <td></td>	
        </tr>
		        <tr bgcolor="#EEEEEE">
            <td width="30" align="center">26</td>
            <td width="50">0000714</td>
            <td width="80">0002728804</td>
            <td width="130">
				Mst. Sakila Akter  <br />cell:             </td>
            <td width="120">S.M Operator</td>
            <td width="100">Sewing</td>						
            <td width="100">Sewing</td>
            <td width="100"></td>
            <td width="70">27-08-2015</td>
            <td width="50"><p>00281</p></td>
            <td width="60"><b>00:00</b></td>
            <td width="60"><b>00:00</b></td>
            <td width="50" align="center">A</td>
            <td width="40" align="center">0</td>
            <td width="40" align="center">0</td>
            <td width="80">General Shift Worker</td>
            <td></td>	
        </tr>
		        <tr bgcolor="#FFFFFF">
            <td width="30" align="center">27</td>
            <td width="50">0000715</td>
            <td width="80">0002732580</td>
            <td width="130">
				Md. Mostafizur Rahman  <br />cell:             </td>
            <td width="120">Gen. S.M Operator</td>
            <td width="100">Sewing</td>						
            <td width="100">Sewing</td>
            <td width="100"></td>
            <td width="70">27-08-2015</td>
            <td width="50"><p>00282</p></td>
            <td width="60"><b>00:00</b></td>
            <td width="60"><b>00:00</b></td>
            <td width="50" align="center">A</td>
            <td width="40" align="center">0</td>
            <td width="40" align="center">0</td>
            <td width="80">General Shift Worker</td>
            <td></td>	
        </tr>
		        <tr bgcolor="#EEEEEE">
            <td width="30" align="center">28</td>
            <td width="50">0000717</td>
            <td width="80">0002728921</td>
            <td width="130">
				Md. Liton Hossain  <br />cell:             </td>
            <td width="120">S.M Operator</td>
            <td width="100">Sewing</td>						
            <td width="100">Sewing</td>
            <td width="100"></td>
            <td width="70">27-08-2015</td>
            <td width="50"><p>00283</p></td>
            <td width="60"><b>00:00</b></td>
            <td width="60"><b>00:00</b></td>
            <td width="50" align="center">A</td>
            <td width="40" align="center">0</td>
            <td width="40" align="center">0</td>
            <td width="80">General Shift Worker</td>
            <td></td>	
        </tr>
		        <tr bgcolor="#FFFFFF">
            <td width="30" align="center">29</td>
            <td width="50">0000742</td>
            <td width="80">0002713039</td>
            <td width="130">
				Sustir Sarker  <br />cell:             </td>
            <td width="120">Line Iron Man</td>
            <td width="100">Sewing</td>						
            <td width="100">Sewing</td>
            <td width="100"></td>
            <td width="70">27-08-2015</td>
            <td width="50"><p>00296</p></td>
            <td width="60"><b>00:00</b></td>
            <td width="60"><b>00:00</b></td>
            <td width="50" align="center">A</td>
            <td width="40" align="center">0</td>
            <td width="40" align="center">0</td>
            <td width="80">General Shift Worker</td>
            <td></td>	
        </tr>
		        <tr bgcolor="#EEEEEE">
            <td width="30" align="center">30</td>
            <td width="50">0000426</td>
            <td width="80">0005221868</td>
            <td width="130">
				Sreemoti Chondona Rani  <br />cell:             </td>
            <td width="120">A.S.M. Operator</td>
            <td width="100">Sewing</td>						
            <td width="100">Sewing</td>
            <td width="100">Line-1</td>
            <td width="70">27-08-2015</td>
            <td width="50"><p>00448</p></td>
            <td width="60"><b>00:00</b></td>
            <td width="60"><b>00:00</b></td>
            <td width="50" align="center">A</td>
            <td width="40" align="center">0</td>
            <td width="40" align="center">0</td>
            <td width="80">General Shift Worker</td>
            <td></td>	
        </tr>
		        <tr bgcolor="#FFFFFF">
            <td width="30" align="center">31</td>
            <td width="50">0000545</td>
            <td width="80">0008681881</td>
            <td width="130">
				Mst. Moyna Khatun  <br />cell:             </td>
            <td width="120">A.S.M. Operator</td>
            <td width="100">Sewing</td>						
            <td width="100">Sewing</td>
            <td width="100">Line-7</td>
            <td width="70">27-08-2015</td>
            <td width="50"><p>00450</p></td>
            <td width="60"><b>00:00</b></td>
            <td width="60"><b>00:00</b></td>
            <td width="50" align="center">A</td>
            <td width="40" align="center">0</td>
            <td width="40" align="center">0</td>
            <td width="80">General Shift Worker</td>
            <td></td>	
        </tr>
		        <tr bgcolor="#EEEEEE">
            <td width="30" align="center">32</td>
            <td width="50">0000641</td>
            <td width="80">0002721377</td>
            <td width="130">
				Md. Raju Sheikh  <br />cell:             </td>
            <td width="120">A.S.M. Operator</td>
            <td width="100">Sewing</td>						
            <td width="100">Sewing</td>
            <td width="100">Line-9</td>
            <td width="70">27-08-2015</td>
            <td width="50"><p>00462</p></td>
            <td width="60"><b>00:00</b></td>
            <td width="60"><b>00:00</b></td>
            <td width="50" align="center">A</td>
            <td width="40" align="center">0</td>
            <td width="40" align="center">0</td>
            <td width="80">General Shift Worker</td>
            <td></td>	
        </tr>
		        <tr bgcolor="#FFFFFF">
            <td width="30" align="center">33</td>
            <td width="50">0000472</td>
            <td width="80">0008678709</td>
            <td width="130">
				Md. Shajahan Ali  <br />cell:             </td>
            <td width="120">Fabric Inspection Asst.</td>
            <td width="100">Fabrics</td>						
            <td width="100">Fabrics</td>
            <td width="100"></td>
            <td width="70">27-08-2015</td>
            <td width="50"><p>00731</p></td>
            <td width="60"><b>00:00</b></td>
            <td width="60"><b>00:00</b></td>
            <td width="50" align="center">A</td>
            <td width="40" align="center">0</td>
            <td width="40" align="center">0</td>
            <td width="80">General Shift Worker</td>
            <td></td>	
        </tr>
		        <tr bgcolor="#EEEEEE">
            <td width="30" align="center">34</td>
            <td width="50">0000598</td>
            <td width="80">0008697603</td>
            <td width="130">
				Md. Rowshan Habib  <br />cell:             </td>
            <td width="120">Quality Inspector</td>
            <td width="100">Quality</td>						
            <td width="100">Quality</td>
            <td width="100"></td>
            <td width="70">27-08-2015</td>
            <td width="50"><p>00747</p></td>
            <td width="60"><b>00:00</b></td>
            <td width="60"><b>00:00</b></td>
            <td width="50" align="center">A</td>
            <td width="40" align="center">0</td>
            <td width="40" align="center">0</td>
            <td width="80">General Shift Worker</td>
            <td></td>	
        </tr>
		        <tr bgcolor="#FFFFFF">
            <td width="30" align="center">35</td>
            <td width="50">0000642</td>
            <td width="80">0002727155</td>
            <td width="130">
				Md. Lutfur Rahman  <br />cell:             </td>
            <td width="120">Quality Inspector</td>
            <td width="100">Quality</td>						
            <td width="100">Quality</td>
            <td width="100"></td>
            <td width="70">27-08-2015</td>
            <td width="50"><p>00748</p></td>
            <td width="60"><b>00:00</b></td>
            <td width="60"><b>00:00</b></td>
            <td width="50" align="center">A</td>
            <td width="40" align="center">0</td>
            <td width="40" align="center">0</td>
            <td width="80">General Shift Worker</td>
            <td></td>	
        </tr>
		        <tr bgcolor="#EEEEEE">
            <td width="30" align="center">36</td>
            <td width="50">0000648</td>
            <td width="80">0005223510</td>
            <td width="130">
				Md. Al- Amin  <br />cell:             </td>
            <td width="120">Quality Inspector</td>
            <td width="100">Quality</td>						
            <td width="100">Quality</td>
            <td width="100"></td>
            <td width="70">27-08-2015</td>
            <td width="50"><p>00751</p></td>
            <td width="60"><b>00:00</b></td>
            <td width="60"><b>00:00</b></td>
            <td width="50" align="center">A</td>
            <td width="40" align="center">0</td>
            <td width="40" align="center">0</td>
            <td width="80">General Shift Worker</td>
            <td></td>	
        </tr>
		        <tr bgcolor="#FFFFFF">
            <td width="30" align="center">37</td>
            <td width="50">0000716</td>
            <td width="80">0002723695</td>
            <td width="130">
				Md. Golam Robbani  <br />cell:             </td>
            <td width="120">Quality Inspector</td>
            <td width="100">Quality</td>						
            <td width="100">Quality</td>
            <td width="100"></td>
            <td width="70">27-08-2015</td>
            <td width="50"><p>00755</p></td>
            <td width="60"><b>00:00</b></td>
            <td width="60"><b>00:00</b></td>
            <td width="50" align="center">A</td>
            <td width="40" align="center">0</td>
            <td width="40" align="center">0</td>
            <td width="80">General Shift Worker</td>
            <td></td>	
        </tr>
		        <tr bgcolor="#EEEEEE">
            <td width="30" align="center">38</td>
            <td width="50">0000518</td>
            <td width="80">0008692721</td>
            <td width="130">
				Mir Rasel  <br />cell:             </td>
            <td width="120">Jr. Cutter</td>
            <td width="100">Cutting</td>						
            <td width="100">Cutting</td>
            <td width="100"></td>
            <td width="70">27-08-2015</td>
            <td width="50"><p>00956</p></td>
            <td width="60"><b>00:00</b></td>
            <td width="60"><b>00:00</b></td>
            <td width="50" align="center">A</td>
            <td width="40" align="center">0</td>
            <td width="40" align="center">0</td>
            <td width="80">General Shift Worker</td>
            <td></td>	
        </tr>
		        <tr bgcolor="#FFFFFF">
            <td width="30" align="center">39</td>
            <td width="50">0000074</td>
            <td width="80">0004322301</td>
            <td width="130">
				Mirza MD  Alauddin<br />cell: 01731897107            </td>
            <td width="120">Security Incharge</td>
            <td width="100">Admin and HR</td>						
            <td width="100">Security</td>
            <td width="100"></td>
            <td width="70">27-08-2015</td>
            <td width="50"><p>01100</p></td>
            <td width="60"><b>00:00</b></td>
            <td width="60"><b>00:00</b></td>
            <td width="50" align="center">A</td>
            <td width="40" align="center">0</td>
            <td width="40" align="center">0</td>
            <td width="80">General Shift Worker</td>
            <td></td>	
        </tr>
		        <tr bgcolor="#EEEEEE">
            <td width="30" align="center">40</td>
            <td width="50">0000396</td>
            <td width="80">0005230765</td>
            <td width="130">
				Md. Badsha Alamgir  <br />cell:             </td>
            <td width="120">Security Guard</td>
            <td width="100">Admin and HR</td>						
            <td width="100">Security</td>
            <td width="100"></td>
            <td width="70">27-08-2015</td>
            <td width="50"><p>01106</p></td>
            <td width="60"><b>00:00</b></td>
            <td width="60"><b>00:00</b></td>
            <td width="50" align="center">A</td>
            <td width="40" align="center">0</td>
            <td width="40" align="center">0</td>
            <td width="80">General Shift Worker</td>
            <td></td>	
        </tr>
		        <tr bgcolor="#FFFFFF">
            <td width="30" align="center">41</td>
            <td width="50">0000397</td>
            <td width="80">0005221886</td>
            <td width="130">
				Md. Mizanur Rahman  <br />cell:             </td>
            <td width="120">Security Guard</td>
            <td width="100">Admin and HR</td>						
            <td width="100">Security</td>
            <td width="100"></td>
            <td width="70">27-08-2015</td>
            <td width="50"><p>01107</p></td>
            <td width="60"><b>00:00</b></td>
            <td width="60"><b>00:00</b></td>
            <td width="50" align="center">A</td>
            <td width="40" align="center">0</td>
            <td width="40" align="center">0</td>
            <td width="80">General Shift Worker</td>
            <td></td>	
        </tr>
		        <tr bgcolor="#EEEEEE">
            <td width="30" align="center">42</td>
            <td width="50">0000508</td>
            <td width="80">0008688270</td>
            <td width="130">
				Md. Golam Robbani  <br />cell:             </td>
            <td width="120">Security Guard</td>
            <td width="100">Admin and HR</td>						
            <td width="100">Security</td>
            <td width="100"></td>
            <td width="70">27-08-2015</td>
            <td width="50"><p>01110</p></td>
            <td width="60"><b>00:00</b></td>
            <td width="60"><b>00:00</b></td>
            <td width="50" align="center">A</td>
            <td width="40" align="center">0</td>
            <td width="40" align="center">0</td>
            <td width="80">General Shift Worker</td>
            <td></td>	
        </tr>
		        <tr bgcolor="#FFFFFF">
            <td width="30" align="center">43</td>
            <td width="50">0000724</td>
            <td width="80">0002734298</td>
            <td width="130">
				Md. Abu Bakkar Siddique  <br />cell:             </td>
            <td width="120">Security Guard</td>
            <td width="100">Admin and HR</td>						
            <td width="100">Security</td>
            <td width="100"></td>
            <td width="70">27-08-2015</td>
            <td width="50"><p>01114</p></td>
            <td width="60"><b>00:00</b></td>
            <td width="60"><b>00:00</b></td>
            <td width="50" align="center">A</td>
            <td width="40" align="center">0</td>
            <td width="40" align="center">0</td>
            <td width="80">General Shift Worker</td>
            <td></td>	
        </tr>
		        <tr bgcolor="#EEEEEE">
            <td width="30" align="center">44</td>
            <td width="50">0000166</td>
            <td width="80">0004300677</td>
            <td width="130">
				Sapon Chandra Day  <br />cell:             </td>
            <td width="120">Jr. Electrician</td>
            <td width="100">Admin and HR</td>						
            <td width="100">Maintenance-Electrical</td>
            <td width="100"></td>
            <td width="70">27-08-2015</td>
            <td width="50"><p>01206</p></td>
            <td width="60"><b>00:00</b></td>
            <td width="60"><b>00:00</b></td>
            <td width="50" align="center">A</td>
            <td width="40" align="center">0</td>
            <td width="40" align="center">0</td>
            <td width="80">General Shift Worker</td>
            <td></td>	
        </tr>
		        <tr bgcolor="#FFFFFF">
            <td width="30" align="center">45</td>
            <td width="50">0000155</td>
            <td width="80">0004322293</td>
            <td width="130">
				Mst.Taslima Khatun  <br />cell:             </td>
            <td width="120">Finishing Asst.</td>
            <td width="100">Finishing</td>						
            <td width="100">Finishing</td>
            <td width="100"></td>
            <td width="70">27-08-2015</td>
            <td width="50"><p>01501</p></td>
            <td width="60"><b>00:00</b></td>
            <td width="60"><b>00:00</b></td>
            <td width="50" align="center">A</td>
            <td width="40" align="center">0</td>
            <td width="40" align="center">0</td>
            <td width="80">General Shift Worker</td>
            <td></td>	
        </tr>
		        <tr bgcolor="#EEEEEE">
            <td width="30" align="center">46</td>
            <td width="50">0000152</td>
            <td width="80">0004322258</td>
            <td width="130">
				Md.Julhas   Uddin<br />cell:             </td>
            <td width="120">Packer</td>
            <td width="100">Finishing</td>						
            <td width="100">Finishing</td>
            <td width="100"></td>
            <td width="70">27-08-2015</td>
            <td width="50"><p>01506</p></td>
            <td width="60"><b>00:00</b></td>
            <td width="60"><b>00:00</b></td>
            <td width="50" align="center">A</td>
            <td width="40" align="center">0</td>
            <td width="40" align="center">0</td>
            <td width="80">General Shift Worker</td>
            <td></td>	
        </tr>
		        <tr bgcolor="#FFFFFF">
            <td width="30" align="center">47</td>
            <td width="50">0000645</td>
            <td width="80">0002734144</td>
            <td width="130">
				Mst. Rahima Khatun  <br />cell:             </td>
            <td width="120">Finishing Asst.</td>
            <td width="100">Finishing</td>						
            <td width="100">Finishing</td>
            <td width="100"></td>
            <td width="70">27-08-2015</td>
            <td width="50"><p>01539</p></td>
            <td width="60"><b>00:00</b></td>
            <td width="60"><b>00:00</b></td>
            <td width="50" align="center">A</td>
            <td width="40" align="center">0</td>
            <td width="40" align="center">0</td>
            <td width="80">General Shift Worker</td>
            <td></td>	
        </tr>
		        <tr bgcolor="#EEEEEE">
            <td width="30" align="center">48</td>
            <td width="50">0000659</td>
            <td width="80">037</td>
            <td width="130">
				Md. Nur Hossain  <br />cell:             </td>
            <td width="120">Iron Man</td>
            <td width="100">Finishing</td>						
            <td width="100">Finishing</td>
            <td width="100"></td>
            <td width="70">27-08-2015</td>
            <td width="50"><p>01542</p></td>
            <td width="60"><b>00:00</b></td>
            <td width="60"><b>00:00</b></td>
            <td width="50" align="center">A</td>
            <td width="40" align="center">0</td>
            <td width="40" align="center">0</td>
            <td width="80">General Shift Worker</td>
            <td></td>	
        </tr>
		        <tr bgcolor="#FFFFFF">
            <td width="30" align="center">49</td>
            <td width="50">0000695</td>
            <td width="80">0002729250</td>
            <td width="130">
				Md. Homaun  <br />cell:             </td>
            <td width="120">Iron Man</td>
            <td width="100">Finishing</td>						
            <td width="100">Finishing</td>
            <td width="100"></td>
            <td width="70">27-08-2015</td>
            <td width="50"><p>01544</p></td>
            <td width="60"><b>00:00</b></td>
            <td width="60"><b>00:00</b></td>
            <td width="50" align="center">A</td>
            <td width="40" align="center">0</td>
            <td width="40" align="center">0</td>
            <td width="80">General Shift Worker</td>
            <td></td>	
        </tr>
		        <tr bgcolor="#EEEEEE">
            <td width="30" align="center">50</td>
            <td width="50">0000728</td>
            <td width="80">0008509553</td>
            <td width="130">
				Md. Almas Ali  <br />cell:             </td>
            <td width="120">Iron Man</td>
            <td width="100">Finishing</td>						
            <td width="100">Finishing</td>
            <td width="100"></td>
            <td width="70">27-08-2015</td>
            <td width="50"><p>01547</p></td>
            <td width="60"><b>00:00</b></td>
            <td width="60"><b>00:00</b></td>
            <td width="50" align="center">A</td>
            <td width="40" align="center">0</td>
            <td width="40" align="center">0</td>
            <td width="80">General Shift Worker</td>
            <td></td>	
        </tr>
		        <tr bgcolor="#FFFFFF">
            <td width="30" align="center">51</td>
            <td width="50">0000105</td>
            <td width="80">0004298367</td>
            <td width="130">
				Md. Mokbul  Hossain<br />cell:             </td>
            <td width="120">Officer (Yarn Store)</td>
            <td width="100">Store</td>						
            <td width="100">Store</td>
            <td width="100"></td>
            <td width="70">27-08-2015</td>
            <td width="50"><p>02007</p></td>
            <td width="60"><b>00:00</b></td>
            <td width="60"><b>00:00</b></td>
            <td width="50" align="center">A</td>
            <td width="40" align="center">0</td>
            <td width="40" align="center">0</td>
            <td width="80">General Staff</td>
            <td></td>	
        </tr>
		        <tr bgcolor="#EEEEEE">
            <td width="30" align="center">52</td>
            <td width="50">0000058</td>
            <td width="80">0004311584</td>
            <td width="130">
				Sanjib Chandra Das<br />cell: 01710812487            </td>
            <td width="120">Incharge (Finishing)</td>
            <td width="100">Finishing</td>						
            <td width="100">Finishing</td>
            <td width="100"></td>
            <td width="70">27-08-2015</td>
            <td width="50"><p>02010</p></td>
            <td width="60"><b>00:00</b></td>
            <td width="60"><b>00:00</b></td>
            <td width="50" align="center">A</td>
            <td width="40" align="center">0</td>
            <td width="40" align="center">0</td>
            <td width="80">General Staff</td>
            <td></td>	
        </tr>
		        <tr bgcolor="#FFFFFF">
            <td width="30" align="center">53</td>
            <td width="50">0000073</td>
            <td width="80">0005223491</td>
            <td width="130">
				Md. Abdul  Matin<br />cell: 01758975924            </td>
            <td width="120">Electrician</td>
            <td width="100">Admin and HR</td>						
            <td width="100">Maintenance-Electrical</td>
            <td width="100"></td>
            <td width="70">27-08-2015</td>
            <td width="50"><p>02026</p></td>
            <td width="60"><b>00:00</b></td>
            <td width="60"><b>00:00</b></td>
            <td width="50" align="center">A</td>
            <td width="40" align="center">0</td>
            <td width="40" align="center">0</td>
            <td width="80">General Shift Worker</td>
            <td></td>	
        </tr>
		        <tr bgcolor="#EEEEEE">
            <td width="30" align="center">54</td>
            <td width="50">0000183</td>
            <td width="80">0004318732</td>
            <td width="130">
				Md. Uzzol  Hossain<br />cell:             </td>
            <td width="120">Jr. Electrician</td>
            <td width="100">Admin and HR</td>						
            <td width="100">Maintenance-Electrical</td>
            <td width="100"></td>
            <td width="70">27-08-2015</td>
            <td width="50"><p>02027</p></td>
            <td width="60"><b>00:00</b></td>
            <td width="60"><b>00:00</b></td>
            <td width="50" align="center">A</td>
            <td width="40" align="center">0</td>
            <td width="40" align="center">0</td>
            <td width="80">General Shift Worker</td>
            <td></td>	
        </tr>
		        <tr bgcolor="#FFFFFF">
            <td width="30" align="center">55</td>
            <td width="50">0000084</td>
            <td width="80">0004296025</td>
            <td width="130">
				Md. Khaled  Hasan<br />cell:             </td>
            <td width="120">Store Assistant</td>
            <td width="100">Store</td>						
            <td width="100">Store</td>
            <td width="100"></td>
            <td width="70">27-08-2015</td>
            <td width="50"><p>02038</p></td>
            <td width="60"><b>00:00</b></td>
            <td width="60"><b>00:00</b></td>
            <td width="50" align="center">A</td>
            <td width="40" align="center">0</td>
            <td width="40" align="center">0</td>
            <td width="80">General Shift Worker</td>
            <td></td>	
        </tr>
		        <tr bgcolor="#EEEEEE">
            <td width="30" align="center">56</td>
            <td width="50">0000134</td>
            <td width="80">0004306070</td>
            <td width="130">
				Md. Salman  <br />cell:             </td>
            <td width="120">QC (Dyeing)</td>
            <td width="100">Dyeing</td>						
            <td width="100">Dyeing</td>
            <td width="100"></td>
            <td width="70">27-08-2015</td>
            <td width="50"><p>02049</p></td>
            <td width="60"><b>00:00</b></td>
            <td width="60"><b>00:00</b></td>
            <td width="50" align="center">A</td>
            <td width="40" align="center">0</td>
            <td width="40" align="center">0</td>
            <td width="80">General Shift Staff</td>
            <td></td>	
        </tr>
		        <tr bgcolor="#FFFFFF">
            <td width="30" align="center">57</td>
            <td width="50">0000157</td>
            <td width="80">0004322303</td>
            <td width="130">
				Md.Golam   Rabbani<br />cell:             </td>
            <td width="120">Asst. Officer (Yarn Store)</td>
            <td width="100">Store</td>						
            <td width="100">Store</td>
            <td width="100"></td>
            <td width="70">27-08-2015</td>
            <td width="50"><p>02052</p></td>
            <td width="60"><b>00:00</b></td>
            <td width="60"><b>00:00</b></td>
            <td width="50" align="center">A</td>
            <td width="40" align="center">0</td>
            <td width="40" align="center">0</td>
            <td width="80">General Shift Worker</td>
            <td></td>	
        </tr>
		        <tr bgcolor="#EEEEEE">
            <td width="30" align="center">58</td>
            <td width="50">0000200</td>
            <td width="80">0004322201</td>
            <td width="130">
				Md. Saidul Islam  Sobuj<br />cell:             </td>
            <td width="120">Floor Incharge </td>
            <td width="100">Sewing</td>						
            <td width="100">Sewing</td>
            <td width="100"></td>
            <td width="70">27-08-2015</td>
            <td width="50"><p>02056</p></td>
            <td width="60"><b>00:00</b></td>
            <td width="60"><b>00:00</b></td>
            <td width="50" align="center">A</td>
            <td width="40" align="center">0</td>
            <td width="40" align="center">0</td>
            <td width="80">General Staff</td>
            <td></td>	
        </tr>
		        <tr bgcolor="#FFFFFF">
            <td width="30" align="center">59</td>
            <td width="50">0000206</td>
            <td width="80">0000085573</td>
            <td width="130">
				Md. Aminul Islam  Mintu<br />cell: 01750183181            </td>
            <td width="120">Incharge</td>
            <td width="100">Pattern</td>						
            <td width="100">Pattern</td>
            <td width="100"></td>
            <td width="70">27-08-2015</td>
            <td width="50"><p>02066</p></td>
            <td width="60"><b>00:00</b></td>
            <td width="60"><b>00:00</b></td>
            <td width="50" align="center">A</td>
            <td width="40" align="center">0</td>
            <td width="40" align="center">0</td>
            <td width="80">General Staff</td>
            <td></td>	
        </tr>
		        <tr bgcolor="#EEEEEE">
            <td width="30" align="center">60</td>
            <td width="50">0000217</td>
            <td width="80">0004322155</td>
            <td width="130">
				Md. Rafiqul   Islam<br />cell:             </td>
            <td width="120">Incharge (Fabric)</td>
            <td width="100">Store</td>						
            <td width="100">Store</td>
            <td width="100"></td>
            <td width="70">27-08-2015</td>
            <td width="50"><p>02070</p></td>
            <td width="60"><b>00:00</b></td>
            <td width="60"><b>00:00</b></td>
            <td width="50" align="center">A</td>
            <td width="40" align="center">0</td>
            <td width="40" align="center">0</td>
            <td width="80">General Staff</td>
            <td></td>	
        </tr>
		        <tr bgcolor="#FFFFFF">
            <td width="30" align="center">61</td>
            <td width="50">0000208</td>
            <td width="80">0008691586</td>
            <td width="130">
				Md. Ismail  Hossain<br />cell: 01818602553            </td>
            <td width="120">Incharge</td>
            <td width="100">Cutting</td>						
            <td width="100">Cutting</td>
            <td width="100"></td>
            <td width="70">27-08-2015</td>
            <td width="50"><p>02074</p></td>
            <td width="60"><b>00:00</b></td>
            <td width="60"><b>00:00</b></td>
            <td width="50" align="center">A</td>
            <td width="40" align="center">0</td>
            <td width="40" align="center">0</td>
            <td width="80">General Staff</td>
            <td></td>	
        </tr>
		        <tr bgcolor="#EEEEEE">
            <td width="30" align="center">62</td>
            <td width="50">0000228</td>
            <td width="80">0004879917</td>
            <td width="130">
				Md. Faruk   Hossain<br />cell:             </td>
            <td width="120">Sample Man</td>
            <td width="100">Sample</td>						
            <td width="100">Sample</td>
            <td width="100"></td>
            <td width="70">27-08-2015</td>
            <td width="50"><p>02080</p></td>
            <td width="60"><b>00:00</b></td>
            <td width="60"><b>00:00</b></td>
            <td width="50" align="center">A</td>
            <td width="40" align="center">0</td>
            <td width="40" align="center">0</td>
            <td width="80">General Shift Worker</td>
            <td></td>	
        </tr>
		        <tr bgcolor="#FFFFFF">
            <td width="30" align="center">63</td>
            <td width="50">0000242</td>
            <td width="80">0008144054</td>
            <td width="130">
				Md. Anisur Rahman  <br />cell:             </td>
            <td width="120">Accountant</td>
            <td width="100">Finance and Accounts</td>						
            <td width="100">Finance and Accounts</td>
            <td width="100"></td>
            <td width="70">27-08-2015</td>
            <td width="50"><p>02093</p></td>
            <td width="60"><b>00:00</b></td>
            <td width="60"><b>00:00</b></td>
            <td width="50" align="center">A</td>
            <td width="40" align="center">0</td>
            <td width="40" align="center">0</td>
            <td width="80">General Shift Staff</td>
            <td></td>	
        </tr>
		        <tr bgcolor="#EEEEEE">
            <td width="30" align="center">64</td>
            <td width="50">0000239</td>
            <td width="80">0008099634</td>
            <td width="130">
				Md.Abdur  Razzak<br />cell:             </td>
            <td width="120">Driver</td>
            <td width="100">Admin and HR</td>						
            <td width="100">Admin and HR</td>
            <td width="100"></td>
            <td width="70">27-08-2015</td>
            <td width="50"><p>02095</p></td>
            <td width="60"><b>00:00</b></td>
            <td width="60"><b>00:00</b></td>
            <td width="50" align="center">A</td>
            <td width="40" align="center">0</td>
            <td width="40" align="center">0</td>
            <td width="80">General Shift Worker</td>
            <td></td>	
        </tr>
		        <tr bgcolor="#FFFFFF">
            <td width="30" align="center">65</td>
            <td width="50">0000353</td>
            <td width="80">0005233025</td>
            <td width="130">
				Md.Baccu Mia  <br />cell:             </td>
            <td width="120">Driver</td>
            <td width="100">Admin and HR</td>						
            <td width="100">Admin and HR</td>
            <td width="100"></td>
            <td width="70">27-08-2015</td>
            <td width="50"><p>02101</p></td>
            <td width="60"><b>00:00</b></td>
            <td width="60"><b>00:00</b></td>
            <td width="50" align="center">A</td>
            <td width="40" align="center">0</td>
            <td width="40" align="center">0</td>
            <td width="80">General Shift Worker</td>
            <td></td>	
        </tr>
		        <tr bgcolor="#EEEEEE">
            <td width="30" align="center">66</td>
            <td width="50">0000325</td>
            <td width="80">0005240970</td>
            <td width="130">
				Md. Sirajul Islam  <br />cell:             </td>
            <td width="120">Fire Safety Officer</td>
            <td width="100">Admin and HR</td>						
            <td width="100">Admin and HR</td>
            <td width="100"></td>
            <td width="70">27-08-2015</td>
            <td width="50"><p>02104</p></td>
            <td width="60"><b>00:00</b></td>
            <td width="60"><b>00:00</b></td>
            <td width="50" align="center">A</td>
            <td width="40" align="center">0</td>
            <td width="40" align="center">0</td>
            <td width="80">General Shift Staff</td>
            <td></td>	
        </tr>
		        <tr bgcolor="#FFFFFF">
            <td width="30" align="center">67</td>
            <td width="50">0000326</td>
            <td width="80">0000485614</td>
            <td width="130">
				Md. Helal Uddin  <br />cell:             </td>
            <td width="120">Boiler Operator</td>
            <td width="100">Admin and HR</td>						
            <td width="100">Maintenance-Mechanical</td>
            <td width="100"></td>
            <td width="70">27-08-2015</td>
            <td width="50"><p>02105</p></td>
            <td width="60"><b>00:00</b></td>
            <td width="60"><b>00:00</b></td>
            <td width="50" align="center">A</td>
            <td width="40" align="center">0</td>
            <td width="40" align="center">0</td>
            <td width="80">General Staff</td>
            <td></td>	
        </tr>
		        <tr bgcolor="#EEEEEE">
            <td width="30" align="center">68</td>
            <td width="50">0000461</td>
            <td width="80">0008692500</td>
            <td width="130">
				Md. Kamal Hossan  <br />cell:             </td>
            <td width="120">Sr. Merchandiser</td>
            <td width="100">Marketing and Merchandising</td>						
            <td width="100">Merchandising</td>
            <td width="100"></td>
            <td width="70">27-08-2015</td>
            <td width="50"><p>02139</p></td>
            <td width="60"><b>00:00</b></td>
            <td width="60"><b>00:00</b></td>
            <td width="50" align="center">A</td>
            <td width="40" align="center">0</td>
            <td width="40" align="center">0</td>
            <td width="80">General Shift Staff</td>
            <td></td>	
        </tr>
		        <tr bgcolor="#FFFFFF">
            <td width="30" align="center">69</td>
            <td width="50">0000481</td>
            <td width="80">0008691583</td>
            <td width="130">
				Tashneem Begum  <br />cell:             </td>
            <td width="120">Doctor</td>
            <td width="100">Admin and HR</td>						
            <td width="100">Medical</td>
            <td width="100"></td>
            <td width="70">27-08-2015</td>
            <td width="50"><p>02142</p></td>
            <td width="60"><b>00:00</b></td>
            <td width="60"><b>00:00</b></td>
            <td width="50" align="center">A</td>
            <td width="40" align="center">0</td>
            <td width="40" align="center">0</td>
            <td width="80">General Staff</td>
            <td></td>	
        </tr>
		        <tr bgcolor="#EEEEEE">
            <td width="30" align="center">70</td>
            <td width="50">0000537</td>
            <td width="80">0008692072</td>
            <td width="130">
				Alauddin  <br />cell:             </td>
            <td width="120">Assistant Merchandiser</td>
            <td width="100">Marketing and Merchandising</td>						
            <td width="100">Merchandising</td>
            <td width="100"></td>
            <td width="70">27-08-2015</td>
            <td width="50"><p>02146</p></td>
            <td width="60"><b>00:00</b></td>
            <td width="60"><b>00:00</b></td>
            <td width="50" align="center">A</td>
            <td width="40" align="center">0</td>
            <td width="40" align="center">0</td>
            <td width="80">General Shift Staff</td>
            <td></td>	
        </tr>
		        <tr bgcolor="#FFFFFF">
            <td width="30" align="center">71</td>
            <td width="50">0000559</td>
            <td width="80">0008691677</td>
            <td width="130">
				Md. Shagor Shekh  <br />cell:             </td>
            <td width="120">Electrician</td>
            <td width="100">Admin and HR</td>						
            <td width="100">Maintenance-Electrical</td>
            <td width="100"></td>
            <td width="70">27-08-2015</td>
            <td width="50"><p>02148</p></td>
            <td width="60"><b>00:00</b></td>
            <td width="60"><b>00:00</b></td>
            <td width="50" align="center">A</td>
            <td width="40" align="center">0</td>
            <td width="40" align="center">0</td>
            <td width="80">General Shift Worker</td>
            <td></td>	
        </tr>
		        <tr bgcolor="#EEEEEE">
            <td width="30" align="center">72</td>
            <td width="50">0000565</td>
            <td width="80">0008691601</td>
            <td width="130">
				Mst. Rozi Akter  <br />cell:             </td>
            <td width="120">Welfare and Compliance Officer  </td>
            <td width="100">Admin and HR</td>						
            <td width="100">Admin and HR</td>
            <td width="100"></td>
            <td width="70">27-08-2015</td>
            <td width="50"><p>02153</p></td>
            <td width="60"><b>00:00</b></td>
            <td width="60"><b>00:00</b></td>
            <td width="50" align="center">A</td>
            <td width="40" align="center">0</td>
            <td width="40" align="center">0</td>
            <td width="80">General Shift Staff</td>
            <td></td>	
        </tr>
		        <tr bgcolor="#FFFFFF">
            <td width="30" align="center">73</td>
            <td width="50">0000604</td>
            <td width="80">0008678074</td>
            <td width="130">
				Md. Saroar Jahan  <br />cell:             </td>
            <td width="120">Assistant Manager</td>
            <td width="100">Dyeing</td>						
            <td width="100">Dyeing</td>
            <td width="100"></td>
            <td width="70">27-08-2015</td>
            <td width="50"><p>02160</p></td>
            <td width="60"><b>00:00</b></td>
            <td width="60"><b>00:00</b></td>
            <td width="50" align="center">A</td>
            <td width="40" align="center">0</td>
            <td width="40" align="center">0</td>
            <td width="80">General Shift Staff</td>
            <td></td>	
        </tr>
		        <tr bgcolor="#EEEEEE">
            <td width="30" align="center">74</td>
            <td width="50">0000606</td>
            <td width="80">0008692697</td>
            <td width="130">
				Md. Forhad Ali Khan  <br />cell:             </td>
            <td width="120">Boiler Operator</td>
            <td width="100">Admin and HR</td>						
            <td width="100">Maintenance-Mechanical</td>
            <td width="100"></td>
            <td width="70">27-08-2015</td>
            <td width="50"><p>02161</p></td>
            <td width="60"><b>00:00</b></td>
            <td width="60"><b>00:00</b></td>
            <td width="50" align="center">A</td>
            <td width="40" align="center">0</td>
            <td width="40" align="center">0</td>
            <td width="80">General Staff</td>
            <td></td>	
        </tr>
		        <tr bgcolor="#FFFFFF">
            <td width="30" align="center">75</td>
            <td width="50">0000612</td>
            <td width="80">0008692682</td>
            <td width="130">
				Md. Shanawaz  <br />cell:             </td>
            <td width="120">Trainee Electrician</td>
            <td width="100">Admin and HR</td>						
            <td width="100">Maintenance-Electrical</td>
            <td width="100"></td>
            <td width="70">27-08-2015</td>
            <td width="50"><p>02162</p></td>
            <td width="60"><b>00:00</b></td>
            <td width="60"><b>00:00</b></td>
            <td width="50" align="center">A</td>
            <td width="40" align="center">0</td>
            <td width="40" align="center">0</td>
            <td width="80">General Staff</td>
            <td></td>	
        </tr>
		        <tr bgcolor="#EEEEEE">
            <td width="30" align="center">76</td>
            <td width="50">0000613</td>
            <td width="80">0005228368</td>
            <td width="130">
				Md. Khaja Moyan Uddin  <br />cell:             </td>
            <td width="120">Manager</td>
            <td width="100">Quality</td>						
            <td width="100">Quality</td>
            <td width="100"></td>
            <td width="70">27-08-2015</td>
            <td width="50"><p>02163</p></td>
            <td width="60"><b>00:00</b></td>
            <td width="60"><b>00:00</b></td>
            <td width="50" align="center">A</td>
            <td width="40" align="center">0</td>
            <td width="40" align="center">0</td>
            <td width="80">General Staff</td>
            <td></td>	
        </tr>
		        <tr bgcolor="#FFFFFF">
            <td width="30" align="center">77</td>
            <td width="50">0000686</td>
            <td width="80">0005233042</td>
            <td width="130">
				Md. Arshadul Islam  <br />cell:             </td>
            <td width="120">Supervisor</td>
            <td width="100">Cutting</td>						
            <td width="100">Cutting</td>
            <td width="100"></td>
            <td width="70">27-08-2015</td>
            <td width="50"><p>02174</p></td>
            <td width="60"><b>00:00</b></td>
            <td width="60"><b>00:00</b></td>
            <td width="50" align="center">A</td>
            <td width="40" align="center">0</td>
            <td width="40" align="center">0</td>
            <td width="80">General Shift Staff</td>
            <td></td>	
        </tr>
		        <tr bgcolor="#EEEEEE">
            <td width="30" align="center">78</td>
            <td width="50">0000732</td>
            <td width="80">0002729922</td>
            <td width="130">
				Md. Rafiqul Islam  <br />cell:             </td>
            <td width="120">Supervisor</td>
            <td width="100">Sewing</td>						
            <td width="100">Sewing</td>
            <td width="100"></td>
            <td width="70">27-08-2015</td>
            <td width="50"><p>02176</p></td>
            <td width="60"><b>00:00</b></td>
            <td width="60"><b>00:00</b></td>
            <td width="50" align="center">A</td>
            <td width="40" align="center">0</td>
            <td width="40" align="center">0</td>
            <td width="80">General Shift Staff</td>
            <td></td>	
        </tr>
		        <tr  bgcolor="#CCCCCC" style="font-weight:bold">
            <td  colspan="14">&nbsp;Grand Total</td>
            <td width='' align='right'> 0.00</td>
            <td>&nbsp;</td>
            <td>&nbsp;</td>							
            </tr> 
            </table> <tfoot>
        <tr>
            <td colspan="17" align="center"><table width="1260px">
		<tr height="130" style="font-size:24px; font-family:Arial; font-weight:bold">
		 </tr></table></td>
        </tr>
</tfoot>
<!--</div>-->
</div>

</div>
<p></p>
    
	<table width="1000" border="1" class="rpt_table" rules="all">
		  <tr bgcolor="#F0F0B8">
				<td colspan="17" align="center" height=50><b>Summary</b></td>
		  </tr>
		  <tr>				
				<td colspan="3" align="left" bgcolor="#E5E5E5" height="50" ><b>Present :</b> 0 </td>								  	
				<td colspan="3"  align="left" bgcolor="#FFFFFF"><b>Absent :</b><a href='#' onclick="openmypage('popup_punch_report.php?emp_code=0000007,0000041,0000015,0000040,0000115,0000147,0000272,0000267,0000287,0000289,0000103,0000363,0000491,0000515,0000526,0000575,0000601,0000602,0000627,0000640,0000683,0000684,0000690,0000692,0000706,0000714,0000715,0000717,0000742,0000426,0000545,0000641,0000472,0000598,0000642,0000648,0000716,0000518,0000074,0000396,0000397,0000508,0000724,0000166,0000155,0000152,0000645,0000659,0000695,0000728,0000105,0000058,0000073,0000183,0000084,0000134,0000157,0000200,0000206,0000217,0000208,0000228,0000242,0000239,0000353,0000325,0000326,0000461,0000481,0000537,0000559,0000565,0000604,0000606,0000612,0000613,0000686,0000732&date=2015-08-27','Absent Information'); return false">78</a> </td>				  			  	
				<td colspan="3"  align="left" bgcolor="#E5E5E5"><b>Leave :</b> <a href='#' onclick="openmypage('popup_punch_report.php?emp_code=&date=2015-08-27','Leave Information'); return false">0</a> </td>				  				   
				<td colspan="2"  align="left" bgcolor="#FFFFFF"><b>Movement :</b><a href='#' onclick="openmypage('popup_punch_report.php?emp_code=&date=2015-08-27','Movement Information'); return false">0 </a> </td>				  			    
				<td colspan="2"  align="left" bgcolor="#E5E5E5"><b>Late :</b><a href='#' onclick="openmypage('popup_punch_report.php?emp_code=&date=2015-08-27','Late Information'); return false">0 </a></td>
                <td colspan="2"  align="left" bgcolor="#E5E5E5"><b>Weekend :</b><a href='#' onclick="openmypage('popup_punch_report.php?emp_code=&date=2015-08-27','Weekend Information'); return false">0 </a></td>				  			    
				<td colspan="2"  align="left" bgcolor="#FFFFFF"><b>Total :</b> 78 </td>					
		  </tr>
	</table> 
    
               	   	
        

</div>