<div>	<style type="text/css" media="print">
    p{ page-break-after: always;}
    </style>	
    <!--<div style=" border:1px solid #7F7FFF; width:1300px;">-->
	<table width="1280" cellpadding="0" cellspacing="0" border="1" style="font-size:11px;font-family:Arial" class="rpt_table" rules="all">
        <tr>
            <td colspan="17" align="center" style="border:hidden"><font size="+1">
                Peak Apparels Ltd.</font><br />
                <br />
                <font size="+0"> Daily Punch Report On 07-09-2015</font><br />
            </td>
        </tr>
    </table>
       	<!--<div style="width:1700px;margin-top:15px;" class="page" align="center">-->
    <div style="width:1300px;">
    <table cellpadding="0" cellspacing="0" border="1" class="rpt_table" style="font-size:10px;" width="1280" rules="all" align="left">
        <thead>
            <tr>
                <th width="30"><b>SL</b></th>
                <th width="50"><b>Emp Code</b></th>
                <th width="80"><b>Punch Card</b></th>
                <th width="130"><b>Name</b></th>
                <th width="120"><b>Designation</b></th>
                <th width="100"><b>Department</b></th>
                <th width="100"><b>Section</b></th>
                <th width="100"><b>Sub Section</b></th>
                <th width="70"><b>Attnd. Date</b></th>
                <th width="50"><b>ID Card</b></th>
                <th width="60"><b>In Time</b></th>
                <th width="60"><b>Out Time</b></th>
                <th width="50"><b>Status</b></th>
                <th width="40"><b>Late Min</b></th>
                <th width="40"><b>OT</b></th>
                <th width="80"><b>Shift Name</b></th>
                <th><b>Remarks</b></th>
            </tr>
    	</thead>
    </table>
    </div>
        <div style="width:1300px; overflow-y:scroll;" id="scroll_body">
    <table cellpadding="0" cellspacing="0" border="1" class="rpt_table" style="font-size:10px;" width="1280" rules="all" id="table_body" align="left">
	        <tr bgcolor="#FFFFFF">
            <td width="30" align="center">1</td>
            <td width="50">0000041</td>
            <td width="80">0004322160</td>
            <td width="130">
				Mst. Maleka  <br />cell: 01930640041            </td>
            <td width="120">S.M Operator</td>
            <td width="100">Sewing</td>						
            <td width="100">Sewing</td>
            <td width="100">Line-5</td>
            <td width="70">07-09-2015</td>
            <td width="50"><p>00002</p></td>
            <td width="60"><b>00:00</b></td>
            <td width="60"><b>00:00</b></td>
            <td width="50" align="center">A</td>
            <td width="40" align="center">0</td>
            <td width="40" align="center">0</td>
            <td width="80">General Shift Worker</td>
            <td></td>	
        </tr>
		        <tr bgcolor="#EEEEEE">
            <td width="30" align="center">2</td>
            <td width="50">0000037</td>
            <td width="80">0004308474</td>
            <td width="130">
				Md. Hazrat Ali  <br />cell: 01989814067            </td>
            <td width="120">Asst. Input Man</td>
            <td width="100">Sewing</td>						
            <td width="100">Sewing</td>
            <td width="100">Line-1</td>
            <td width="70">07-09-2015</td>
            <td width="50"><p>00036</p></td>
            <td width="60"><b>00:00</b></td>
            <td width="60"><b>00:00</b></td>
            <td width="50" align="center">A</td>
            <td width="40" align="center">0</td>
            <td width="40" align="center">0</td>
            <td width="80">General Shift Worker</td>
            <td></td>	
        </tr>
		        <tr bgcolor="#FFFFFF">
            <td width="30" align="center">3</td>
            <td width="50">0000024</td>
            <td width="80">0004322289</td>
            <td width="130">
				Mst. Runa Layla  <br />cell: 01761852912            </td>
            <td width="120">Repoter </td>
            <td width="100">Sewing</td>						
            <td width="100">Sewing</td>
            <td width="100">Line-1</td>
            <td width="70">07-09-2015</td>
            <td width="50"><p>00045</p></td>
            <td width="60"><b>00:00</b></td>
            <td width="60"><b>00:00</b></td>
            <td width="50" align="center">A</td>
            <td width="40" align="center">0</td>
            <td width="40" align="center">0</td>
            <td width="80">General Shift Worker</td>
            <td></td>	
        </tr>
		        <tr bgcolor="#EEEEEE">
            <td width="30" align="center">4</td>
            <td width="50">0000147</td>
            <td width="80">0004310106</td>
            <td width="130">
				Mst.Jaitun AKter  <br />cell:             </td>
            <td width="120">Jr. S.M Operator</td>
            <td width="100">Sewing</td>						
            <td width="100">Sewing</td>
            <td width="100">Line-1</td>
            <td width="70">07-09-2015</td>
            <td width="50"><p>00076</p></td>
            <td width="60"><b>00:00</b></td>
            <td width="60"><b>00:00</b></td>
            <td width="50" align="center">A</td>
            <td width="40" align="center">0</td>
            <td width="40" align="center">0</td>
            <td width="80">General Shift Worker</td>
            <td></td>	
        </tr>
		        <tr bgcolor="#FFFFFF">
            <td width="30" align="center">5</td>
            <td width="50">0000267</td>
            <td width="80">0008108704</td>
            <td width="130">
				Dilip Chandra   Sarker<br />cell:             </td>
            <td width="120">Supervisor</td>
            <td width="100">Sewing</td>						
            <td width="100">Sewing</td>
            <td width="100"></td>
            <td width="70">07-09-2015</td>
            <td width="50"><p>00113</p></td>
            <td width="60"><b>00:00</b></td>
            <td width="60"><b>00:00</b></td>
            <td width="50" align="center">A</td>
            <td width="40" align="center">0</td>
            <td width="40" align="center">0</td>
            <td width="80">General Staff</td>
            <td></td>	
        </tr>
		        <tr bgcolor="#EEEEEE">
            <td width="30" align="center">6</td>
            <td width="50">0000289</td>
            <td width="80">0003582457</td>
            <td width="130">
				Ibrahim Khalil  <br />cell:             </td>
            <td width="120">Asst. Input Man</td>
            <td width="100">Sewing</td>						
            <td width="100">Sewing</td>
            <td width="100">Line-7</td>
            <td width="70">07-09-2015</td>
            <td width="50"><p>00126</p></td>
            <td width="60"><b>00:00</b></td>
            <td width="60"><b>00:00</b></td>
            <td width="50" align="center">A</td>
            <td width="40" align="center">0</td>
            <td width="40" align="center">0</td>
            <td width="80">General Shift Worker</td>
            <td></td>	
        </tr>
		        <tr bgcolor="#FFFFFF">
            <td width="30" align="center">7</td>
            <td width="50">0000493</td>
            <td width="80">0008678715</td>
            <td width="130">
				Mst. Josna Khatun  <br />cell:             </td>
            <td width="120">Jr. S.M Operator</td>
            <td width="100">Sewing</td>						
            <td width="100">Sewing</td>
            <td width="100">Line-5</td>
            <td width="70">07-09-2015</td>
            <td width="50"><p>00204</p></td>
            <td width="60"><b>00:00</b></td>
            <td width="60"><b>00:00</b></td>
            <td width="50" align="center">A</td>
            <td width="40" align="center">0</td>
            <td width="40" align="center">0</td>
            <td width="80">General Shift Worker</td>
            <td></td>	
        </tr>
		        <tr bgcolor="#EEEEEE">
            <td width="30" align="center">8</td>
            <td width="50">0000601</td>
            <td width="80">0008680297</td>
            <td width="130">
				Mst. Shahida Akter  <br />cell:             </td>
            <td width="120">Sr. S.M. Operator</td>
            <td width="100">Sewing</td>						
            <td width="100">Sewing</td>
            <td width="100">Line-2</td>
            <td width="70">07-09-2015</td>
            <td width="50"><p>00234</p></td>
            <td width="60"><b>00:00</b></td>
            <td width="60"><b>00:00</b></td>
            <td width="50" align="center">A</td>
            <td width="40" align="center">0</td>
            <td width="40" align="center">0</td>
            <td width="80">General Shift Worker</td>
            <td></td>	
        </tr>
		        <tr bgcolor="#FFFFFF">
            <td width="30" align="center">9</td>
            <td width="50">0000602</td>
            <td width="80">0008691599</td>
            <td width="130">
				Md. Rasel  <br />cell:             </td>
            <td width="120">S.M Operator</td>
            <td width="100">Sewing</td>						
            <td width="100">Sewing</td>
            <td width="100">Line-7</td>
            <td width="70">07-09-2015</td>
            <td width="50"><p>00235</p></td>
            <td width="60"><b>00:00</b></td>
            <td width="60"><b>00:00</b></td>
            <td width="50" align="center">A</td>
            <td width="40" align="center">0</td>
            <td width="40" align="center">0</td>
            <td width="80">General Shift Worker</td>
            <td></td>	
        </tr>
		        <tr bgcolor="#EEEEEE">
            <td width="30" align="center">10</td>
            <td width="50">0000603</td>
            <td width="80">0008678107</td>
            <td width="130">
				Omit Ronjon Sharker  <br />cell:             </td>
            <td width="120">S.M Operator</td>
            <td width="100">Sewing</td>						
            <td width="100">Sewing</td>
            <td width="100">Line-2</td>
            <td width="70">07-09-2015</td>
            <td width="50"><p>00236</p></td>
            <td width="60"><b>00:00</b></td>
            <td width="60"><b>00:00</b></td>
            <td width="50" align="center">A</td>
            <td width="40" align="center">0</td>
            <td width="40" align="center">0</td>
            <td width="80">General Shift Worker</td>
            <td></td>	
        </tr>
		        <tr bgcolor="#FFFFFF">
            <td width="30" align="center">11</td>
            <td width="50">0000696</td>
            <td width="80">0002713182</td>
            <td width="130">
				Mst. Beauty Akter  <br />cell:             </td>
            <td width="120">Gen. S.M Operator</td>
            <td width="100">Sewing</td>						
            <td width="100">Sewing</td>
            <td width="100">Line-6</td>
            <td width="70">07-09-2015</td>
            <td width="50"><p>00270</p></td>
            <td width="60"><b>00:00</b></td>
            <td width="60"><b>00:00</b></td>
            <td width="50" align="center">A</td>
            <td width="40" align="center">0</td>
            <td width="40" align="center">0</td>
            <td width="80">General Shift Worker</td>
            <td></td>	
        </tr>
		        <tr bgcolor="#EEEEEE">
            <td width="30" align="center">12</td>
            <td width="50">0000706</td>
            <td width="80">0002730113</td>
            <td width="130">
				Minara Aktari  <br />cell:             </td>
            <td width="120">Gen. S.M Operator</td>
            <td width="100">Sewing</td>						
            <td width="100">Sewing</td>
            <td width="100">Line-2</td>
            <td width="70">07-09-2015</td>
            <td width="50"><p>00275</p></td>
            <td width="60"><b>00:00</b></td>
            <td width="60"><b>00:00</b></td>
            <td width="50" align="center">A</td>
            <td width="40" align="center">0</td>
            <td width="40" align="center">0</td>
            <td width="80">General Shift Worker</td>
            <td></td>	
        </tr>
		        <tr bgcolor="#FFFFFF">
            <td width="30" align="center">13</td>
            <td width="50">0000742</td>
            <td width="80">0002713039</td>
            <td width="130">
				Sustir Sarker  <br />cell:             </td>
            <td width="120">Line Iron Man</td>
            <td width="100">Sewing</td>						
            <td width="100">Sewing</td>
            <td width="100">Line-9</td>
            <td width="70">07-09-2015</td>
            <td width="50"><p>00296</p></td>
            <td width="60"><b>00:00</b></td>
            <td width="60"><b>00:00</b></td>
            <td width="50" align="center">A</td>
            <td width="40" align="center">0</td>
            <td width="40" align="center">0</td>
            <td width="80">General Shift Worker</td>
            <td></td>	
        </tr>
		        <tr bgcolor="#EEEEEE">
            <td width="30" align="center">14</td>
            <td width="50">0000043</td>
            <td width="80">0004322310</td>
            <td width="130">
				Mst. Sabina  Khatun<br />cell: 017535448087            </td>
            <td width="120">Quality Inspector</td>
            <td width="100">Sewing</td>						
            <td width="100">Quality</td>
            <td width="100"></td>
            <td width="70">07-09-2015</td>
            <td width="50"><p>00703</p></td>
            <td width="60"><b>00:00</b></td>
            <td width="60"><b>00:00</b></td>
            <td width="50" align="center">A</td>
            <td width="40" align="center">0</td>
            <td width="40" align="center">0</td>
            <td width="80">General Shift Worker</td>
            <td></td>	
        </tr>
		        <tr bgcolor="#FFFFFF">
            <td width="30" align="center">15</td>
            <td width="50">0000086</td>
            <td width="80">0004306042</td>
            <td width="130">
				Md. Tahashen  Ali<br />cell:             </td>
            <td width="120">Quality Inspector</td>
            <td width="100">Finishing</td>						
            <td width="100">Quality</td>
            <td width="100"></td>
            <td width="70">07-09-2015</td>
            <td width="50"><p>00715</p></td>
            <td width="60"><b>00:00</b></td>
            <td width="60"><b>00:00</b></td>
            <td width="50" align="center">A</td>
            <td width="40" align="center">0</td>
            <td width="40" align="center">0</td>
            <td width="80">General Shift Worker</td>
            <td></td>	
        </tr>
		        <tr bgcolor="#EEEEEE">
            <td width="30" align="center">16</td>
            <td width="50">0000578</td>
            <td width="80">0008682726</td>
            <td width="130">
				Md. Sanower Hossain  <br />cell:             </td>
            <td width="120">Jr. Cutter</td>
            <td width="100">Cutting</td>						
            <td width="100">Cutting</td>
            <td width="100"></td>
            <td width="70">07-09-2015</td>
            <td width="50"><p>00963</p></td>
            <td width="60"><b>00:00</b></td>
            <td width="60"><b>00:00</b></td>
            <td width="50" align="center">A</td>
            <td width="40" align="center">0</td>
            <td width="40" align="center">0</td>
            <td width="80">General Shift Worker</td>
            <td></td>	
        </tr>
		        <tr bgcolor="#FFFFFF">
            <td width="30" align="center">17</td>
            <td width="50">0000582</td>
            <td width="80">0008678704</td>
            <td width="130">
				Rajib Chandra Modak  <br />cell:             </td>
            <td width="120">Asst.Cutting</td>
            <td width="100">Cutting</td>						
            <td width="100">Cutting</td>
            <td width="100"></td>
            <td width="70">07-09-2015</td>
            <td width="50"><p>00967</p></td>
            <td width="60"><b>00:00</b></td>
            <td width="60"><b>00:00</b></td>
            <td width="50" align="center">A</td>
            <td width="40" align="center">0</td>
            <td width="40" align="center">0</td>
            <td width="80">General Shift Worker</td>
            <td></td>	
        </tr>
		        <tr bgcolor="#EEEEEE">
            <td width="30" align="center">18</td>
            <td width="50">0000593</td>
            <td width="80">0008678085</td>
            <td width="130">
				Md. Shamimul Hasan  <br />cell:             </td>
            <td width="120">Jr. Cutter</td>
            <td width="100">Cutting</td>						
            <td width="100">Cutting</td>
            <td width="100"></td>
            <td width="70">07-09-2015</td>
            <td width="50"><p>00972</p></td>
            <td width="60"><b>00:00</b></td>
            <td width="60"><b>00:00</b></td>
            <td width="50" align="center">A</td>
            <td width="40" align="center">0</td>
            <td width="40" align="center">0</td>
            <td width="80">General Shift Worker</td>
            <td></td>	
        </tr>
		        <tr bgcolor="#FFFFFF">
            <td width="30" align="center">19</td>
            <td width="50">0000074</td>
            <td width="80">0004322301</td>
            <td width="130">
				Mirza MD  Alauddin<br />cell: 01731897107            </td>
            <td width="120">Security Incharge</td>
            <td width="100">Admin and HR</td>						
            <td width="100">Security</td>
            <td width="100"></td>
            <td width="70">07-09-2015</td>
            <td width="50"><p>01100</p></td>
            <td width="60"><b>00:00</b></td>
            <td width="60"><b>00:00</b></td>
            <td width="50" align="center">A</td>
            <td width="40" align="center">0</td>
            <td width="40" align="center">0</td>
            <td width="80">General Shift Worker</td>
            <td></td>	
        </tr>
		        <tr bgcolor="#EEEEEE">
            <td width="30" align="center">20</td>
            <td width="50">0000397</td>
            <td width="80">0005221886</td>
            <td width="130">
				Md. Mizanur Rahman  <br />cell:             </td>
            <td width="120">Security Guard</td>
            <td width="100">Admin and HR</td>						
            <td width="100">Security</td>
            <td width="100"></td>
            <td width="70">07-09-2015</td>
            <td width="50"><p>01107</p></td>
            <td width="60"><b>00:00</b></td>
            <td width="60"><b>00:00</b></td>
            <td width="50" align="center">A</td>
            <td width="40" align="center">0</td>
            <td width="40" align="center">0</td>
            <td width="80">General Shift Worker</td>
            <td></td>	
        </tr>
		        <tr bgcolor="#FFFFFF">
            <td width="30" align="center">21</td>
            <td width="50">0000152</td>
            <td width="80">0004322258</td>
            <td width="130">
				Md.Julhas   Uddin<br />cell:             </td>
            <td width="120">Packer</td>
            <td width="100">Finishing</td>						
            <td width="100">Finishing</td>
            <td width="100"></td>
            <td width="70">07-09-2015</td>
            <td width="50"><p>01506</p></td>
            <td width="60"><b>00:00</b></td>
            <td width="60"><b>00:00</b></td>
            <td width="50" align="center">A</td>
            <td width="40" align="center">0</td>
            <td width="40" align="center">0</td>
            <td width="80">General Shift Worker</td>
            <td></td>	
        </tr>
		        <tr bgcolor="#EEEEEE">
            <td width="30" align="center">22</td>
            <td width="50">0000659</td>
            <td width="80">037</td>
            <td width="130">
				Md. Nur Hossain  <br />cell:             </td>
            <td width="120">Iron Man</td>
            <td width="100">Finishing</td>						
            <td width="100">Finishing</td>
            <td width="100"></td>
            <td width="70">07-09-2015</td>
            <td width="50"><p>01542</p></td>
            <td width="60"><b>00:00</b></td>
            <td width="60"><b>00:00</b></td>
            <td width="50" align="center">A</td>
            <td width="40" align="center">0</td>
            <td width="40" align="center">0</td>
            <td width="80">General Shift Worker</td>
            <td></td>	
        </tr>
		        <tr bgcolor="#FFFFFF">
            <td width="30" align="center">23</td>
            <td width="50">0000105</td>
            <td width="80">0004298367</td>
            <td width="130">
				Md. Mokbul  Hossain<br />cell:             </td>
            <td width="120">Officer (Yarn Store)</td>
            <td width="100">Store</td>						
            <td width="100">Store</td>
            <td width="100"></td>
            <td width="70">07-09-2015</td>
            <td width="50"><p>02007</p></td>
            <td width="60"><b>00:00</b></td>
            <td width="60"><b>00:00</b></td>
            <td width="50" align="center">A</td>
            <td width="40" align="center">0</td>
            <td width="40" align="center">0</td>
            <td width="80">General Staff</td>
            <td></td>	
        </tr>
		        <tr bgcolor="#EEEEEE">
            <td width="30" align="center">24</td>
            <td width="50">0000066</td>
            <td width="80">0004296898</td>
            <td width="130">
				Md. Motawakel  Billah<br />cell: 01718178409            </td>
            <td width="120">Planing Manager</td>
            <td width="100">Sewing</td>						
            <td width="100">Sewing</td>
            <td width="100"></td>
            <td width="70">07-09-2015</td>
            <td width="50"><p>02008</p></td>
            <td width="60"><b>00:00</b></td>
            <td width="60"><b>00:00</b></td>
            <td width="50" align="center">A</td>
            <td width="40" align="center">0</td>
            <td width="40" align="center">0</td>
            <td width="80">General Staff</td>
            <td></td>	
        </tr>
		        <tr bgcolor="#FFFFFF">
            <td width="30" align="center">25</td>
            <td width="50">0000064</td>
            <td width="80">0004311776</td>
            <td width="130">
				Abu Nasher  Sobuj<br />cell: 01915415204            </td>
            <td width="120">Assistant General Manager</td>
            <td width="100">General </td>						
            <td width="100">General</td>
            <td width="100"></td>
            <td width="70">07-09-2015</td>
            <td width="50"><p>02011</p></td>
            <td width="60"><b>00:00</b></td>
            <td width="60"><b>00:00</b></td>
            <td width="50" align="center">A</td>
            <td width="40" align="center">0</td>
            <td width="40" align="center">0</td>
            <td width="80">General Shift Staff</td>
            <td></td>	
        </tr>
		        <tr bgcolor="#EEEEEE">
            <td width="30" align="center">26</td>
            <td width="50">0000126</td>
            <td width="80">0004298807</td>
            <td width="130">
				Md. Anisur  Rahman<br />cell:             </td>
            <td width="120">Officer (Acc. Store)</td>
            <td width="100">Store</td>						
            <td width="100">Store</td>
            <td width="100"></td>
            <td width="70">07-09-2015</td>
            <td width="50"><p>02022</p></td>
            <td width="60"><b>00:00</b></td>
            <td width="60"><b>00:00</b></td>
            <td width="50" align="center">A</td>
            <td width="40" align="center">0</td>
            <td width="40" align="center">0</td>
            <td width="80">General Staff</td>
            <td></td>	
        </tr>
		        <tr bgcolor="#FFFFFF">
            <td width="30" align="center">27</td>
            <td width="50">0000084</td>
            <td width="80">0004296025</td>
            <td width="130">
				Md. Khaled  Hasan<br />cell:             </td>
            <td width="120">Store Assistant</td>
            <td width="100">Store</td>						
            <td width="100">Store</td>
            <td width="100"></td>
            <td width="70">07-09-2015</td>
            <td width="50"><p>02038</p></td>
            <td width="60"><b>00:00</b></td>
            <td width="60"><b>00:00</b></td>
            <td width="50" align="center">A</td>
            <td width="40" align="center">0</td>
            <td width="40" align="center">0</td>
            <td width="80">General Shift Worker</td>
            <td></td>	
        </tr>
		        <tr bgcolor="#EEEEEE">
            <td width="30" align="center">28</td>
            <td width="50">0000160</td>
            <td width="80">0004318678</td>
            <td width="130">
				Md.Khaja Maien  Uddin<br />cell:             </td>
            <td width="120">QC (Dyeing)</td>
            <td width="100">Dyeing</td>						
            <td width="100">Dyeing</td>
            <td width="100"></td>
            <td width="70">07-09-2015</td>
            <td width="50"><p>02059</p></td>
            <td width="60"><b>00:00</b></td>
            <td width="60"><b>00:00</b></td>
            <td width="50" align="center">A</td>
            <td width="40" align="center">0</td>
            <td width="40" align="center">0</td>
            <td width="80">General Shift Staff</td>
            <td></td>	
        </tr>
		        <tr bgcolor="#FFFFFF">
            <td width="30" align="center">29</td>
            <td width="50">0000158</td>
            <td width="80">0004296914</td>
            <td width="130">
				Mst.Porna   Akter<br />cell:             </td>
            <td width="120">Manager</td>
            <td width="100">Admin and HR</td>						
            <td width="100">Admin and HR</td>
            <td width="100"></td>
            <td width="70">07-09-2015</td>
            <td width="50"><p>02062</p></td>
            <td width="60"><b>00:00</b></td>
            <td width="60"><b>00:00</b></td>
            <td width="50" align="center">A</td>
            <td width="40" align="center">0</td>
            <td width="40" align="center">0</td>
            <td width="80">General Shift Staff</td>
            <td></td>	
        </tr>
		        <tr bgcolor="#EEEEEE">
            <td width="30" align="center">30</td>
            <td width="50">0000206</td>
            <td width="80">0000085573</td>
            <td width="130">
				Md. Aminul Islam  Mintu<br />cell: 01750183181            </td>
            <td width="120">Incharge</td>
            <td width="100">Pattern</td>						
            <td width="100">Pattern</td>
            <td width="100"></td>
            <td width="70">07-09-2015</td>
            <td width="50"><p>02066</p></td>
            <td width="60"><b>00:00</b></td>
            <td width="60"><b>00:00</b></td>
            <td width="50" align="center">A</td>
            <td width="40" align="center">0</td>
            <td width="40" align="center">0</td>
            <td width="80">General Staff</td>
            <td></td>	
        </tr>
		        <tr bgcolor="#FFFFFF">
            <td width="30" align="center">31</td>
            <td width="50">0000217</td>
            <td width="80">0004322155</td>
            <td width="130">
				Md. Rafiqul   Islam<br />cell:             </td>
            <td width="120">Incharge (Fabric)</td>
            <td width="100">Store</td>						
            <td width="100">Store</td>
            <td width="100"></td>
            <td width="70">07-09-2015</td>
            <td width="50"><p>02070</p></td>
            <td width="60"><b>00:00</b></td>
            <td width="60"><b>00:00</b></td>
            <td width="50" align="center">A</td>
            <td width="40" align="center">0</td>
            <td width="40" align="center">0</td>
            <td width="80">General Staff</td>
            <td></td>	
        </tr>
		        <tr bgcolor="#EEEEEE">
            <td width="30" align="center">32</td>
            <td width="50">0000208</td>
            <td width="80">0008691586</td>
            <td width="130">
				Md. Ismail  Hossain<br />cell: 01818602553            </td>
            <td width="120">Incharge</td>
            <td width="100">Cutting</td>						
            <td width="100">Cutting</td>
            <td width="100"></td>
            <td width="70">07-09-2015</td>
            <td width="50"><p>02074</p></td>
            <td width="60"><b>00:00</b></td>
            <td width="60"><b>00:00</b></td>
            <td width="50" align="center">A</td>
            <td width="40" align="center">0</td>
            <td width="40" align="center">0</td>
            <td width="80">General Staff</td>
            <td></td>	
        </tr>
		        <tr bgcolor="#FFFFFF">
            <td width="30" align="center">33</td>
            <td width="50">0000207</td>
            <td width="80">0004318673</td>
            <td width="130">
				Md. Mijanur  Rahman<br />cell:             </td>
            <td width="120">Incharge (Acc. Store)</td>
            <td width="100">Store</td>						
            <td width="100">Store</td>
            <td width="100"></td>
            <td width="70">07-09-2015</td>
            <td width="50"><p>02075</p></td>
            <td width="60"><b>00:00</b></td>
            <td width="60"><b>00:00</b></td>
            <td width="50" align="center">A</td>
            <td width="40" align="center">0</td>
            <td width="40" align="center">0</td>
            <td width="80">General Staff</td>
            <td></td>	
        </tr>
		        <tr bgcolor="#EEEEEE">
            <td width="30" align="center">34</td>
            <td width="50">0000353</td>
            <td width="80">0005233025</td>
            <td width="130">
				Md.Baccu Mia  <br />cell:             </td>
            <td width="120">Driver</td>
            <td width="100">Admin and HR</td>						
            <td width="100">Admin and HR</td>
            <td width="100"></td>
            <td width="70">07-09-2015</td>
            <td width="50"><p>02101</p></td>
            <td width="60"><b>00:00</b></td>
            <td width="60"><b>00:00</b></td>
            <td width="50" align="center">A</td>
            <td width="40" align="center">0</td>
            <td width="40" align="center">0</td>
            <td width="80">General Shift Worker</td>
            <td></td>	
        </tr>
		        <tr bgcolor="#FFFFFF">
            <td width="30" align="center">35</td>
            <td width="50">0000325</td>
            <td width="80">0005240970</td>
            <td width="130">
				Md. Sirajul Islam  <br />cell:             </td>
            <td width="120">Fire Safety Officer</td>
            <td width="100">Admin and HR</td>						
            <td width="100">Admin and HR</td>
            <td width="100"></td>
            <td width="70">07-09-2015</td>
            <td width="50"><p>02104</p></td>
            <td width="60"><b>00:00</b></td>
            <td width="60"><b>00:00</b></td>
            <td width="50" align="center">A</td>
            <td width="40" align="center">0</td>
            <td width="40" align="center">0</td>
            <td width="80">General Shift Staff</td>
            <td></td>	
        </tr>
		        <tr bgcolor="#EEEEEE">
            <td width="30" align="center">36</td>
            <td width="50">0000326</td>
            <td width="80">0000485614</td>
            <td width="130">
				Md. Helal Uddin  <br />cell:             </td>
            <td width="120">Boiler Operator</td>
            <td width="100">Admin and HR</td>						
            <td width="100">Maintenance-Mechanical</td>
            <td width="100"></td>
            <td width="70">07-09-2015</td>
            <td width="50"><p>02105</p></td>
            <td width="60"><b>00:00</b></td>
            <td width="60"><b>00:00</b></td>
            <td width="50" align="center">A</td>
            <td width="40" align="center">0</td>
            <td width="40" align="center">0</td>
            <td width="80">General Staff</td>
            <td></td>	
        </tr>
		        <tr bgcolor="#FFFFFF">
            <td width="30" align="center">37</td>
            <td width="50">0000418</td>
            <td width="80">0005233070</td>
            <td width="130">
				Md. Arif  <br />cell:             </td>
            <td width="120">Mechanic</td>
            <td width="100">Sewing</td>						
            <td width="100">Maintenance-Mechanical</td>
            <td width="100"></td>
            <td width="70">07-09-2015</td>
            <td width="50"><p>02127</p></td>
            <td width="60"><b>00:00</b></td>
            <td width="60"><b>00:00</b></td>
            <td width="50" align="center">A</td>
            <td width="40" align="center">0</td>
            <td width="40" align="center">0</td>
            <td width="80">General Shift Worker</td>
            <td></td>	
        </tr>
		        <tr bgcolor="#EEEEEE">
            <td width="30" align="center">38</td>
            <td width="50">0000749</td>
            <td width="80">0001</td>
            <td width="130">
				Md. Anisur Rahman Khan  <br />cell:             </td>
            <td width="120">Officer</td>
            <td width="100">Commercial</td>						
            <td width="100">Commercial</td>
            <td width="100"></td>
            <td width="70">07-09-2015</td>
            <td width="50"><p>02133</p></td>
            <td width="60"><b>00:00</b></td>
            <td width="60"><b>00:00</b></td>
            <td width="50" align="center">A</td>
            <td width="40" align="center">0</td>
            <td width="40" align="center">0</td>
            <td width="80">General Shift Staff</td>
            <td></td>	
        </tr>
		        <tr bgcolor="#FFFFFF">
            <td width="30" align="center">39</td>
            <td width="50">0000537</td>
            <td width="80">0008692072</td>
            <td width="130">
				Alauddin  <br />cell:             </td>
            <td width="120">Assistant Merchandiser</td>
            <td width="100">Marketing and Merchandising</td>						
            <td width="100">Merchandising</td>
            <td width="100"></td>
            <td width="70">07-09-2015</td>
            <td width="50"><p>02146</p></td>
            <td width="60"><b>00:00</b></td>
            <td width="60"><b>00:00</b></td>
            <td width="50" align="center">A</td>
            <td width="40" align="center">0</td>
            <td width="40" align="center">0</td>
            <td width="80">General Shift Staff</td>
            <td></td>	
        </tr>
		        <tr bgcolor="#EEEEEE">
            <td width="30" align="center">40</td>
            <td width="50">0000559</td>
            <td width="80">0008691677</td>
            <td width="130">
				Md. Shagor Shekh  <br />cell:             </td>
            <td width="120">Electrician</td>
            <td width="100">Admin and HR</td>						
            <td width="100">Maintenance-Electrical</td>
            <td width="100"></td>
            <td width="70">07-09-2015</td>
            <td width="50"><p>02148</p></td>
            <td width="60"><b>00:00</b></td>
            <td width="60"><b>00:00</b></td>
            <td width="50" align="center">A</td>
            <td width="40" align="center">0</td>
            <td width="40" align="center">0</td>
            <td width="80">General Shift Worker</td>
            <td></td>	
        </tr>
		        <tr bgcolor="#FFFFFF">
            <td width="30" align="center">41</td>
            <td width="50">0000563</td>
            <td width="80">0008678090</td>
            <td width="130">
				Md. Robiul Islam  <br />cell:             </td>
            <td width="120">Incharge</td>
            <td width="100">Admin and HR</td>						
            <td width="100">Maintenance-Electrical</td>
            <td width="100"></td>
            <td width="70">07-09-2015</td>
            <td width="50"><p>02151</p></td>
            <td width="60"><b>00:00</b></td>
            <td width="60"><b>00:00</b></td>
            <td width="50" align="center">A</td>
            <td width="40" align="center">0</td>
            <td width="40" align="center">0</td>
            <td width="80">General Staff</td>
            <td></td>	
        </tr>
		        <tr bgcolor="#EEEEEE">
            <td width="30" align="center">42</td>
            <td width="50">0000606</td>
            <td width="80">0008692697</td>
            <td width="130">
				Md. Forhad Ali Khan  <br />cell:             </td>
            <td width="120">Boiler Operator</td>
            <td width="100">Admin and HR</td>						
            <td width="100">Maintenance-Mechanical</td>
            <td width="100"></td>
            <td width="70">07-09-2015</td>
            <td width="50"><p>02161</p></td>
            <td width="60"><b>00:00</b></td>
            <td width="60"><b>00:00</b></td>
            <td width="50" align="center">A</td>
            <td width="40" align="center">0</td>
            <td width="40" align="center">0</td>
            <td width="80">General Staff</td>
            <td></td>	
        </tr>
		        <tr bgcolor="#FFFFFF">
            <td width="30" align="center">43</td>
            <td width="50">0000661</td>
            <td width="80">0002717077</td>
            <td width="130">
				Hossain Ahmed  <br />cell:             </td>
            <td width="120">Manager</td>
            <td width="100">Marketing and Merchandising</td>						
            <td width="100">Merchandising</td>
            <td width="100"></td>
            <td width="70">07-09-2015</td>
            <td width="50"><p>02167</p></td>
            <td width="60"><b>00:00</b></td>
            <td width="60"><b>00:00</b></td>
            <td width="50" align="center">A</td>
            <td width="40" align="center">0</td>
            <td width="40" align="center">0</td>
            <td width="80">General Shift Staff</td>
            <td></td>	
        </tr>
		        <tr bgcolor="#EEEEEE">
            <td width="30" align="center">44</td>
            <td width="50">0000686</td>
            <td width="80">0005233042</td>
            <td width="130">
				Md. Arshadul Islam  <br />cell:             </td>
            <td width="120">Supervisor</td>
            <td width="100">Cutting</td>						
            <td width="100">Cutting</td>
            <td width="100"></td>
            <td width="70">07-09-2015</td>
            <td width="50"><p>02174</p></td>
            <td width="60"><b>00:00</b></td>
            <td width="60"><b>00:00</b></td>
            <td width="50" align="center">A</td>
            <td width="40" align="center">0</td>
            <td width="40" align="center">0</td>
            <td width="80">General Shift Staff</td>
            <td></td>	
        </tr>
		        <tr bgcolor="#FFFFFF">
            <td width="30" align="center">45</td>
            <td width="50">0000748</td>
            <td width="80">0008501449</td>
            <td width="130">
				Mr. Rigan Chisim  <br />cell:             </td>
            <td width="120">Driver</td>
            <td width="100">Admin and HR</td>						
            <td width="100">Driving</td>
            <td width="100"></td>
            <td width="70">07-09-2015</td>
            <td width="50"><p>02177</p></td>
            <td width="60"><b>00:00</b></td>
            <td width="60"><b>00:00</b></td>
            <td width="50" align="center">A</td>
            <td width="40" align="center">0</td>
            <td width="40" align="center">0</td>
            <td width="80">General Shift Staff</td>
            <td></td>	
        </tr>
		        <tr bgcolor="#EEEEEE">
            <td width="30" align="center">46</td>
            <td width="50">0000750</td>
            <td width="80">0002</td>
            <td width="130">
				Mazibur Rahman  <br />cell:             </td>
            <td width="120">Officer</td>
            <td width="100">Commercial</td>						
            <td width="100">Commercial</td>
            <td width="100"></td>
            <td width="70">07-09-2015</td>
            <td width="50"><p>02246</p></td>
            <td width="60"><b>00:00</b></td>
            <td width="60"><b>00:00</b></td>
            <td width="50" align="center">A</td>
            <td width="40" align="center">0</td>
            <td width="40" align="center">0</td>
            <td width="80">General Shift Staff</td>
            <td></td>	
        </tr>
		        <tr  bgcolor="#CCCCCC" style="font-weight:bold">
            <td  colspan="14">&nbsp;Grand Total</td>
            <td width='' align='right'> 0.00</td>
            <td>&nbsp;</td>
            <td>&nbsp;</td>							
            </tr> 
            </table> <tfoot>
        <tr>
            <td colspan="17" align="center"><table width="1260px">
		<tr height="130" style="font-size:24px; font-family:Arial; font-weight:bold">
		 </tr></table></td>
        </tr>
</tfoot>
<!--</div>-->
</div>

</div>
<p></p>
    
	<table width="1000" border="1" class="rpt_table" rules="all">
		  <tr bgcolor="#F0F0B8">
				<td colspan="17" align="center" height=50><b>Summary</b></td>
		  </tr>
		  <tr>				
				<td colspan="3" align="left" bgcolor="#E5E5E5" height="50" ><b>Present :</b> 0 </td>								  	
				<td colspan="3"  align="left" bgcolor="#FFFFFF"><b>Absent :</b><a href='#' onclick="openmypage('popup_punch_report.php?emp_code=0000041,0000037,0000024,0000147,0000267,0000289,0000493,0000601,0000602,0000603,0000696,0000706,0000742,0000043,0000086,0000578,0000582,0000593,0000074,0000397,0000152,0000659,0000105,0000066,0000064,0000126,0000084,0000160,0000158,0000206,0000217,0000208,0000207,0000353,0000325,0000326,0000418,0000749,0000537,0000559,0000563,0000606,0000661,0000686,0000748,0000750&date=2015-09-07','Absent Information'); return false">46</a> </td>				  			  	
				<td colspan="3"  align="left" bgcolor="#E5E5E5"><b>Leave :</b> <a href='#' onclick="openmypage('popup_punch_report.php?emp_code=&date=2015-09-07','Leave Information'); return false">0</a> </td>				  				   
				<td colspan="2"  align="left" bgcolor="#FFFFFF"><b>Movement :</b><a href='#' onclick="openmypage('popup_punch_report.php?emp_code=&date=2015-09-07','Movement Information'); return false">0 </a> </td>				  			    
				<td colspan="2"  align="left" bgcolor="#E5E5E5"><b>Late :</b><a href='#' onclick="openmypage('popup_punch_report.php?emp_code=&date=2015-09-07','Late Information'); return false">0 </a></td>
                <td colspan="2"  align="left" bgcolor="#E5E5E5"><b>Weekend :</b><a href='#' onclick="openmypage('popup_punch_report.php?emp_code=&date=2015-09-07','Weekend Information'); return false">0 </a></td>				  			    
				<td colspan="2"  align="left" bgcolor="#FFFFFF"><b>Total :</b> 46 </td>					
		  </tr>
	</table> 
    
               	   	
        

</div>