<div>	<style type="text/css" media="print">
    p{ page-break-after: always;}
    </style>	
    <!--<div style=" border:1px solid #7F7FFF; width:1300px;">-->
	<table width="1280" cellpadding="0" cellspacing="0" border="1" style="font-size:11px;font-family:Arial" class="rpt_table" rules="all">
        <tr>
            <td colspan="17" align="center" style="border:hidden"><font size="+1">
                Peak Apparels Ltd.</font><br />
                <br />
                <font size="+0"> Daily Punch Report On 16-11-2015</font><br />
            </td>
        </tr>
    </table>
       	<!--<div style="width:1700px;margin-top:15px;" class="page" align="center">-->
    <div style="width:1300px;">
    <table cellpadding="0" cellspacing="0" border="1" class="rpt_table" style="font-size:10px;" width="1280" rules="all" align="left">
        <thead>
            <tr>
                <th width="30"><b>SL</b></th>
                <th width="50"><b>Emp Code</b></th>
                <th width="80"><b>Punch Card</b></th>
                <th width="130"><b>Name</b></th>
                <th width="120"><b>Designation</b></th>
                <th width="100"><b>Department</b></th>
                <th width="100"><b>Section</b></th>
                <th width="100"><b>Sub Section</b></th>
                <th width="70"><b>Attnd. Date</b></th>
                <th width="50"><b>ID Card</b></th>
                <th width="60"><b>In Time</b></th>
                <th width="60"><b>Out Time</b></th>
                <th width="50"><b>Status</b></th>
                <th width="40"><b>Late Min</b></th>
                <th width="40"><b>OT</b></th>
                <th width="80"><b>Shift Name</b></th>
                <th><b>Remarks</b></th>
            </tr>
    	</thead>
    </table>
    </div>
        <div style="width:1300px; overflow-y:scroll;" id="scroll_body">
    <table cellpadding="0" cellspacing="0" border="1" class="rpt_table" style="font-size:10px;" width="1280" rules="all" id="table_body" align="left">
	        <tr bgcolor="#FFFFFF">
            <td width="30" align="center">1</td>
            <td width="50">0000010</td>
            <td width="80">0004306044</td>
            <td width="130">
				Mst. Ronjina  Khatun<br />cell:             </td>
            <td width="120">Jr. S.M Operator</td>
            <td width="100">Sewing</td>						
            <td width="100">Sewing</td>
            <td width="100">Line-5</td>
            <td width="70">16-11-2015</td>
            <td width="50"><p>00023</p></td>
            <td width="60"><b>00:00</b></td>
            <td width="60"><b>00:00</b></td>
            <td width="50" align="center">A</td>
            <td width="40" align="center">0</td>
            <td width="40" align="center">0</td>
            <td width="80">General Shift Worker</td>
            <td></td>	
        </tr>
		        <tr bgcolor="#EEEEEE">
            <td width="30" align="center">2</td>
            <td width="50">0000018</td>
            <td width="80">0005221929</td>
            <td width="130">
				Mst. Rehena  Akhter<br />cell:             </td>
            <td width="120">Jr. S.M Operator</td>
            <td width="100">Sewing</td>						
            <td width="100">Sewing</td>
            <td width="100">Line-1</td>
            <td width="70">16-11-2015</td>
            <td width="50"><p>00034</p></td>
            <td width="60"><b>00:00</b></td>
            <td width="60"><b>00:00</b></td>
            <td width="50" align="center">A</td>
            <td width="40" align="center">0</td>
            <td width="40" align="center">0</td>
            <td width="80">General Shift Worker</td>
            <td></td>	
        </tr>
		        <tr bgcolor="#FFFFFF">
            <td width="30" align="center">3</td>
            <td width="50">0000033</td>
            <td width="80">0004318674</td>
            <td width="130">
				Mst. Aklima  Akhter<br />cell: 01933167757            </td>
            <td width="120">S.M Operator</td>
            <td width="100">Sewing</td>						
            <td width="100">Sewing</td>
            <td width="100">Line-3</td>
            <td width="70">16-11-2015</td>
            <td width="50"><p>00040</p></td>
            <td width="60"><b>00:00</b></td>
            <td width="60"><b>00:00</b></td>
            <td width="50" align="center">A</td>
            <td width="40" align="center">0</td>
            <td width="40" align="center">0</td>
            <td width="80">General Shift Worker</td>
            <td></td>	
        </tr>
		        <tr bgcolor="#EEEEEE">
            <td width="30" align="center">4</td>
            <td width="50">0000289</td>
            <td width="80">0003582457</td>
            <td width="130">
				Ibrahim Khalil  <br />cell:             </td>
            <td width="120">Asst. Input Man</td>
            <td width="100">Sewing</td>						
            <td width="100">Sewing</td>
            <td width="100">Line-7</td>
            <td width="70">16-11-2015</td>
            <td width="50"><p>00126</p></td>
            <td width="60"><b>00:00</b></td>
            <td width="60"><b>00:00</b></td>
            <td width="50" align="center">A</td>
            <td width="40" align="center">0</td>
            <td width="40" align="center">0</td>
            <td width="80">General Shift Worker</td>
            <td></td>	
        </tr>
		        <tr bgcolor="#FFFFFF">
            <td width="30" align="center">5</td>
            <td width="50">0000497</td>
            <td width="80">0008692498</td>
            <td width="130">
				Md. Mahabub Alam  <br />cell:             </td>
            <td width="120">Jr. S.M Operator</td>
            <td width="100">Sewing</td>						
            <td width="100">Sewing</td>
            <td width="100">Line-6</td>
            <td width="70">16-11-2015</td>
            <td width="50"><p>00208</p></td>
            <td width="60"><b>00:00</b></td>
            <td width="60"><b>00:00</b></td>
            <td width="50" align="center">A</td>
            <td width="40" align="center">0</td>
            <td width="40" align="center">0</td>
            <td width="80">General Shift Worker</td>
            <td></td>	
        </tr>
		        <tr bgcolor="#EEEEEE">
            <td width="30" align="center">6</td>
            <td width="50">0000548</td>
            <td width="80">0008692685</td>
            <td width="130">
				Md. ShorifulIslam  <br />cell:             </td>
            <td width="120">S.M Operator</td>
            <td width="100">Sewing</td>						
            <td width="100">Sewing</td>
            <td width="100">Line-6</td>
            <td width="70">16-11-2015</td>
            <td width="50"><p>00225</p></td>
            <td width="60"><b>00:00</b></td>
            <td width="60"><b>00:00</b></td>
            <td width="50" align="center">A</td>
            <td width="40" align="center">0</td>
            <td width="40" align="center">0</td>
            <td width="80">General Shift Worker</td>
            <td></td>	
        </tr>
		        <tr bgcolor="#FFFFFF">
            <td width="30" align="center">7</td>
            <td width="50">0000627</td>
            <td width="80">0002730648</td>
            <td width="130">
				Md. Firoz Alam  <br />cell:             </td>
            <td width="120">Sr. S.M. Operator</td>
            <td width="100">Sewing</td>						
            <td width="100">Sewing</td>
            <td width="100">Line-9</td>
            <td width="70">16-11-2015</td>
            <td width="50"><p>00247</p></td>
            <td width="60"><b>00:00</b></td>
            <td width="60"><b>00:00</b></td>
            <td width="50" align="center">A</td>
            <td width="40" align="center">0</td>
            <td width="40" align="center">0</td>
            <td width="80">General Shift Worker</td>
            <td></td>	
        </tr>
		        <tr bgcolor="#EEEEEE">
            <td width="30" align="center">8</td>
            <td width="50">0000634</td>
            <td width="80">0002722095</td>
            <td width="130">
				Md. Faruk Hossain  <br />cell:             </td>
            <td width="120">S.M Operator</td>
            <td width="100">Sewing</td>						
            <td width="100">Sewing</td>
            <td width="100">Line-9</td>
            <td width="70">16-11-2015</td>
            <td width="50"><p>00248</p></td>
            <td width="60"><b>00:00</b></td>
            <td width="60"><b>00:00</b></td>
            <td width="50" align="center">A</td>
            <td width="40" align="center">0</td>
            <td width="40" align="center">0</td>
            <td width="80">General Shift Worker</td>
            <td></td>	
        </tr>
		        <tr bgcolor="#FFFFFF">
            <td width="30" align="center">9</td>
            <td width="50">0000684</td>
            <td width="80">0002726949</td>
            <td width="130">
				Mst. Sheuly Akter  <br />cell:             </td>
            <td width="120">Gen. S.M Operator</td>
            <td width="100">Sewing</td>						
            <td width="100">Sewing</td>
            <td width="100">Line-4</td>
            <td width="70">16-11-2015</td>
            <td width="50"><p>00262</p></td>
            <td width="60"><b>00:00</b></td>
            <td width="60"><b>00:00</b></td>
            <td width="50" align="center">A</td>
            <td width="40" align="center">0</td>
            <td width="40" align="center">0</td>
            <td width="80">General Shift Worker</td>
            <td></td>	
        </tr>
		        <tr bgcolor="#EEEEEE">
            <td width="30" align="center">10</td>
            <td width="50">0000736</td>
            <td width="80">0008503995</td>
            <td width="130">
				Md. Rumon Mia  <br />cell:             </td>
            <td width="120">S.M Operator</td>
            <td width="100">Sewing</td>						
            <td width="100">Sewing</td>
            <td width="100">Line-9</td>
            <td width="70">16-11-2015</td>
            <td width="50"><p>00290</p></td>
            <td width="60"><b>00:00</b></td>
            <td width="60"><b>00:00</b></td>
            <td width="50" align="center">A</td>
            <td width="40" align="center">0</td>
            <td width="40" align="center">0</td>
            <td width="80">General Shift Worker</td>
            <td></td>	
        </tr>
		        <tr bgcolor="#FFFFFF">
            <td width="30" align="center">11</td>
            <td width="50">0000739</td>
            <td width="80">0002711598</td>
            <td width="130">
				Mst. Shuktara Khatun  <br />cell:             </td>
            <td width="120">Jr. S.M Operator</td>
            <td width="100">Sewing</td>						
            <td width="100">Sewing</td>
            <td width="100">Line-9</td>
            <td width="70">16-11-2015</td>
            <td width="50"><p>00293</p></td>
            <td width="60"><b>00:00</b></td>
            <td width="60"><b>00:00</b></td>
            <td width="50" align="center">A</td>
            <td width="40" align="center">0</td>
            <td width="40" align="center">0</td>
            <td width="80">General Shift Worker</td>
            <td></td>	
        </tr>
		        <tr bgcolor="#EEEEEE">
            <td width="30" align="center">12</td>
            <td width="50">0000781</td>
            <td width="80">0008494612</td>
            <td width="130">
				Md. Labu Mia  <br />cell:             </td>
            <td width="120">Line Iron Man</td>
            <td width="100">Sewing</td>						
            <td width="100">Sewing</td>
            <td width="100">Line-4</td>
            <td width="70">16-11-2015</td>
            <td width="50"><p>00302</p></td>
            <td width="60"><b>00:00</b></td>
            <td width="60"><b>00:00</b></td>
            <td width="50" align="center">A</td>
            <td width="40" align="center">0</td>
            <td width="40" align="center">0</td>
            <td width="80">General Shift Worker</td>
            <td></td>	
        </tr>
		        <tr bgcolor="#FFFFFF">
            <td width="30" align="center">13</td>
            <td width="50">0000784</td>
            <td width="80">0008499627</td>
            <td width="130">
				Mostakim  <br />cell:             </td>
            <td width="120">S.M Operator</td>
            <td width="100">Sewing</td>						
            <td width="100">Sewing</td>
            <td width="100">Line-2</td>
            <td width="70">16-11-2015</td>
            <td width="50"><p>00303</p></td>
            <td width="60"><b>00:00</b></td>
            <td width="60"><b>00:00</b></td>
            <td width="50" align="center">A</td>
            <td width="40" align="center">0</td>
            <td width="40" align="center">0</td>
            <td width="80">General Shift Worker</td>
            <td></td>	
        </tr>
		        <tr bgcolor="#EEEEEE">
            <td width="30" align="center">14</td>
            <td width="50">0000849</td>
            <td width="80">0008517353</td>
            <td width="130">
				Asma  <br />cell:             </td>
            <td width="120">S.M Operator</td>
            <td width="100">Sewing</td>						
            <td width="100">Sewing</td>
            <td width="100">Line-8</td>
            <td width="70">16-11-2015</td>
            <td width="50"><p>00320</p></td>
            <td width="60"><b>00:00</b></td>
            <td width="60"><b>00:00</b></td>
            <td width="50" align="center">A</td>
            <td width="40" align="center">0</td>
            <td width="40" align="center">0</td>
            <td width="80">General Shift Worker</td>
            <td></td>	
        </tr>
		        <tr bgcolor="#FFFFFF">
            <td width="30" align="center">15</td>
            <td width="50">0000850</td>
            <td width="80">0008496789</td>
            <td width="130">
				Md.Masud Rana  <br />cell:             </td>
            <td width="120">Sr. S.M. Operator</td>
            <td width="100">Sewing</td>						
            <td width="100">Sewing</td>
            <td width="100">Line-6</td>
            <td width="70">16-11-2015</td>
            <td width="50"><p>00321</p></td>
            <td width="60"><b>00:00</b></td>
            <td width="60"><b>00:00</b></td>
            <td width="50" align="center">A</td>
            <td width="40" align="center">0</td>
            <td width="40" align="center">0</td>
            <td width="80">General Shift Worker</td>
            <td></td>	
        </tr>
		        <tr bgcolor="#EEEEEE">
            <td width="30" align="center">16</td>
            <td width="50">0000869</td>
            <td width="80">0008502117</td>
            <td width="130">
				Md. Anisur Rahman  <br />cell:             </td>
            <td width="120">Jr. S.M Operator</td>
            <td width="100">Sewing</td>						
            <td width="100">Sewing</td>
            <td width="100">Line-6</td>
            <td width="70">16-11-2015</td>
            <td width="50"><p>00328</p></td>
            <td width="60"><b>00:00</b></td>
            <td width="60"><b>00:00</b></td>
            <td width="50" align="center">A</td>
            <td width="40" align="center">0</td>
            <td width="40" align="center">0</td>
            <td width="80">General Shift Worker</td>
            <td></td>	
        </tr>
		        <tr bgcolor="#FFFFFF">
            <td width="30" align="center">17</td>
            <td width="50">0000897</td>
            <td width="80">0008497732</td>
            <td width="130">
				Md. Matiar Rahman  <br />cell:             </td>
            <td width="120">Sr. S.M. Operator</td>
            <td width="100">Sewing</td>						
            <td width="100">Sewing</td>
            <td width="100">Line-2</td>
            <td width="70">16-11-2015</td>
            <td width="50"><p>00338</p></td>
            <td width="60"><b>00:00</b></td>
            <td width="60"><b>00:00</b></td>
            <td width="50" align="center">A</td>
            <td width="40" align="center">0</td>
            <td width="40" align="center">0</td>
            <td width="80">General Shift Worker</td>
            <td></td>	
        </tr>
		        <tr bgcolor="#EEEEEE">
            <td width="30" align="center">18</td>
            <td width="50">0000900</td>
            <td width="80">0008503496</td>
            <td width="130">
				Md. Rafiqul Islam  <br />cell:             </td>
            <td width="120">Sr. S.M. Operator</td>
            <td width="100">Sewing</td>						
            <td width="100">Sewing</td>
            <td width="100">Line-8</td>
            <td width="70">16-11-2015</td>
            <td width="50"><p>00341</p></td>
            <td width="60"><b>00:00</b></td>
            <td width="60"><b>00:00</b></td>
            <td width="50" align="center">A</td>
            <td width="40" align="center">0</td>
            <td width="40" align="center">0</td>
            <td width="80">General Shift Worker</td>
            <td></td>	
        </tr>
		        <tr bgcolor="#FFFFFF">
            <td width="30" align="center">19</td>
            <td width="50">0000093</td>
            <td width="80">0004306040</td>
            <td width="130">
				Mst. Shapna  Khatun<br />cell:             </td>
            <td width="120">A.S.M. Operator</td>
            <td width="100">Sewing</td>						
            <td width="100">Sewing</td>
            <td width="100">Line-3</td>
            <td width="70">16-11-2015</td>
            <td width="50"><p>00410</p></td>
            <td width="60"><b>00:00</b></td>
            <td width="60"><b>00:00</b></td>
            <td width="50" align="center">A</td>
            <td width="40" align="center">0</td>
            <td width="40" align="center">0</td>
            <td width="80">General Shift Worker</td>
            <td></td>	
        </tr>
		        <tr bgcolor="#EEEEEE">
            <td width="30" align="center">20</td>
            <td width="50">0000098</td>
            <td width="80">0005233018</td>
            <td width="130">
				Nargis  Akter<br />cell:             </td>
            <td width="120">Gen. S.M Operator</td>
            <td width="100">Sewing</td>						
            <td width="100">Sewing</td>
            <td width="100">Line-1</td>
            <td width="70">16-11-2015</td>
            <td width="50"><p>00421</p></td>
            <td width="60"><b>00:00</b></td>
            <td width="60"><b>00:00</b></td>
            <td width="50" align="center">A</td>
            <td width="40" align="center">0</td>
            <td width="40" align="center">0</td>
            <td width="80">General Shift Worker</td>
            <td></td>	
        </tr>
		        <tr bgcolor="#FFFFFF">
            <td width="30" align="center">21</td>
            <td width="50">0000679</td>
            <td width="80">0002712898</td>
            <td width="130">
				Mst. Taniya Sultana Toma  <br />cell:             </td>
            <td width="120">A.S.M. Operator</td>
            <td width="100">Sewing</td>						
            <td width="100">Sewing</td>
            <td width="100">Line-9</td>
            <td width="70">16-11-2015</td>
            <td width="50"><p>00463</p></td>
            <td width="60"><b>00:00</b></td>
            <td width="60"><b>00:00</b></td>
            <td width="50" align="center">A</td>
            <td width="40" align="center">0</td>
            <td width="40" align="center">0</td>
            <td width="80">General Shift Worker</td>
            <td></td>	
        </tr>
		        <tr bgcolor="#EEEEEE">
            <td width="30" align="center">22</td>
            <td width="50">0000775</td>
            <td width="80">0008506219</td>
            <td width="130">
				Aklima Begum  <br />cell:             </td>
            <td width="120">A.S.M. Operator</td>
            <td width="100">Sewing</td>						
            <td width="100">Sewing</td>
            <td width="100">Line-2</td>
            <td width="70">16-11-2015</td>
            <td width="50"><p>00480</p></td>
            <td width="60"><b>00:00</b></td>
            <td width="60"><b>00:00</b></td>
            <td width="50" align="center">A</td>
            <td width="40" align="center">0</td>
            <td width="40" align="center">0</td>
            <td width="80">General Shift Worker</td>
            <td></td>	
        </tr>
		        <tr bgcolor="#FFFFFF">
            <td width="30" align="center">23</td>
            <td width="50">0000514</td>
            <td width="80">0008691577</td>
            <td width="130">
				Matiur Rahman  <br />cell:             </td>
            <td width="120">Quality Inspector</td>
            <td width="100">Quality</td>						
            <td width="100">Quality</td>
            <td width="100"></td>
            <td width="70">16-11-2015</td>
            <td width="50"><p>00733</p></td>
            <td width="60"><b>00:00</b></td>
            <td width="60"><b>00:00</b></td>
            <td width="50" align="center">A</td>
            <td width="40" align="center">0</td>
            <td width="40" align="center">0</td>
            <td width="80">General Shift Worker</td>
            <td></td>	
        </tr>
		        <tr bgcolor="#EEEEEE">
            <td width="30" align="center">24</td>
            <td width="50">0000689</td>
            <td width="80">0002723890</td>
            <td width="130">
				Mahbub Hossain  <br />cell:             </td>
            <td width="120">Quality Inspector</td>
            <td width="100">Quality</td>						
            <td width="100">Quality</td>
            <td width="100"></td>
            <td width="70">16-11-2015</td>
            <td width="50"><p>00753</p></td>
            <td width="60"><b>00:00</b></td>
            <td width="60"><b>00:00</b></td>
            <td width="50" align="center">A</td>
            <td width="40" align="center">0</td>
            <td width="40" align="center">0</td>
            <td width="80">General Shift Worker</td>
            <td></td>	
        </tr>
		        <tr bgcolor="#FFFFFF">
            <td width="30" align="center">25</td>
            <td width="50">0000764</td>
            <td width="80">0008495941</td>
            <td width="130">
				Mst. Rujina Akter  <br />cell:             </td>
            <td width="120">Quality Inspector</td>
            <td width="100">Quality</td>						
            <td width="100">Quality</td>
            <td width="100"></td>
            <td width="70">16-11-2015</td>
            <td width="50"><p>00759</p></td>
            <td width="60"><b>00:00</b></td>
            <td width="60"><b>00:00</b></td>
            <td width="50" align="center">A</td>
            <td width="40" align="center">0</td>
            <td width="40" align="center">0</td>
            <td width="80">General Shift Worker</td>
            <td></td>	
        </tr>
		        <tr bgcolor="#EEEEEE">
            <td width="30" align="center">26</td>
            <td width="50">0000244</td>
            <td width="80">0003579710</td>
            <td width="130">
				Md.Abdur  Razzak<br />cell:             </td>
            <td width="120">Jr. Cutter</td>
            <td width="100">Cutting</td>						
            <td width="100">Cutting</td>
            <td width="100"></td>
            <td width="70">16-11-2015</td>
            <td width="50"><p>00930</p></td>
            <td width="60"><b>00:00</b></td>
            <td width="60"><b>00:00</b></td>
            <td width="50" align="center">A</td>
            <td width="40" align="center">0</td>
            <td width="40" align="center">0</td>
            <td width="80">General Shift Worker</td>
            <td></td>	
        </tr>
		        <tr bgcolor="#FFFFFF">
            <td width="30" align="center">27</td>
            <td width="50">0000245</td>
            <td width="80">0000248184</td>
            <td width="130">
				Md.Roman  Mia<br />cell:             </td>
            <td width="120">Scissor Man</td>
            <td width="100">Cutting</td>						
            <td width="100">Cutting</td>
            <td width="100"></td>
            <td width="70">16-11-2015</td>
            <td width="50"><p>00931</p></td>
            <td width="60"><b>00:00</b></td>
            <td width="60"><b>00:00</b></td>
            <td width="50" align="center">A</td>
            <td width="40" align="center">0</td>
            <td width="40" align="center">0</td>
            <td width="80">General Shift Worker</td>
            <td></td>	
        </tr>
		        <tr bgcolor="#EEEEEE">
            <td width="30" align="center">28</td>
            <td width="50">0000507</td>
            <td width="80">0008678127</td>
            <td width="130">
				Md. Shohidul Islam  <br />cell:             </td>
            <td width="120">Jr. Cutter</td>
            <td width="100">Cutting</td>						
            <td width="100">Cutting</td>
            <td width="100"></td>
            <td width="70">16-11-2015</td>
            <td width="50"><p>00952</p></td>
            <td width="60"><b>00:00</b></td>
            <td width="60"><b>00:00</b></td>
            <td width="50" align="center">A</td>
            <td width="40" align="center">0</td>
            <td width="40" align="center">0</td>
            <td width="80">General Shift Worker</td>
            <td></td>	
        </tr>
		        <tr bgcolor="#FFFFFF">
            <td width="30" align="center">29</td>
            <td width="50">0000519</td>
            <td width="80">0008678060</td>
            <td width="130">
				Showrove Chowdhuri  <br />cell:             </td>
            <td width="120">Asst.Cutting</td>
            <td width="100">Cutting</td>						
            <td width="100">Cutting</td>
            <td width="100"></td>
            <td width="70">16-11-2015</td>
            <td width="50"><p>00957</p></td>
            <td width="60"><b>00:00</b></td>
            <td width="60"><b>00:00</b></td>
            <td width="50" align="center">A</td>
            <td width="40" align="center">0</td>
            <td width="40" align="center">0</td>
            <td width="80">General Shift Worker</td>
            <td></td>	
        </tr>
		        <tr bgcolor="#EEEEEE">
            <td width="30" align="center">30</td>
            <td width="50">0000521</td>
            <td width="80">0008681940</td>
            <td width="130">
				Md. Mahafujur Rahman  <br />cell:             </td>
            <td width="120">Asst.Cutting</td>
            <td width="100">Cutting</td>						
            <td width="100">Cutting</td>
            <td width="100"></td>
            <td width="70">16-11-2015</td>
            <td width="50"><p>00959</p></td>
            <td width="60"><b>00:00</b></td>
            <td width="60"><b>00:00</b></td>
            <td width="50" align="center">A</td>
            <td width="40" align="center">0</td>
            <td width="40" align="center">0</td>
            <td width="80">General Shift Worker</td>
            <td></td>	
        </tr>
		        <tr bgcolor="#FFFFFF">
            <td width="30" align="center">31</td>
            <td width="50">0000578</td>
            <td width="80">0008682726</td>
            <td width="130">
				Md. Sanower Hossain  <br />cell:             </td>
            <td width="120">Jr. Cutter</td>
            <td width="100">Cutting</td>						
            <td width="100">Cutting</td>
            <td width="100"></td>
            <td width="70">16-11-2015</td>
            <td width="50"><p>00963</p></td>
            <td width="60"><b>00:00</b></td>
            <td width="60"><b>00:00</b></td>
            <td width="50" align="center">A</td>
            <td width="40" align="center">0</td>
            <td width="40" align="center">0</td>
            <td width="80">General Shift Worker</td>
            <td></td>	
        </tr>
		        <tr bgcolor="#EEEEEE">
            <td width="30" align="center">32</td>
            <td width="50">0000579</td>
            <td width="80">0008678062</td>
            <td width="130">
				Md. Shohag Hossen  <br />cell:             </td>
            <td width="120">Jr. Cutter</td>
            <td width="100">Cutting</td>						
            <td width="100">Cutting</td>
            <td width="100"></td>
            <td width="70">16-11-2015</td>
            <td width="50"><p>00964</p></td>
            <td width="60"><b>00:00</b></td>
            <td width="60"><b>00:00</b></td>
            <td width="50" align="center">A</td>
            <td width="40" align="center">0</td>
            <td width="40" align="center">0</td>
            <td width="80">General Shift Worker</td>
            <td></td>	
        </tr>
		        <tr bgcolor="#FFFFFF">
            <td width="30" align="center">33</td>
            <td width="50">0000666</td>
            <td width="80">0002724027</td>
            <td width="130">
				Md. Mosharof Hossain  <br />cell:             </td>
            <td width="120">Jr. Cutter</td>
            <td width="100">Cutting</td>						
            <td width="100">Cutting</td>
            <td width="100"></td>
            <td width="70">16-11-2015</td>
            <td width="50"><p>00983</p></td>
            <td width="60"><b>00:00</b></td>
            <td width="60"><b>00:00</b></td>
            <td width="50" align="center">A</td>
            <td width="40" align="center">0</td>
            <td width="40" align="center">0</td>
            <td width="80">General Shift Worker</td>
            <td></td>	
        </tr>
		        <tr bgcolor="#EEEEEE">
            <td width="30" align="center">34</td>
            <td width="50">0000673</td>
            <td width="80">0005235462</td>
            <td width="130">
				Md. Saddam Hossain  <br />cell:             </td>
            <td width="120">Jr. Cutter</td>
            <td width="100">Cutting</td>						
            <td width="100">Cutting</td>
            <td width="100"></td>
            <td width="70">16-11-2015</td>
            <td width="50"><p>00985</p></td>
            <td width="60"><b>00:00</b></td>
            <td width="60"><b>00:00</b></td>
            <td width="50" align="center">A</td>
            <td width="40" align="center">0</td>
            <td width="40" align="center">0</td>
            <td width="80">General Shift Worker</td>
            <td></td>	
        </tr>
		        <tr bgcolor="#FFFFFF">
            <td width="30" align="center">35</td>
            <td width="50">0000874</td>
            <td width="80">0008516049</td>
            <td width="130">
				Md. Fajar Ali  <br />cell:             </td>
            <td width="120">Security Guard</td>
            <td width="100">Admin and HR</td>						
            <td width="100">Security</td>
            <td width="100"></td>
            <td width="70">16-11-2015</td>
            <td width="50"><p>01116</p></td>
            <td width="60"><b>00:00</b></td>
            <td width="60"><b>00:00</b></td>
            <td width="50" align="center">A</td>
            <td width="40" align="center">0</td>
            <td width="40" align="center">0</td>
            <td width="80">General Shift Worker</td>
            <td></td>	
        </tr>
		        <tr bgcolor="#EEEEEE">
            <td width="30" align="center">36</td>
            <td width="50">0000654</td>
            <td width="80">0002713623</td>
            <td width="130">
				Mst. Aleya Khatun  <br />cell:             </td>
            <td width="120">Finishing Asst.</td>
            <td width="100">Finishing</td>						
            <td width="100">Finishing</td>
            <td width="100"></td>
            <td width="70">16-11-2015</td>
            <td width="50"><p>01540</p></td>
            <td width="60"><b>00:00</b></td>
            <td width="60"><b>00:00</b></td>
            <td width="50" align="center">A</td>
            <td width="40" align="center">0</td>
            <td width="40" align="center">0</td>
            <td width="80">General Shift Worker</td>
            <td></td>	
        </tr>
		        <tr bgcolor="#FFFFFF">
            <td width="30" align="center">37</td>
            <td width="50">0000082</td>
            <td width="80">0004322216</td>
            <td width="130">
				Md. Majedul  Islam<br />cell:             </td>
            <td width="120">Operator</td>
            <td width="100">Knitting</td>						
            <td width="100">Knitting</td>
            <td width="100"></td>
            <td width="70">16-11-2015</td>
            <td width="50"><p>01803</p></td>
            <td width="60"><b>00:00</b></td>
            <td width="60"><b>00:00</b></td>
            <td width="50" align="center">A</td>
            <td width="40" align="center">0</td>
            <td width="40" align="center">0</td>
            <td width="80">General Shift Worker</td>
            <td></td>	
        </tr>
		        <tr bgcolor="#EEEEEE">
            <td width="30" align="center">38</td>
            <td width="50">0000479</td>
            <td width="80">0008692699</td>
            <td width="130">
				Poritos Dewri  <br />cell:             </td>
            <td width="120">Asst. Knitting</td>
            <td width="100">Knitting</td>						
            <td width="100">Knitting</td>
            <td width="100"></td>
            <td width="70">16-11-2015</td>
            <td width="50"><p>01818</p></td>
            <td width="60"><b>00:00</b></td>
            <td width="60"><b>00:00</b></td>
            <td width="50" align="center">A</td>
            <td width="40" align="center">0</td>
            <td width="40" align="center">0</td>
            <td width="80">General Shift Worker</td>
            <td></td>	
        </tr>
		        <tr bgcolor="#FFFFFF">
            <td width="30" align="center">39</td>
            <td width="50">0000094</td>
            <td width="80">0008691578</td>
            <td width="130">
				Md. Raju Sheikh  Mon<br />cell:             </td>
            <td width="120">Peon </td>
            <td width="100">Admin and HR</td>						
            <td width="100">Admin and HR</td>
            <td width="100"></td>
            <td width="70">16-11-2015</td>
            <td width="50"><p>02037</p></td>
            <td width="60"><b>00:00</b></td>
            <td width="60"><b>00:00</b></td>
            <td width="50" align="center">A</td>
            <td width="40" align="center">0</td>
            <td width="40" align="center">0</td>
            <td width="80">General Shift Worker</td>
            <td></td>	
        </tr>
		        <tr bgcolor="#EEEEEE">
            <td width="30" align="center">40</td>
            <td width="50">0000387</td>
            <td width="80">0009999961</td>
            <td width="130">
				M.M. Waliur Rahman  <br />cell:             </td>
            <td width="120">C and F Officer</td>
            <td width="100">Commercial</td>						
            <td width="100">Commercial</td>
            <td width="100"></td>
            <td width="70">16-11-2015</td>
            <td width="50"><p>02040</p></td>
            <td width="60"><b>00:00</b></td>
            <td width="60"><b>00:00</b></td>
            <td width="50" align="center">A</td>
            <td width="40" align="center">0</td>
            <td width="40" align="center">0</td>
            <td width="80">HEAD OFFICE STAFF</td>
            <td></td>	
        </tr>
		        <tr bgcolor="#FFFFFF">
            <td width="30" align="center">41</td>
            <td width="50">0000206</td>
            <td width="80">0000085573</td>
            <td width="130">
				Md. Aminul Islam  Mintu<br />cell: 01750183181            </td>
            <td width="120">Incharge</td>
            <td width="100">Cutting</td>						
            <td width="100">Cutting</td>
            <td width="100"></td>
            <td width="70">16-11-2015</td>
            <td width="50"><p>02066</p></td>
            <td width="60"><b>00:00</b></td>
            <td width="60"><b>00:00</b></td>
            <td width="50" align="center">A</td>
            <td width="40" align="center">0</td>
            <td width="40" align="center">0</td>
            <td width="80">General Staff</td>
            <td></td>	
        </tr>
		        <tr bgcolor="#EEEEEE">
            <td width="30" align="center">42</td>
            <td width="50">0000418</td>
            <td width="80">0005233070</td>
            <td width="130">
				Md. Arif  <br />cell:             </td>
            <td width="120">Mechanic</td>
            <td width="100">Sewing</td>						
            <td width="100">Maintenance-Mechanical</td>
            <td width="100"></td>
            <td width="70">16-11-2015</td>
            <td width="50"><p>02127</p></td>
            <td width="60"><b>00:00</b></td>
            <td width="60"><b>00:00</b></td>
            <td width="50" align="center">A</td>
            <td width="40" align="center">0</td>
            <td width="40" align="center">0</td>
            <td width="80">General Shift Worker</td>
            <td></td>	
        </tr>
		        <tr bgcolor="#FFFFFF">
            <td width="30" align="center">43</td>
            <td width="50">0000749</td>
            <td width="80">0001</td>
            <td width="130">
				Md. Anisur Rahman Khan  <br />cell:             </td>
            <td width="120">Officer</td>
            <td width="100">Commercial</td>						
            <td width="100">Commercial</td>
            <td width="100"></td>
            <td width="70">16-11-2015</td>
            <td width="50"><p>02133</p></td>
            <td width="60"><b>00:00</b></td>
            <td width="60"><b>00:00</b></td>
            <td width="50" align="center">A</td>
            <td width="40" align="center">0</td>
            <td width="40" align="center">0</td>
            <td width="80">General Shift Staff</td>
            <td></td>	
        </tr>
		        <tr bgcolor="#EEEEEE">
            <td width="30" align="center">44</td>
            <td width="50">0000563</td>
            <td width="80">0008678090</td>
            <td width="130">
				Md. Robiul Islam  <br />cell:             </td>
            <td width="120">Incharge</td>
            <td width="100">Admin and HR</td>						
            <td width="100">Maintenance-Electrical</td>
            <td width="100"></td>
            <td width="70">16-11-2015</td>
            <td width="50"><p>02151</p></td>
            <td width="60"><b>00:00</b></td>
            <td width="60"><b>00:00</b></td>
            <td width="50" align="center">A</td>
            <td width="40" align="center">0</td>
            <td width="40" align="center">0</td>
            <td width="80">General Staff</td>
            <td></td>	
        </tr>
		        <tr bgcolor="#FFFFFF">
            <td width="30" align="center">45</td>
            <td width="50">0000585</td>
            <td width="80">0008678069</td>
            <td width="130">
				Md. Mazadul Islam  <br />cell:             </td>
            <td width="120">Sample Man</td>
            <td width="100">Sample</td>						
            <td width="100">Sample</td>
            <td width="100"></td>
            <td width="70">16-11-2015</td>
            <td width="50"><p>02155</p></td>
            <td width="60"><b>00:00</b></td>
            <td width="60"><b>00:00</b></td>
            <td width="50" align="center">A</td>
            <td width="40" align="center">0</td>
            <td width="40" align="center">0</td>
            <td width="80">General Shift Worker</td>
            <td></td>	
        </tr>
		        <tr bgcolor="#EEEEEE">
            <td width="30" align="center">46</td>
            <td width="50">0000650</td>
            <td width="80">0002731905</td>
            <td width="130">
				Md. Rashidul Islalm  <br />cell:             </td>
            <td width="120">Supervisor</td>
            <td width="100">Sewing</td>						
            <td width="100">Sewing</td>
            <td width="100"></td>
            <td width="70">16-11-2015</td>
            <td width="50"><p>02165</p></td>
            <td width="60"><b>00:00</b></td>
            <td width="60"><b>00:00</b></td>
            <td width="50" align="center">A</td>
            <td width="40" align="center">0</td>
            <td width="40" align="center">0</td>
            <td width="80">General Shift Staff</td>
            <td></td>	
        </tr>
		        <tr bgcolor="#FFFFFF">
            <td width="30" align="center">47</td>
            <td width="50">0000664</td>
            <td width="80">0002716918</td>
            <td width="130">
				Md. Milon Mia  <br />cell:             </td>
            <td width="120">Incharge (Finishing)</td>
            <td width="100">Finishing</td>						
            <td width="100">Finishing</td>
            <td width="100"></td>
            <td width="70">16-11-2015</td>
            <td width="50"><p>02170</p></td>
            <td width="60"><b>00:00</b></td>
            <td width="60"><b>00:00</b></td>
            <td width="50" align="center">A</td>
            <td width="40" align="center">0</td>
            <td width="40" align="center">0</td>
            <td width="80">General Shift Staff</td>
            <td></td>	
        </tr>
		        <tr bgcolor="#EEEEEE">
            <td width="30" align="center">48</td>
            <td width="50">0000748</td>
            <td width="80">0008501449</td>
            <td width="130">
				Director Driver (Mr.Tuhin)  <br />cell:             </td>
            <td width="120">Driver (Director Sir)</td>
            <td width="100">Admin and HR</td>						
            <td width="100">Driving</td>
            <td width="100"></td>
            <td width="70">16-11-2015</td>
            <td width="50"><p>02177</p></td>
            <td width="60"><b>00:00</b></td>
            <td width="60"><b>00:00</b></td>
            <td width="50" align="center">A</td>
            <td width="40" align="center">0</td>
            <td width="40" align="center">0</td>
            <td width="80">General Shift Staff</td>
            <td></td>	
        </tr>
		        <tr bgcolor="#FFFFFF">
            <td width="30" align="center">49</td>
            <td width="50">0000753</td>
            <td width="80">0008497506</td>
            <td width="130">
				Md. Shakhaowat Hossain (Moznu)  <br />cell:             </td>
            <td width="120">QC (Knitting)</td>
            <td width="100">Fabrics</td>						
            <td width="100">Fabrics and Dyeing</td>
            <td width="100"></td>
            <td width="70">16-11-2015</td>
            <td width="50"><p>02180</p></td>
            <td width="60"><b>00:00</b></td>
            <td width="60"><b>00:00</b></td>
            <td width="50" align="center">A</td>
            <td width="40" align="center">0</td>
            <td width="40" align="center">0</td>
            <td width="80">General Shift Staff</td>
            <td></td>	
        </tr>
		        <tr bgcolor="#EEEEEE">
            <td width="30" align="center">50</td>
            <td width="50">0000754</td>
            <td width="80">002</td>
            <td width="130">
				Director Driver (Mr.Nawfel)  <br />cell:             </td>
            <td width="120">Driver (Director Sir)</td>
            <td width="100">Admin and HR</td>						
            <td width="100">Driving</td>
            <td width="100"></td>
            <td width="70">16-11-2015</td>
            <td width="50"><p>02181</p></td>
            <td width="60"><b>00:00</b></td>
            <td width="60"><b>00:00</b></td>
            <td width="50" align="center">A</td>
            <td width="40" align="center">0</td>
            <td width="40" align="center">0</td>
            <td width="80">General Shift Staff</td>
            <td></td>	
        </tr>
		        <tr bgcolor="#FFFFFF">
            <td width="30" align="center">51</td>
            <td width="50">0000908</td>
            <td width="80">0008510216</td>
            <td width="130">
				Md. Shojon Ahmed  <br />cell:             </td>
            <td width="120">Production Manager</td>
            <td width="100">Sewing</td>						
            <td width="100">Sewing</td>
            <td width="100"></td>
            <td width="70">16-11-2015</td>
            <td width="50"><p>02191</p></td>
            <td width="60"><b>00:00</b></td>
            <td width="60"><b>00:00</b></td>
            <td width="50" align="center">A</td>
            <td width="40" align="center">0</td>
            <td width="40" align="center">0</td>
            <td width="80">General Shift Staff</td>
            <td></td>	
        </tr>
		        <tr bgcolor="#EEEEEE">
            <td width="30" align="center">52</td>
            <td width="50">0000920</td>
            <td width="80">00000001</td>
            <td width="130">
				Md. Moklesur Rahman (Mukul)  <br />cell:             </td>
            <td width="120">Officer</td>
            <td width="100">Commercial</td>						
            <td width="100">Commercial</td>
            <td width="100"></td>
            <td width="70">16-11-2015</td>
            <td width="50"><p>02193</p></td>
            <td width="60"><b>00:00</b></td>
            <td width="60"><b>00:00</b></td>
            <td width="50" align="center">A</td>
            <td width="40" align="center">0</td>
            <td width="40" align="center">0</td>
            <td width="80">General Shift Staff</td>
            <td></td>	
        </tr>
		        <tr bgcolor="#FFFFFF">
            <td width="30" align="center">53</td>
            <td width="50">0000750</td>
            <td width="80">0002</td>
            <td width="130">
				Mazibur Rahman  <br />cell:             </td>
            <td width="120">Officer</td>
            <td width="100">Commercial</td>						
            <td width="100">Commercial</td>
            <td width="100"></td>
            <td width="70">16-11-2015</td>
            <td width="50"><p>02246</p></td>
            <td width="60"><b>00:00</b></td>
            <td width="60"><b>00:00</b></td>
            <td width="50" align="center">A</td>
            <td width="40" align="center">0</td>
            <td width="40" align="center">0</td>
            <td width="80">General Shift Staff</td>
            <td></td>	
        </tr>
		        <tr bgcolor="#EEEEEE">
            <td width="30" align="center">54</td>
            <td width="50">0000808</td>
            <td width="80">0008506667</td>
            <td width="130">
				Md. Monsur Ali  <br />cell:             </td>
            <td width="120">S.M Operator</td>
            <td width="100">Sewing</td>						
            <td width="100">Sewing</td>
            <td width="100">Line-9</td>
            <td width="70">16-11-2015</td>
            <td width="50"><p>05011</p></td>
            <td width="60"><b>00:00</b></td>
            <td width="60"><b>00:00</b></td>
            <td width="50" align="center">A</td>
            <td width="40" align="center">0</td>
            <td width="40" align="center">0</td>
            <td width="80">General Shift Worker</td>
            <td></td>	
        </tr>
		        <tr bgcolor="#FFFFFF">
            <td width="30" align="center">55</td>
            <td width="50">0000810</td>
            <td width="80">0008506834</td>
            <td width="130">
				Md. Raton Mia  <br />cell:             </td>
            <td width="120">S.M Operator</td>
            <td width="100">Sewing</td>						
            <td width="100">Sewing</td>
            <td width="100">Line-9</td>
            <td width="70">16-11-2015</td>
            <td width="50"><p>05013</p></td>
            <td width="60"><b>00:00</b></td>
            <td width="60"><b>00:00</b></td>
            <td width="50" align="center">A</td>
            <td width="40" align="center">0</td>
            <td width="40" align="center">0</td>
            <td width="80">General Shift Worker</td>
            <td></td>	
        </tr>
		        <tr bgcolor="#EEEEEE">
            <td width="30" align="center">56</td>
            <td width="50">0000820</td>
            <td width="80">0008505859</td>
            <td width="130">
				Mst.Josna Begum  <br />cell:             </td>
            <td width="120">A.S.M. Operator</td>
            <td width="100">Sewing</td>						
            <td width="100">Sewing</td>
            <td width="100">Line-9</td>
            <td width="70">16-11-2015</td>
            <td width="50"><p>05018</p></td>
            <td width="60"><b>00:00</b></td>
            <td width="60"><b>00:00</b></td>
            <td width="50" align="center">A</td>
            <td width="40" align="center">0</td>
            <td width="40" align="center">0</td>
            <td width="80">General Shift Worker</td>
            <td></td>	
        </tr>
		        <tr bgcolor="#FFFFFF">
            <td width="30" align="center">57</td>
            <td width="50">0000844</td>
            <td width="80">0008510784</td>
            <td width="130">
				Md. Ebrahim Hossain  <br />cell:             </td>
            <td width="120">Asst. Input Man</td>
            <td width="100">Sewing</td>						
            <td width="100">Sewing</td>
            <td width="100">Line-9</td>
            <td width="70">16-11-2015</td>
            <td width="50"><p>05029</p></td>
            <td width="60"><b>00:00</b></td>
            <td width="60"><b>00:00</b></td>
            <td width="50" align="center">A</td>
            <td width="40" align="center">0</td>
            <td width="40" align="center">0</td>
            <td width="80">General Shift Worker</td>
            <td></td>	
        </tr>
		        <tr bgcolor="#EEEEEE">
            <td width="30" align="center">58</td>
            <td width="50">0000864</td>
            <td width="80">0008498983</td>
            <td width="130">
				Mst. Shapla Begum  <br />cell:             </td>
            <td width="120">A.S.M. Operator</td>
            <td width="100">Sewing</td>						
            <td width="100">Sewing</td>
            <td width="100">Line-9</td>
            <td width="70">16-11-2015</td>
            <td width="50"><p>05035</p></td>
            <td width="60"><b>00:00</b></td>
            <td width="60"><b>00:00</b></td>
            <td width="50" align="center">A</td>
            <td width="40" align="center">0</td>
            <td width="40" align="center">0</td>
            <td width="80">General Shift Worker</td>
            <td></td>	
        </tr>
		        <tr bgcolor="#FFFFFF">
            <td width="30" align="center">59</td>
            <td width="50">0000881</td>
            <td width="80">0008519181</td>
            <td width="130">
				Mst. Lipi Khatun  <br />cell:             </td>
            <td width="120">Jr. S.M Operator</td>
            <td width="100">Sewing</td>						
            <td width="100">Sewing</td>
            <td width="100">Line-9</td>
            <td width="70">16-11-2015</td>
            <td width="50"><p>05043</p></td>
            <td width="60"><b>00:00</b></td>
            <td width="60"><b>00:00</b></td>
            <td width="50" align="center">A</td>
            <td width="40" align="center">0</td>
            <td width="40" align="center">0</td>
            <td width="80">General Shift Worker</td>
            <td></td>	
        </tr>
		        <tr bgcolor="#EEEEEE">
            <td width="30" align="center">60</td>
            <td width="50">0000894</td>
            <td width="80">0008503803</td>
            <td width="130">
				Misti Khatun  <br />cell:             </td>
            <td width="120">A.S.M. Operator</td>
            <td width="100">Sewing</td>						
            <td width="100">Sewing</td>
            <td width="100">Line-9</td>
            <td width="70">16-11-2015</td>
            <td width="50"><p>05047</p></td>
            <td width="60"><b>00:00</b></td>
            <td width="60"><b>00:00</b></td>
            <td width="50" align="center">A</td>
            <td width="40" align="center">0</td>
            <td width="40" align="center">0</td>
            <td width="80">General Shift Worker</td>
            <td></td>	
        </tr>
		        <tr bgcolor="#FFFFFF">
            <td width="30" align="center">61</td>
            <td width="50">0000906</td>
            <td width="80">0008499252</td>
            <td width="130">
				Md.Monir Hossain  <br />cell:             </td>
            <td width="120">Line Chief </td>
            <td width="100">Sewing</td>						
            <td width="100">Sewing</td>
            <td width="100"></td>
            <td width="70">16-11-2015</td>
            <td width="50"><p>05049</p></td>
            <td width="60"><b>00:00</b></td>
            <td width="60"><b>00:00</b></td>
            <td width="50" align="center">A</td>
            <td width="40" align="center">0</td>
            <td width="40" align="center">0</td>
            <td width="80">General Shift Staff</td>
            <td></td>	
        </tr>
		        <tr bgcolor="#EEEEEE">
            <td width="30" align="center">62</td>
            <td width="50">0000832</td>
            <td width="80">0008499272</td>
            <td width="130">
				Mst. Shilpi Akter  <br />cell:             </td>
            <td width="120">S.M Operator</td>
            <td width="100">Sewing</td>						
            <td width="100">Sewing</td>
            <td width="100">Line-9</td>
            <td width="70">16-11-2015</td>
            <td width="50"><p>05051</p></td>
            <td width="60"><b>00:00</b></td>
            <td width="60"><b>00:00</b></td>
            <td width="50" align="center">A</td>
            <td width="40" align="center">0</td>
            <td width="40" align="center">0</td>
            <td width="80">General Shift Worker</td>
            <td></td>	
        </tr>
		        <tr bgcolor="#FFFFFF">
            <td width="30" align="center">63</td>
            <td width="50">0000834</td>
            <td width="80">0008515188</td>
            <td width="130">
				Md.Ikhtiar Uddin  <br />cell:             </td>
            <td width="120">Gen. S.M Operator</td>
            <td width="100">Sewing</td>						
            <td width="100">Sewing</td>
            <td width="100">Line-9</td>
            <td width="70">16-11-2015</td>
            <td width="50"><p>05061</p></td>
            <td width="60"><b>00:00</b></td>
            <td width="60"><b>00:00</b></td>
            <td width="50" align="center">A</td>
            <td width="40" align="center">0</td>
            <td width="40" align="center">0</td>
            <td width="80">General Shift Worker</td>
            <td></td>	
        </tr>
		        <tr  bgcolor="#CCCCCC" style="font-weight:bold">
            <td  colspan="14">&nbsp;Grand Total</td>
            <td width='' align='right'> 0.00</td>
            <td>&nbsp;</td>
            <td>&nbsp;</td>							
            </tr> 
            </table> <tfoot>
        <tr>
            <td colspan="17" align="center"><table width="1260px">
		<tr height="130" style="font-size:24px; font-family:Arial; font-weight:bold">
		 </tr></table></td>
        </tr>
</tfoot>
<!--</div>-->
</div>

</div>
<p></p>
    
	<table width="1000" border="1" class="rpt_table" rules="all">
		  <tr bgcolor="#F0F0B8">
				<td colspan="17" align="center" height=50><b>Summary</b></td>
		  </tr>
		  <tr>				
				<td colspan="3" align="left" bgcolor="#E5E5E5" height="50" ><b>Present :</b> 0 </td>								  	
				<td colspan="3"  align="left" bgcolor="#FFFFFF"><b>Absent :</b><a href='#' onclick="openmypage('popup_punch_report.php?emp_code=0000010,0000018,0000033,0000289,0000497,0000548,0000627,0000634,0000684,0000736,0000739,0000781,0000784,0000849,0000850,0000869,0000897,0000900,0000093,0000098,0000679,0000775,0000514,0000689,0000764,0000244,0000245,0000507,0000519,0000521,0000578,0000579,0000666,0000673,0000874,0000654,0000082,0000479,0000094,0000387,0000206,0000418,0000749,0000563,0000585,0000650,0000664,0000748,0000753,0000754,0000908,0000920,0000750,0000808,0000810,0000820,0000844,0000864,0000881,0000894,0000906,0000832,0000834&date=2015-11-16','Absent Information'); return false">63</a> </td>				  			  	
				<td colspan="3"  align="left" bgcolor="#E5E5E5"><b>Leave :</b> <a href='#' onclick="openmypage('popup_punch_report.php?emp_code=&date=2015-11-16','Leave Information'); return false">0</a> </td>				  				   
				<td colspan="2"  align="left" bgcolor="#FFFFFF"><b>Movement :</b><a href='#' onclick="openmypage('popup_punch_report.php?emp_code=&date=2015-11-16','Movement Information'); return false">0 </a> </td>				  			    
				<td colspan="2"  align="left" bgcolor="#E5E5E5"><b>Late :</b><a href='#' onclick="openmypage('popup_punch_report.php?emp_code=&date=2015-11-16','Late Information'); return false">0 </a></td>
                <td colspan="2"  align="left" bgcolor="#E5E5E5"><b>Weekend :</b><a href='#' onclick="openmypage('popup_punch_report.php?emp_code=&date=2015-11-16','Weekend Information'); return false">0 </a></td>				  			    
				<td colspan="2"  align="left" bgcolor="#FFFFFF"><b>Total :</b> 63 </td>					
		  </tr>
	</table> 
    
               	   	
        

</div>